date.time,observation,timestamp,Pressure,Temp,press_mmHg,BP_mmHg,Z
2021-08-14 14:30:00,7,08/14/21 02:30:00 PM,101.778,36.079,763.39810236,638.2609,12.8980831127603
2021-08-14 15:00:00,9,08/14/21 03:00:00 PM,101.754,36.403,763.21808748,641.6792,12.527199286745
2021-08-14 15:30:00,11,08/14/21 03:30:00 PM,101.664,34.374,762.54303168,644.4611,12.170885557617
2021-08-14 16:00:00,13,08/14/21 04:00:00 PM,101.652,36.295,762.45302424,642.2288,12.3916949330035
2021-08-14 16:30:00,15,08/14/21 04:30:00 PM,101.65,37.384,762.438023,646.6224,11.9372936507937
2021-08-14 17:00:00,17,08/14/21 05:00:00 PM,101.614,35.542,762.16800068,642.3455,12.3502886703772
2021-08-14 17:30:00,19,08/14/21 05:30:00 PM,101.598,32.6,762.04799076,645.1479,12.0490714038343
2021-08-14 18:00:00,21,08/14/21 06:00:00 PM,101.566,30.862,761.80797092,639.9002,12.5652206679035
2021-08-14 18:30:00,23,08/14/21 06:30:00 PM,101.585,30.963,761.9504827,644.6213,12.0932985673057
2021-08-14 19:00:00,25,08/14/21 07:00:00 PM,101.565,30.255,761.8004703,644.6075,12.0792589466089
2021-08-14 19:30:00,27,08/14/21 07:30:00 PM,101.637,29.252,762.34051494,644.7908,12.1160291630592
2021-08-14 20:00:00,29,08/14/21 08:00:00 PM,101.692,28.258,762.75304904,647.671,11.861683059163
2021-08-14 20:30:00,31,08/14/21 08:30:00 PM,101.755,27.567,763.2255881,646.1324,12.0689742424242
2021-08-14 21:00:00,33,08/14/21 09:00:00 PM,101.827,26.585,763.76563274,647.3482,11.9993231024531
2021-08-14 21:30:00,35,08/14/21 09:30:00 PM,101.836,25.708,763.83313832,644.0947,12.3416242341785
2021-08-14 22:00:00,37,08/14/21 10:00:00 PM,101.851,25.028,763.94564762,643.0255,12.4634248216862
2021-08-14 22:30:00,39,08/14/21 10:30:00 PM,101.824,24.641,763.74313088,645.1846,12.2200093671408
2021-08-14 23:00:00,41,08/14/21 11:00:00 PM,101.879,24.255,764.15566498,645.3173,12.2488522964337
2021-08-14 23:30:00,43,08/14/21 11:30:00 PM,101.871,23.966,764.09566002,642.9454,12.4871428592043
2021-08-15 00:00:00,45,08/15/21 12:00:00 AM,101.984,23.869,764.94323008,642.0891,12.6627633560091
2021-08-15 00:30:00,47,08/15/21 12:30:00 AM,101.926,24.158,764.50819412,642.9179,12.5324978478664
2021-08-15 01:00:00,49,08/15/21 01:00:00 AM,101.806,23.966,763.60811972,643.6277,12.3665656277056
2021-08-15 01:30:00,51,08/15/21 01:30:00 AM,101.765,23.677,763.3005943,642.199,12.4821268089054
2021-08-15 02:00:00,53,08/15/21 02:00:00 AM,101.803,23.869,763.58561786,640.4795,12.688736122449
2021-08-15 02:30:00,55,08/15/21 02:30:00 AM,101.776,24.062,763.38310112,642.4691,12.462791292517
2021-08-15 03:00:00,57,08/15/21 03:00:00 AM,101.757,23.966,763.24058934,642.7759,12.4164800391672
2021-08-15 03:30:00,59,08/15/21 03:30:00 AM,101.817,23.773,763.69062654,644.0856,12.3278732776747
2021-08-15 04:00:00,61,08/15/21 04:00:00 AM,101.878,23.581,764.14816436,642.4371,12.5449458214801
2021-08-15 04:30:00,63,08/15/21 04:30:00 AM,101.869,23.869,764.08065878,644.3787,12.3378642321171
2021-08-15 05:00:00,65,08/15/21 05:00:00 AM,101.833,23.773,763.81063646,643.7009,12.3798945021645
2021-08-15 05:30:00,67,08/15/21 05:30:00 AM,101.836,23.869,763.83313832,645.2487,12.2226796866625
2021-08-15 06:00:00,69,08/15/21 06:00:00 AM,101.869,23.869,764.08065878,643.6506,12.4129106143063
2021-08-15 06:30:00,71,08/15/21 06:30:00 AM,101.902,23.869,764.32817924,643.6093,12.4426797814884
2021-08-15 07:00:00,73,08/15/21 07:00:00 AM,101.94,24.062,764.6132028,644.0947,12.4220266749124
2021-08-15 07:30:00,75,08/15/21 07:30:00 AM,101.98,24.351,764.9132276,640.4497,12.8286464234179
2021-08-15 08:00:00,77,08/15/21 08:00:00 AM,102.018,24.545,765.19825116,642.9591,12.5993765367965
2021-08-15 08:30:00,79,08/15/21 08:30:00 AM,102.022,24.062,765.22825364,641.7319,12.7289583219955
2021-08-15 09:00:00,81,08/15/21 09:00:00 AM,102.041,24.158,765.37076542,645.9951,12.304232675737
2021-08-15 09:30:00,83,08/15/21 09:30:00 AM,102.055,25.319,765.4757741,644.319,12.4878142754071
2021-08-15 10:00:00,85,08/15/21 10:00:00 AM,102.081,26.292,765.67079022,643.1056,12.6329818820862
2021-08-15 10:30:00,87,08/15/21 10:30:00 AM,102.111,26.781,765.89580882,647.7993,12.1723880457638
2021-08-15 11:00:00,89,08/15/21 11:00:00 AM,102.135,28.258,766.0758237,644.2229,12.5595674809318
2021-08-15 11:30:00,91,08/15/21 11:30:00 AM,102.135,28.853,766.0758237,644.1886,12.5631028344671
2021-08-15 12:00:00,93,08/15/21 12:00:00 PM,102.11,29.152,765.8883082,643.8383,12.5798812822099
2021-08-15 12:30:00,95,08/15/21 12:30:00 PM,102.091,28.456,765.74579642,647.6847,12.1687380354566
2021-08-15 13:00:00,97,08/15/21 01:00:00 PM,102.056,27.764,765.48327472,644.6442,12.4550685137085
2021-08-15 13:30:00,99,08/15/21 01:30:00 PM,102.043,26.683,765.38576666,641.0703,12.8133855555556
2021-08-15 14:00:00,101,08/15/21 02:00:00 PM,102.028,27.961,765.27325736,646.7574,12.2156109420738
2021-08-15 14:30:00,103,08/15/21 02:30:00 PM,102.039,28.953,765.35576418,644.2778,12.4796912162441
2021-08-15 15:00:00,105,08/15/21 03:00:00 PM,101.995,29.152,765.0257369,644.7106,12.4010654401154
2021-08-15 15:30:00,107,08/15/21 03:30:00 PM,101.966,31.676,764.80821892,641.6128,12.6979405194805
2021-08-15 16:00:00,109,08/15/21 04:00:00 PM,101.924,30.154,764.49319288,642.8308,12.5399291774892
2021-08-15 16:30:00,111,08/15/21 04:30:00 PM,101.916,29.853,764.43318792,641.6036,12.660233757988
2021-08-15 17:00:00,113,08/15/21 05:00:00 PM,101.883,28.655,764.18566746,646.6362,12.1160036549165
2021-08-15 17:30:00,115,08/15/21 05:30:00 PM,101.878,27.862,764.14816436,645.9722,12.1805776499691
2021-08-15 18:00:00,117,08/15/21 06:00:00 PM,101.895,27.272,764.2756749,641.0358,12.7025226654298
2021-08-15 18:30:00,119,08/15/21 06:30:00 PM,101.862,27.272,764.02815444,648.0694,11.9520464275407
2021-08-15 19:00:00,121,08/15/21 07:00:00 PM,101.889,27.075,764.23067118,649.553,11.8200032137704
2021-08-15 19:30:00,123,08/15/21 07:30:00 PM,101.923,26.488,764.48569226,647.3688,12.0714174665018
2021-08-15 20:00:00,125,08/15/21 08:00:00 PM,101.942,26,764.62820404,643.5452,12.4802106823335
2021-08-15 20:30:00,127,08/15/21 08:30:00 PM,101.948,25.61,764.67320776,645.0861,12.3260263615749
2021-08-15 21:00:00,129,08/15/21 09:00:00 PM,101.94,25.319,764.6132028,645.4501,12.2823235209235
2021-08-15 21:30:00,131,08/15/21 09:30:00 PM,101.93,24.931,764.5381966,645.5143,12.2679753246753
2021-08-15 22:00:00,133,08/15/21 10:00:00 PM,101.933,24.448,764.56069846,642.1211,12.6200369470212
2021-08-15 22:30:00,135,08/15/21 10:30:00 PM,101.931,24.351,764.54569722,642.1807,12.612347682952
2021-08-15 23:00:00,137,08/15/21 11:00:00 PM,101.909,24.158,764.38068358,642.0593,12.6078523582766
2021-08-15 23:30:00,139,08/15/21 11:30:00 PM,101.904,23.966,764.34318048,642.4371,12.5650464316636
2021-08-16 00:00:00,141,08/16/21 12:00:00 AM,101.929,23.677,764.53069598,642.4348,12.5846110059782
2021-08-16 00:30:00,143,08/16/21 12:30:00 AM,101.957,23.484,764.74071334,644.0856,12.4361073325088
2021-08-16 01:00:00,145,08/16/21 01:00:00 AM,101.971,23.388,764.84572202,642.4462,12.6159062069676
2021-08-16 01:30:00,147,08/16/21 01:30:00 AM,101.971,23.388,764.84572202,642.7874,12.5807382003711
2021-08-16 02:00:00,149,08/16/21 02:00:00 AM,101.957,23.484,764.74071334,642.5126,12.5982388517831
2021-08-16 02:30:00,151,08/16/21 02:30:00 AM,101.929,23.677,764.53069598,643.6826,12.4559983487941
2021-08-16 03:00:00,153,08/16/21 03:00:00 AM,101.889,23.388,764.23067118,644.1291,12.3790528942486
2021-08-16 03:30:00,155,08/16/21 03:30:00 AM,101.884,23.196,764.19316808,641.97,12.5977291362606
2021-08-16 04:00:00,157,08/16/21 04:00:00 AM,101.884,23.196,764.19316808,643.6299,12.4266407008864
2021-08-16 04:30:00,159,08/16/21 04:30:00 AM,101.884,23.196,764.19316808,645.2578,12.2588505545248
2021-08-16 05:00:00,161,08/16/21 05:00:00 AM,101.914,23.1,764.41818668,645.267,12.2810953081839
2021-08-16 05:30:00,163,08/16/21 05:30:00 AM,101.914,23.1,764.41818668,643.6277,12.4500604700062
2021-08-16 06:00:00,165,08/16/21 06:00:00 AM,101.925,22.908,764.5006935,643.6711,12.4540912698413
2021-08-16 06:30:00,167,08/16/21 06:30:00 AM,101.939,22.812,764.60570218,643.2842,12.5047930509173
2021-08-16 07:00:00,169,08/16/21 07:00:00 AM,101.963,23.1,764.78571706,644.2549,12.4232959245516
2021-08-16 07:30:00,171,08/16/21 07:30:00 AM,101.987,23.388,764.96573194,643.6414,12.5050847186147
2021-08-16 08:00:00,173,08/16/21 08:00:00 AM,101.978,23.677,764.89822636,642.3638,12.6298110039167
2021-08-16 08:30:00,175,08/16/21 08:30:00 AM,101.966,24.448,764.80821892,641.9974,12.6582992084106
2021-08-16 09:00:00,177,08/16/21 09:00:00 AM,101.965,25.028,764.8007183,645.0472,12.3431785508143
2021-08-16 09:30:00,179,08/16/21 09:30:00 AM,101.994,26.097,765.01823628,648.9486,11.9634751886209
2021-08-16 10:00:00,181,08/16/21 10:00:00 AM,102.016,26.292,765.18324992,641.3404,12.7646722242836
2021-08-16 10:30:00,183,08/16/21 10:30:00 AM,102.04,26.585,765.3632648,647.5382,12.144409894867
2021-08-16 11:00:00,185,08/16/21 11:00:00 AM,102.075,27.272,765.6257865,644.2778,12.5075228303443
2021-08-16 11:30:00,187,08/16/21 11:30:00 AM,102.061,27.961,765.52077782,644.1886,12.5058934054834
2021-08-16 12:00:00,189,08/16/21 12:00:00 PM,102.044,28.555,765.39326728,643.4559,12.5682712100598
2021-08-16 12:30:00,191,08/16/21 12:30:00 PM,102.014,28.655,765.16824868,642.0937,12.6854822387137
2021-08-16 13:00:00,193,08/16/21 01:00:00 PM,102.001,29.352,765.07074062,642.1944,12.6650526303855
2021-08-16 13:30:00,195,08/16/21 01:30:00 PM,101.99,30.76,764.9882338,647.6687,12.092304040404
2021-08-16 14:00:00,197,08/16/21 02:00:00 PM,101.949,30.457,764.68070838,645.1731,12.3178322387137
2021-08-16 14:30:00,199,08/16/21 02:30:00 PM,101.895,31.472,764.2756749,646.8788,12.10027570604
2021-08-16 15:00:00,201,08/16/21 03:00:00 PM,101.859,30.76,764.00565258,645.0838,12.2574574912389
2021-08-16 15:30:00,203,08/16/21 03:30:00 PM,101.856,30.054,763.98315072,644.8113,12.2832251824366
2021-08-16 16:00:00,205,08/16/21 04:00:00 PM,101.809,28.953,763.63062158,645.8669,12.1380871552257
2021-08-16 16:30:00,207,08/16/21 04:30:00 PM,101.866,25.61,764.05815692,646.1439,12.1536030632859
2021-08-16 17:00:00,209,08/16/21 05:00:00 PM,101.8,24.351,763.563116,645.3013,12.1894265099979
2021-08-16 17:30:00,211,08/16/21 05:30:00 PM,101.797,24.255,763.54061414,642.9271,12.4318196392496
2021-08-16 18:00:00,213,08/16/21 06:00:00 PM,101.805,24.545,763.6006191,642.0157,12.5319438363224
2021-08-16 18:30:00,215,08/16/21 06:30:00 PM,101.795,25.416,763.5256129,647.0024,12.0102260255617
2021-08-16 19:00:00,217,08/16/21 07:00:00 PM,101.82,25.708,763.7131284,645.267,12.2084238713667
2021-08-16 19:30:00,219,08/16/21 07:30:00 PM,101.814,25.513,763.66812468,645.3494,12.1952921748093
2021-08-16 20:00:00,221,08/16/21 08:00:00 PM,101.818,25.028,763.69812716,645.3883,12.1943750937951
2021-08-16 20:30:00,223,08/16/21 08:30:00 PM,101.824,24.641,763.74313088,647.0093,12.0319347433519
2021-08-16 21:00:00,225,08/16/21 09:00:00 PM,101.832,24.351,763.80313584,645.2761,12.2167631251288
2021-08-16 21:30:00,227,08/16/21 09:30:00 PM,101.863,24.255,764.03565506,645.2761,12.2407292372707
2021-08-16 22:00:00,229,08/16/21 10:00:00 PM,101.869,23.869,764.08065878,641.725,12.611385155638
2021-08-16 22:30:00,231,08/16/21 10:30:00 PM,101.864,23.677,764.04315568,642.0776,12.5711766316224
2021-08-16 23:00:00,233,08/16/21 11:00:00 PM,101.875,23.484,764.1256625,642.579,12.528000669965
2021-08-16 23:30:00,235,08/16/21 11:30:00 PM,101.856,23.388,763.98315072,642.2104,12.5513039290868
2021-08-17 00:00:00,237,08/17/21 12:00:00 AM,101.884,23.196,764.19316808,642.4257,12.5507594392909
2021-08-17 00:30:00,239,08/17/21 12:30:00 AM,101.881,23.1,764.17066622,642.3913,12.5519857988044
2021-08-17 01:00:00,241,08/17/21 01:00:00 AM,101.867,23.196,764.06565754,642.302,12.5503666810967
2021-08-17 01:30:00,243,08/17/21 01:30:00 AM,101.851,23.196,763.94564762,643.5727,12.4070240795712
2021-08-17 02:00:00,245,08/17/21 02:00:00 AM,101.85,23.773,763.938147,642.9545,12.4699698000412
2021-08-17 02:30:00,247,08/17/21 02:30:00 AM,101.877,24.158,764.14066374,641.7685,12.6130863471449
2021-08-17 03:00:00,249,08/17/21 03:00:00 AM,101.846,24.255,763.90814452,642.9156,12.4708868810554
2021-08-17 03:30:00,251,08/17/21 03:30:00 AM,101.841,24.062,763.87064142,642.9385,12.4646610410225
2021-08-17 04:00:00,253,08/17/21 04:00:00 AM,101.831,23.677,763.79563522,642.618,12.4899644629973
2021-08-17 04:30:00,255,08/17/21 04:30:00 AM,101.833,23.773,763.81063646,640.4841,12.7114550051536
2021-08-17 05:00:00,257,08/17/21 05:00:00 AM,101.833,23.773,763.81063646,642.1326,12.5415415852402
2021-08-17 05:30:00,259,08/17/21 05:30:00 AM,101.836,23.869,763.83313832,642.9133,12.4633929416615
2021-08-17 06:00:00,261,08/17/21 06:00:00 AM,101.861,23.581,764.02065382,642.9042,12.4836584023913
2021-08-17 06:30:00,263,08/17/21 06:30:00 AM,101.905,23.388,764.3506811,642.1303,12.5974418779633
2021-08-17 07:00:00,265,08/17/21 07:00:00 AM,101.932,23.773,764.55319784,642.8904,12.5399709173366
2021-08-17 07:30:00,267,08/17/21 07:30:00 AM,101.947,24.351,764.66570714,645.1663,12.3169869243455
2021-08-17 08:00:00,269,08/17/21 08:00:00 AM,101.982,25.028,764.92822884,646.1232,12.2454162894249
2021-08-17 08:30:00,271,08/17/21 08:30:00 AM,101.978,25.513,764.89822636,642.9752,12.5667930694702
2021-08-17 09:00:00,273,08/17/21 09:00:00 AM,101.985,26.977,764.9507307,647.5474,12.100941115234
2021-08-17 09:30:00,275,08/17/21 09:30:00 AM,101.985,26.977,764.9507307,645.2601,12.3366966295609
2021-08-17 10:00:00,277,08/17/21 10:00:00 AM,101.993,27.862,765.01073566,645.0288,12.3667218779633
2021-08-17 10:30:00,279,08/17/21 10:30:00 AM,102.036,28.258,765.33326232,644.3604,12.4688582065553
2021-08-17 11:00:00,281,08/17/21 11:00:00 AM,102.039,28.953,765.35576418,643.8199,12.5268876705834
2021-08-17 11:30:00,283,08/17/21 11:30:00 AM,102.036,28.853,765.33326232,646.8422,12.2130552793238
2021-08-17 12:00:00,285,08/17/21 12:00:00 PM,102.036,30.054,765.33326232,642.1532,12.6963576911977
2021-08-17 12:30:00,287,08/17/21 12:30:00 PM,101.993,31.472,765.01073566,638.2746,13.0628876169862
2021-08-17 13:00:00,289,08/17/21 01:00:00 PM,101.988,31.88,764.97323256,642.1967,12.654765260771
2021-08-17 13:30:00,291,08/17/21 01:30:00 PM,101.959,32.6,764.75571458,640.2574,12.8322319707277
2021-08-17 14:00:00,293,08/17/21 02:00:00 PM,101.932,32.807,764.55319784,640.8435,12.7509480354566
2021-08-17 14:30:00,295,08/17/21 02:30:00 PM,101.966,33.43,764.80821892,640.2482,12.8385919315605
2021-08-17 15:00:00,297,08/17/21 03:00:00 PM,101.928,33.848,764.52319536,640.8435,12.7478556338899
2021-08-17 15:30:00,299,08/17/21 03:30:00 PM,101.89,33.639,764.2381718,640.9763,12.7047899196042
2021-08-17 16:00:00,301,08/17/21 04:00:00 PM,101.866,32.807,764.05815692,638.5082,12.9406263574521
2021-08-17 16:30:00,303,08/17/21 04:30:00 PM,101.846,32.086,763.90814452,640.5367,12.7160837476809
2021-08-17 17:00:00,305,08/17/21 05:00:00 PM,101.812,30.862,763.65312344,646.9108,12.0328100845187
2021-08-17 17:30:00,307,08/17/21 05:30:00 PM,101.804,29.953,763.59311848,639.9094,12.7482703030303
2021-08-17 18:00:00,309,08/17/21 06:00:00 PM,101.823,30.659,763.73563026,644.6075,12.2787188476603
2021-08-17 18:30:00,311,08/17/21 06:30:00 PM,101.793,30.154,763.51061166,640.6695,12.6614215275201
2021-08-17 19:00:00,313,08/17/21 07:00:00 PM,101.793,28.953,763.51061166,645.805,12.1320976767677
2021-08-17 19:30:00,315,08/17/21 07:30:00 PM,101.812,27.862,763.65312344,646.7574,12.0486212574727
2021-08-17 20:00:00,317,08/17/21 08:00:00 PM,101.769,26.879,763.33059678,646.1462,12.078375260771
2021-08-17 20:30:00,319,08/17/21 08:30:00 PM,101.802,26.292,763.57811724,644.0856,12.3162767717996
2021-08-17 21:00:00,321,08/17/21 09:00:00 PM,101.833,25.61,763.81063646,645.3654,12.2083319377448
2021-08-17 21:30:00,323,08/17/21 09:30:00 PM,101.856,25.222,763.98315072,646.1095,12.1494177200577
2021-08-17 22:00:00,325,08/17/21 10:00:00 PM,101.897,24.931,764.29067614,648.9395,11.8894224015667
2021-08-17 22:30:00,327,08/17/21 10:30:00 PM,101.892,24.738,764.25317304,645.9813,12.1904631045145
2021-08-17 23:00:00,329,08/17/21 11:00:00 PM,101.889,24.641,764.23067118,646.082,12.1777645001031
2021-08-17 23:30:00,331,08/17/21 11:30:00 PM,101.908,24.738,764.37318296,645.9813,12.2028327107813
2021-08-18 00:00:00,333,08/18/21 12:00:00 AM,101.914,24.931,764.41818668,645.0563,12.3028124799011
2021-08-18 00:30:00,335,08/18/21 12:30:00 AM,101.916,25.028,764.43318792,643.2018,12.4955048361163
2021-08-18 01:00:00,337,08/18/21 01:00:00 AM,101.916,25.028,764.43318792,645.1937,12.2901966522366
2021-08-18 01:30:00,339,08/18/21 01:30:00 AM,101.886,25.125,764.20816932,645.0792,12.2788053308596
2021-08-18 02:00:00,341,08/18/21 02:00:00 AM,101.883,25.028,764.18566746,645.0472,12.2797843186972
2021-08-18 02:30:00,343,08/18/21 02:30:00 AM,101.886,25.125,764.20816932,643.0026,12.4928436734694
2021-08-18 03:00:00,345,08/18/21 03:00:00 AM,101.883,25.028,764.18566746,643.1697,12.4733011193568
2021-08-18 03:30:00,347,08/18/21 03:30:00 AM,101.862,24.835,764.02815444,645.0655,12.261663001443
2021-08-18 04:00:00,349,08/18/21 04:00:00 AM,101.892,24.738,764.25317304,645.0655,12.2848560131931
2021-08-18 04:30:00,351,08/18/21 04:30:00 AM,101.859,24.738,764.00565258,645.0838,12.2574574912389
2021-08-18 05:00:00,353,08/18/21 05:00:00 AM,101.826,24.738,763.75813212,645.0701,12.2333572582972
2021-08-18 05:30:00,355,08/18/21 05:30:00 AM,101.848,24.931,763.92314576,645.0792,12.2494275159761
2021-08-18 06:00:00,357,08/18/21 06:00:00 AM,101.867,25.028,764.06565754,645.0701,12.2650543743558
2021-08-18 06:30:00,359,08/18/21 06:30:00 AM,101.867,25.028,764.06565754,643.0049,12.4779177015048
2021-08-18 07:00:00,361,08/18/21 07:00:00 AM,101.914,24.931,764.41818668,643.0255,12.5121301463616
2021-08-18 07:30:00,363,08/18/21 07:30:00 AM,101.894,25.416,764.26817428,644.113,12.3845778478664
2021-08-18 08:00:00,365,08/18/21 08:00:00 AM,101.928,26.683,764.52319536,644.8365,12.3362910080396
2021-08-18 08:30:00,367,08/18/21 08:30:00 AM,101.843,27.173,763.88564266,649.0402,11.83729567718
2021-08-18 09:00:00,369,08/18/21 09:00:00 AM,101.886,27.567,764.20816932,645.8943,12.1947917254174
2021-08-18 09:30:00,371,08/18/21 09:30:00 AM,101.883,28.06,764.18566746,644.4496,12.341379866007
2021-08-18 10:00:00,373,08/18/21 10:00:00 AM,101.91,29.652,764.3881842,644.0878,12.3995448567306
2021-08-18 10:30:00,375,08/18/21 10:30:00 AM,101.939,31.88,764.60570218,641.5396,12.6846116450216
2021-08-18 11:00:00,377,08/18/21 11:00:00 AM,101.893,32.6,764.26067366,641.6769,12.6348973057102
2021-08-18 11:30:00,379,08/18/21 11:30:00 AM,101.86,31.983,764.0131532,641.7113,12.6058393320965
2021-08-18 12:00:00,381,08/18/21 12:00:00 PM,101.848,33.326,763.92314576,644.4633,12.312909272315
2021-08-18 12:30:00,383,08/18/21 12:30:00 PM,101.816,33.953,763.68312592,641.6334,12.5798521871779
2021-08-18 13:00:00,385,08/18/21 01:00:00 PM,101.746,34.374,763.15808252,640.0925,12.6845580828695
2021-08-18 13:30:00,387,08/18/21 01:30:00 PM,101.723,34.163,762.98556826,641.8441,12.4862366790352
2021-08-18 14:00:00,389,08/18/21 02:00:00 PM,101.686,34.585,762.70804532,644.4977,12.1841213481756
2021-08-18 14:30:00,391,08/18/21 02:30:00 PM,101.654,33.43,762.46802548,644.6602,12.1426330117501
2021-08-18 15:00:00,393,08/18/21 03:00:00 PM,101.574,30.558,761.86797588,649.118,11.6213127066584
2021-08-18 15:30:00,395,08/18/21 03:30:00 PM,101.618,30.963,762.19800316,640.159,12.5787469758812
2021-08-18 16:00:00,397,08/18/21 04:00:00 PM,101.631,29.053,762.29551122,649.0905,11.6682138961039
2021-08-18 16:30:00,399,08/18/21 04:30:00 PM,101.612,30.76,762.15299944,641.6219,12.4233250298907
2021-08-18 17:00:00,401,08/18/21 05:00:00 PM,101.615,29.652,762.1755013,646.4804,11.9248712945784
2021-08-18 17:30:00,403,08/18/21 05:30:00 PM,101.563,30.154,761.78546906,641.5487,12.3929879468151
2021-08-18 18:00:00,405,08/18/21 06:00:00 PM,101.549,30.255,761.68046038,642.2264,12.3123129643372
2021-08-18 18:30:00,407,08/18/21 06:30:00 PM,101.497,29.552,761.29042814,638.2838,12.6784815646258
2021-08-18 19:00:00,409,08/18/21 07:00:00 PM,101.483,28.456,761.18541946,649.0722,11.5556812471655
2021-08-18 19:30:00,411,08/18/21 07:30:00 PM,101.511,27.665,761.39543682,643.8566,12.1149079385694
2021-08-18 20:00:00,413,08/18/21 08:00:00 PM,101.523,26.879,761.48544426,647.7191,11.7260713522985
2021-08-18 20:30:00,415,08/18/21 08:30:00 PM,101.54,26.292,761.6129548,650.4231,11.4605086373944
2021-08-18 21:00:00,417,08/18/21 09:00:00 PM,101.548,26,761.67295976,647.8771,11.7291135600907
2021-08-18 21:30:00,419,08/18/21 09:30:00 PM,101.56,25.805,761.7629672,643.7879,12.1598708719851
2021-08-18 22:00:00,421,08/18/21 10:00:00 PM,101.573,25.708,761.86047526,642.9042,12.2610054895898
2021-08-18 22:30:00,423,08/18/21 10:30:00 PM,101.568,25.513,761.82297216,644.1039,12.1334850711194
2021-08-18 23:00:00,425,08/18/21 11:00:00 PM,101.582,25.416,761.92798084,644.3878,12.1150464687693
2021-08-18 23:30:00,427,08/18/21 11:30:00 PM,101.579,25.319,761.90547898,643.1926,12.235918262214
2021-08-19 00:00:00,429,08/19/21 12:00:00 AM,101.577,25.222,761.89047774,643.1971,12.2339082395382
2021-08-19 00:30:00,431,08/19/21 12:30:00 AM,101.593,25.222,762.01048766,645.267,12.0329300824572
2021-08-19 01:00:00,433,08/19/21 01:00:00 AM,101.574,25.125,761.86797588,645.3654,12.0080989363018
2021-08-19 01:30:00,435,08/19/21 01:30:00 AM,101.555,25.028,761.7254641,646.3431,11.8926369923727
2021-08-19 02:00:00,437,08/19/21 02:00:00 AM,101.536,24.931,761.58295232,645.386,11.9765978478664
2021-08-19 02:30:00,439,08/19/21 02:30:00 AM,101.534,24.835,761.56795108,645.038,12.0109205400948
2021-08-19 03:00:00,441,08/19/21 03:00:00 AM,101.531,24.738,761.54544922,645.0563,12.0067150298908
2021-08-19 03:30:00,443,08/19/21 03:30:00 AM,101.548,24.738,761.67295976,645.0999,12.0153638177695
2021-08-19 04:00:00,445,08/19/21 04:00:00 AM,101.561,24.641,761.77046782,645.0563,12.0299080416409
2021-08-19 04:30:00,447,08/19/21 04:30:00 AM,101.54,24.448,761.6129548,646.0019,11.9162084930942
2021-08-19 05:00:00,449,08/19/21 05:00:00 AM,101.516,24.158,761.43293992,646.0912,11.8884497959184
2021-08-19 05:30:00,451,08/19/21 05:30:00 AM,101.506,23.773,761.35793372,645.2761,11.9647323974438
2021-08-19 06:00:00,453,08/19/21 06:00:00 AM,101.531,23.484,761.54544922,641.7205,12.3505410451453
2021-08-19 06:30:00,455,08/19/21 06:30:00 AM,101.512,23.388,761.40293744,642.9225,12.2119601566687
2021-08-19 07:00:00,457,08/19/21 07:00:00 AM,101.536,23.677,761.58295232,642.9179,12.2309886951144
2021-08-19 07:30:00,459,08/19/21 07:30:00 AM,101.578,24.641,761.89797836,646.1003,11.9354440692641
2021-08-19 08:00:00,461,08/19/21 08:00:00 AM,101.585,25.513,761.9504827,647.7672,11.7690458359101
2021-08-19 08:30:00,463,08/19/21 08:30:00 AM,101.578,26.488,761.89797836,642.7255,12.2832898742527
2021-08-19 09:00:00,465,08/19/21 09:00:00 AM,101.61,27.075,762.1379982,645.2944,12.0432486291486
2021-08-19 09:30:00,467,08/19/21 09:30:00 AM,101.585,27.37,761.9504827,644.8549,12.0692210575139
2021-08-19 10:00:00,469,08/19/21 10:00:00 AM,101.59,29.352,761.9879858,642.9705,12.2673145537003
2021-08-19 10:30:00,471,08/19/21 10:30:00 AM,101.605,31.676,762.1004951,641.6953,12.4103478767264
2021-08-19 11:00:00,473,08/19/21 11:00:00 AM,101.596,33.118,762.03298952,642.6111,12.3089970645228
2021-08-19 11:30:00,475,08/19/21 11:30:00 AM,101.577,33.639,761.89047774,646.2286,11.9214468913626
2021-08-19 12:00:00,477,08/19/21 12:00:00 PM,101.581,34.374,761.92048022,643.6391,12.1914430241187
2021-08-19 12:30:00,479,08/19/21 12:30:00 PM,101.547,34.903,761.66545914,643.1697,12.2135393877551
2021-08-19 13:00:00,481,08/19/21 01:00:00 PM,101.511,34.796,761.39543682,643.0507,12.1979732859204
2021-08-19 13:30:00,483,08/19/21 01:30:00 PM,101.511,34.796,761.39543682,643.939,12.106414844362
2021-08-19 14:00:00,485,08/19/21 02:00:00 PM,101.484,36.728,761.19292008,641.3014,12.3574026056483
2021-08-19 14:30:00,487,08/19/21 02:30:00 PM,101.436,37.384,760.83289032,643.4445,12.0994011873841
2021-08-19 15:00:00,489,08/19/21 03:00:00 PM,101.426,37.604,760.75788412,644.2802,12.0055333044733
2021-08-19 15:30:00,491,08/19/21 03:30:00 PM,101.357,35.756,760.24034134,643.3277,12.0503650113379
2021-08-19 16:00:00,493,08/19/21 04:00:00 PM,101.344,35.864,760.14283328,643.8566,11.9858001731602
2021-08-19 16:30:00,495,08/19/21 04:30:00 PM,101.299,37.165,759.80530538,644.5114,11.8835194166151
2021-08-19 17:00:00,497,08/19/21 05:00:00 PM,101.253,36.728,759.46027686,642.5195,12.0532649824778
2021-08-19 17:30:00,499,08/19/21 05:30:00 PM,101.226,34.585,759.25776012,642.7301,12.0106844073387
2021-08-19 18:00:00,501,08/19/21 06:00:00 PM,101.248,34.796,759.42277376,642.5103,12.0503477386106
2021-08-19 18:30:00,503,08/19/21 06:30:00 PM,101.231,33.014,759.29526322,644.2778,11.8550260997732
2021-08-19 19:00:00,505,08/19/21 07:00:00 PM,101.221,30.862,759.22025702,644.8388,11.7894719666048
2021-08-19 19:30:00,507,08/19/21 07:30:00 PM,101.213,28.754,759.16025206,644.8365,11.7835242279942
2021-08-19 20:00:00,509,08/19/21 08:00:00 PM,101.211,27.468,759.14525082,647.7581,11.4808442403628
2021-08-19 20:30:00,511,08/19/21 08:30:00 PM,101.299,26.488,759.80530538,646.1187,11.7178525438054
2021-08-19 21:00:00,513,08/19/21 09:00:00 PM,101.299,24.641,759.80530538,644.113,11.9245831148217
2021-08-19 21:30:00,515,08/19/21 09:30:00 PM,101.351,24.738,760.19533762,643.1697,12.0620117109874
2021-08-19 22:00:00,517,08/19/21 10:00:00 PM,101.394,25.125,760.51786428,646.1027,11.7929462255205
2021-08-19 22:30:00,519,08/19/21 10:30:00 PM,101.345,25.125,760.1503339,646.9796,11.6646808802309
2021-08-19 23:00:00,521,08/19/21 11:00:00 PM,101.309,25.028,759.88031158,645.2075,11.8195023273552
2021-08-19 23:30:00,523,08/19/21 11:30:00 PM,101.293,25.028,759.76030166,645.6516,11.7613586538858
2021-08-20 00:00:00,525,08/20/21 12:00:00 AM,101.265,25.222,759.5502843,645.2853,11.7774669449598
2021-08-20 00:30:00,527,08/20/21 12:30:00 AM,101.249,25.222,759.43027438,646.1278,11.6782595732839
2021-08-20 01:00:00,529,08/20/21 01:00:00 AM,101.232,25.222,759.30276384,645.3082,11.74959429396
2021-08-20 01:30:00,531,08/20/21 01:30:00 AM,101.197,25.125,759.04024214,645.2761,11.7258443764172
2021-08-20 02:00:00,533,08/20/21 02:00:00 AM,101.195,24.448,759.0252409,645.8256,11.6676603689961
2021-08-20 02:30:00,535,08/20/21 02:30:00 AM,101.155,24.158,758.7252161,645.8371,11.6355510307153
2021-08-20 03:00:00,537,08/20/21 03:00:00 AM,101.155,24.158,758.7252161,641.6311,12.0690698928056
2021-08-20 03:30:00,539,08/20/21 03:30:00 AM,101.151,24.641,758.69521362,642.9293,11.93217002886
2021-08-20 04:00:00,541,08/20/21 04:00:00 AM,101.162,25.028,758.77772044,641.7319,12.0640919851577
2021-08-20 04:30:00,543,08/20/21 04:30:00 AM,101.159,24.931,758.75521858,641.7227,12.0627209420738
2021-08-20 05:00:00,545,08/20/21 05:00:00 AM,101.192,24.931,759.00273904,642.9064,11.9662274829932
2021-08-20 05:30:00,547,08/20/21 05:30:00 AM,101.189,24.835,758.98023718,642.9545,11.9589504411461
2021-08-20 06:00:00,549,08/20/21 06:00:00 AM,101.189,24.835,758.98023718,642.9591,11.9584763121006
2021-08-20 06:30:00,551,08/20/21 06:30:00 AM,101.203,24.738,759.08524586,642.1807,12.0495305978149
2021-08-20 07:00:00,553,08/20/21 07:00:00 AM,101.22,24.738,759.2127564,642.2173,12.0589008864152
2021-08-20 07:30:00,555,08/20/21 07:30:00 AM,101.239,24.835,759.35526818,642.95,11.9980692826221
2021-08-20 08:00:00,557,08/20/21 08:00:00 AM,101.258,24.931,759.49777996,641.6311,12.1486992331478
2021-08-20 08:30:00,559,08/20/21 08:30:00 AM,101.293,25.028,759.76030166,645.8577,11.7401156112142
2021-08-20 09:00:00,561,08/20/21 09:00:00 AM,101.27,25.416,759.5877874,646.0065,11.7069972582973
2021-08-20 09:30:00,563,08/20/21 09:30:00 AM,101.209,26.195,759.13024958,644.0031,11.8663316408988
2021-08-20 10:00:00,565,08/20/21 10:00:00 AM,101.299,26.488,759.80530538,646.7735,11.6503613048856
2021-08-20 10:30:00,567,08/20/21 10:30:00 AM,101.335,26,760.0753277,645.3585,11.8240391362605
2021-08-20 11:00:00,569,08/20/21 11:00:00 AM,101.466,26,761.05790892,645.3951,11.9215428695114
2021-08-20 11:30:00,571,08/20/21 11:30:00 AM,101.504,26.195,761.34293248,645.0494,11.9865525128839
2021-08-20 12:00:00,573,08/20/21 12:00:00 PM,101.488,26.195,761.22292256,644.1222,12.0697508307565
2021-08-20 12:30:00,575,08/20/21 12:30:00 PM,101.493,26.977,761.26042566,648.7471,11.5969208060194
2021-08-20 13:00:00,577,08/20/21 01:00:00 PM,101.498,27.764,761.29792876,645.9836,11.8856244856731
2021-08-20 13:30:00,579,08/20/21 01:30:00 PM,101.467,28.456,761.06540954,646.8445,11.7729240919398
2021-08-20 14:00:00,581,08/20/21 02:00:00 PM,101.491,29.352,761.24542442,643.9001,12.0949623191095
2021-08-20 14:30:00,583,08/20/21 02:30:00 PM,101.461,29.452,761.02040582,645.7798,11.87802574933
2021-08-20 15:00:00,585,08/20/21 03:00:00 PM,101.407,29.853,760.61537234,639.9186,12.4404011894455
2021-08-20 15:30:00,587,08/20/21 03:30:00 PM,101.398,29.552,760.54786676,643.7192,12.0417096227582
2021-08-20 16:00:00,589,08/20/21 04:00:00 PM,101.366,28.953,760.30784692,645.3196,11.8520147309833
2021-08-20 16:30:00,591,08/20/21 04:30:00 PM,101.358,28.655,760.24784196,647.6756,11.6029933992991
2021-08-20 17:00:00,593,08/20/21 05:00:00 PM,101.303,28.456,759.83530786,646.714,11.659586462585
2021-08-20 17:30:00,595,08/20/21 05:30:00 PM,101.319,28.456,759.95531778,647.5726,11.5834588517831
2021-08-20 18:00:00,597,08/20/21 06:00:00 PM,101.278,28.159,759.64779236,647.6481,11.5439798350856
2021-08-20 18:30:00,599,08/20/21 06:30:00 PM,101.287,27.862,759.71529794,642.5058,12.0809624757782
2021-08-20 19:00:00,601,08/20/21 07:00:00 PM,101.325,27.468,760.0003215,646.121,11.7377160894661
2021-08-20 19:30:00,603,08/20/21 07:30:00 PM,101.334,27.173,760.06782708,642.4096,12.1272136755308
2021-08-20 20:00:00,605,08/20/21 08:00:00 PM,101.323,26.781,759.98532026,645.338,11.8168748979592
2021-08-20 20:30:00,607,08/20/21 08:30:00 PM,101.315,26.488,759.9253153,646.1095,11.7311704081633
2021-08-20 21:00:00,609,08/20/21 09:00:00 PM,101.34,26.195,760.1128308,642.0181,12.1722047825191
2021-08-20 21:30:00,611,08/20/21 09:30:00 PM,101.346,25.805,760.15783452,642.5012,12.1270495279324
2021-08-20 22:00:00,613,08/20/21 10:00:00 PM,101.374,25.61,760.36785188,644.1085,11.9830294660894
2021-08-20 22:30:00,615,08/20/21 10:30:00 PM,101.369,25.416,760.33034878,644.1268,11.977277755102
2021-08-20 23:00:00,617,08/20/21 11:00:00 PM,101.38,25.222,760.4128556,643.6002,12.0400593279736
2021-08-20 23:30:00,619,08/20/21 11:30:00 PM,101.342,25.028,760.12783204,644.0901,11.9601867697382
2021-08-21 00:00:00,621,08/21/21 12:00:00 AM,101.326,25.028,760.00782212,644.097,11.9471059699031
2021-08-21 00:30:00,623,08/21/21 12:30:00 AM,101.321,24.835,759.97031902,644.3787,11.9142052174809
2021-08-21 01:00:00,625,08/21/21 01:00:00 AM,101.318,24.738,759.94781716,644.0856,11.9420961822305
2021-08-21 01:30:00,627,08/21/21 01:30:00 AM,101.318,24.738,759.94781716,642.4737,12.1082371840858
2021-08-21 02:00:00,629,08/21/21 02:00:00 AM,101.285,24.738,759.7002967,642.4806,12.0820136775922
2021-08-21 02:30:00,631,08/21/21 02:30:00 AM,101.264,24.545,759.54278368,642.5309,12.0605940713255
2021-08-21 03:00:00,633,08/21/21 03:00:00 AM,101.242,24.351,759.37777004,645.2761,11.7606338940425
2021-08-21 03:30:00,635,08/21/21 03:30:00 AM,101.253,24.158,759.46027686,642.0433,12.1023476458462
2021-08-21 04:00:00,637,08/21/21 04:00:00 AM,101.248,23.966,759.42277376,645.6287,11.7289294743352
2021-08-21 04:30:00,639,08/21/21 04:30:00 AM,101.227,23.773,759.26526074,645.3929,11.7369986332715
2021-08-21 05:00:00,641,08/21/21 05:00:00 AM,101.255,23.581,759.4752781,645.4594,11.751791187384
2021-08-21 05:30:00,643,08/21/21 05:30:00 AM,101.238,23.581,759.34776756,645.4501,11.7396070459699
2021-08-21 06:00:00,645,08/21/21 06:00:00 AM,101.249,23.388,759.43027438,645.4387,11.749286165739
2021-08-21 06:30:00,647,08/21/21 06:30:00 AM,101.247,23.292,759.41527314,645.4594,11.7456063842507
2021-08-21 07:00:00,649,08/21/21 07:00:00 AM,101.277,23.196,759.64029174,646.6682,11.6442065285508
2021-08-21 07:30:00,651,08/21/21 07:30:00 AM,101.261,23.196,759.52028182,645.2212,11.7809814285714
2021-08-21 08:00:00,653,08/21/21 08:00:00 AM,101.299,23.388,759.80530538,641.8693,12.155844710369
2021-08-21 08:30:00,655,08/21/21 08:30:00 AM,101.316,24.062,759.93281592,648.7769,11.4570105050505
2021-08-21 09:00:00,657,08/21/21 09:00:00 AM,101.282,25.222,759.67779484,649.0905,11.3984018594104
2021-08-21 09:30:00,659,08/21/21 09:30:00 AM,101.294,26.292,759.76780228,645.3494,11.79327997114
2021-08-21 10:00:00,661,08/21/21 10:00:00 AM,101.293,27.468,759.76030166,645.3585,11.7915689198103
2021-08-21 10:30:00,663,08/21/21 10:30:00 AM,101.301,27.764,759.82030662,645.8622,11.7458365924552
2021-08-21 11:00:00,665,08/21/21 11:00:00 AM,101.298,27.665,759.79780476,641.9883,12.1428060977118
2021-08-21 11:30:00,667,08/21/21 11:30:00 AM,101.317,28.357,759.94031654,642.705,12.0836236384251
2021-08-21 12:00:00,669,08/21/21 12:00:00 PM,101.297,29.452,759.79030414,649.0402,11.4151828633271
2021-08-21 12:30:00,671,08/21/21 12:30:00 PM,101.264,30.054,759.54278368,649.031,11.3906188084931
2021-08-21 13:00:00,673,08/21/21 01:00:00 PM,101.262,31.166,759.52778244,642.2562,12.0873616202845
2021-08-21 13:30:00,675,08/21/21 01:30:00 PM,101.269,32.6,759.58028678,641.6884,12.1512973386931
2021-08-21 14:00:00,677,08/21/21 02:00:00 PM,101.224,33.953,759.24275888,641.8463,12.1002328262214
2021-08-21 14:30:00,679,08/21/21 02:30:00 PM,101.254,35.009,759.46777748,644.4725,11.8527393815708
2021-08-21 15:00:00,681,08/21/21 03:00:00 PM,101.259,35.756,759.50528058,644.6167,11.8417419686662
2021-08-21 15:30:00,683,08/21/21 03:30:00 PM,101.179,35.864,758.90523098,644.6075,11.7808421954236
2021-08-21 16:00:00,685,08/21/21 04:00:00 PM,101.131,35.328,758.54520122,641.6769,12.0457948072562
2021-08-21 16:30:00,687,08/21/21 04:30:00 PM,101.081,34.691,758.17017022,643.188,11.851388396207
2021-08-21 17:00:00,689,08/21/21 05:00:00 PM,101.06,33.953,758.0126572,640.7291,12.0885958771387
2021-08-21 17:30:00,691,08/21/21 05:30:00 PM,101.051,33.639,757.94515162,638.2861,12.3334417254174
2021-08-21 18:00:00,693,08/21/21 06:00:00 PM,101.042,32.704,757.87764604,644.1863,11.7183411708926
2021-08-21 18:30:00,695,08/21/21 06:30:00 PM,101.024,31.472,757.74263488,643.9756,11.7261425355597
2021-08-21 19:00:00,697,08/21/21 07:00:00 PM,101.013,30.457,757.66012806,649.0653,11.1930352566481
2021-08-21 19:30:00,699,08/21/21 07:30:00 PM,101.062,29.252,758.02765844,644.8228,11.6681981488353
2021-08-21 20:00:00,701,08/21/21 08:00:00 PM,101.095,28.655,758.2751789,649.3355,11.2285795609153
2021-08-21 20:30:00,703,08/21/21 08:30:00 PM,101.123,27.862,758.48519626,646.6957,11.5223146011132
2021-08-21 21:00:00,705,08/21/21 09:00:00 PM,101.123,27.272,758.48519626,645.3082,11.6653263512678
2021-08-21 21:30:00,707,08/21/21 09:30:00 PM,101.14,26.683,758.6127068,642.1143,12.0076692228407
2021-08-21 22:00:00,709,08/21/21 10:00:00 PM,101.174,26.097,758.86772788,642.46,11.9983228076685
2021-08-21 22:30:00,711,08/21/21 10:30:00 PM,101.18,25.708,758.9127316,642.5287,11.9958803957947
2021-08-21 23:00:00,713,08/21/21 11:00:00 PM,101.205,25.416,759.1002471,645.2761,11.7320291795506
2021-08-21 23:30:00,715,08/21/21 11:30:00 PM,101.194,25.028,759.01774028,642.0547,12.0555597072768
2021-08-22 00:00:00,717,08/22/21 12:00:00 AM,101.187,24.738,758.96523594,647.0208,11.538284471243
2021-08-22 00:30:00,719,08/22/21 12:30:00 AM,101.198,24.545,759.04774276,645.6264,11.6905115192744
2021-08-22 01:00:00,721,08/22/21 01:00:00 AM,101.226,24.351,759.25776012,645.4295,11.7324531148217
2021-08-22 01:30:00,723,08/22/21 01:30:00 AM,101.177,24.351,758.89022974,647.0322,11.5293784518656
2021-08-22 02:00:00,725,08/22/21 02:00:00 AM,101.139,24.158,758.60520618,647.0162,11.5016497814883
2021-08-22 02:30:00,727,08/22/21 02:30:00 AM,101.117,23.966,758.44019254,644.8549,11.7074100742115
2021-08-22 03:00:00,729,08/22/21 03:00:00 AM,101.096,23.773,758.28267952,644.8869,11.6878766769738
2021-08-22 03:30:00,731,08/22/21 03:30:00 AM,101.11,23.677,758.3876882,645.4043,11.6453708719852
2021-08-22 04:00:00,733,08/22/21 04:00:00 AM,101.123,23.581,758.48519626,645.4684,11.6488142918986
2021-08-22 04:30:00,735,08/22/21 04:30:00 AM,101.121,23.484,758.47019502,645.4799,11.6460827685013
2021-08-22 05:00:00,737,08/22/21 05:00:00 AM,101.088,23.484,758.22267456,645.8439,11.5830524180581
2021-08-22 05:30:00,739,08/22/21 05:30:00 AM,101.116,23.292,758.43269192,645.8439,11.6046992290249
2021-08-22 06:00:00,741,08/22/21 06:00:00 AM,101.127,23.1,758.51519874,646.1439,11.5822818738404
2021-08-22 06:30:00,743,08/22/21 06:30:00 AM,101.19,23.004,758.9877378,645.8256,11.6637948670377
2021-08-22 07:00:00,745,08/22/21 07:00:00 AM,101.223,23.004,759.23525826,645.4594,11.7270519748505
2021-08-22 07:30:00,747,08/22/21 07:30:00 AM,101.212,23.196,759.15275144,641.3724,12.1398012203669
2021-08-22 08:00:00,749,08/22/21 08:00:00 AM,101.236,23.484,759.33276632,643.1697,11.9731051659452
2021-08-22 08:30:00,751,08/22/21 08:30:00 AM,101.234,24.062,759.31776508,644.8754,11.7957498536384
2021-08-22 09:00:00,753,08/22/21 09:00:00 AM,101.258,24.931,759.49777996,644.429,11.860315394764
2021-08-22 09:30:00,755,08/22/21 09:30:00 AM,101.233,26.488,759.31026446,641.7113,12.1211053865182
2021-08-22 10:00:00,757,08/22/21 10:00:00 AM,101.278,28.159,759.64779236,640.9443,12.2349507689136
2021-08-22 10:30:00,759,08/22/21 10:30:00 AM,101.259,29.853,759.50528058,640.0193,12.3156030282416
2021-08-22 11:00:00,761,08/22/21 11:00:00 AM,101.235,31.37,759.3252657,641.3129,12.1637152855081
2021-08-22 11:30:00,763,08/22/21 11:30:00 AM,101.25,32.497,759.437775,641.7044,12.134959286745
2021-08-22 12:00:00,765,08/22/21 12:00:00 PM,101.235,33.743,759.3252657,644.2778,11.8581185013399
2021-08-22 12:30:00,767,08/22/21 12:30:00 PM,101.235,34.903,759.3252657,643.5544,11.9326804473304
2021-08-22 13:00:00,769,08/22/21 01:00:00 PM,101.223,35.649,759.23525826,638.2449,12.4706615398887
2021-08-22 13:30:00,771,08/22/21 01:30:00 PM,101.169,36.079,758.83022478,638.2563,12.4277391032777
2021-08-22 14:00:00,773,08/22/21 02:00:00 PM,101.118,34.268,758.44769316,641.7296,12.0303126324469
2021-08-22 14:30:00,775,08/22/21 02:30:00 PM,101.156,32.086,758.73271672,642.3546,11.9952707400536
2021-08-22 15:00:00,777,08/22/21 03:00:00 PM,101.095,31.676,758.2751789,642.8676,11.8952359204288
2021-08-22 15:30:00,779,08/22/21 03:30:00 PM,101.131,31.166,758.54520122,642.8378,11.9261390661719
2021-08-22 16:00:00,781,08/22/21 04:00:00 PM,101.122,30.255,758.47769564,643.8062,11.8193666914038
2021-08-22 16:30:00,783,08/22/21 04:30:00 PM,101.141,30.356,758.62020742,643.7765,11.8371168233354
2021-08-22 17:00:00,785,08/22/21 05:00:00 PM,101.106,29.652,758.35768572,644.8365,11.7008024860853
2021-08-22 17:30:00,787,08/22/21 05:30:00 PM,101.095,29.252,758.2751789,645.8783,11.5849184601113
2021-08-22 18:00:00,789,08/22/21 06:00:00 PM,101.177,28.655,758.89022974,645.7615,11.6603514471243
2021-08-22 18:30:00,791,08/22/21 06:30:00 PM,101.177,28.06,758.89022974,648.564,11.3714934796949
2021-08-22 19:00:00,793,08/22/21 07:00:00 PM,101.126,27.37,758.50769812,647.3665,11.4554935188621
2021-08-22 19:30:00,795,08/22/21 07:30:00 PM,101.08,26.879,758.1626696,642.982,11.8718480313337
2021-08-22 20:00:00,797,08/22/21 08:00:00 PM,101.086,26.488,758.20767332,645.4616,11.6209104638219
2021-08-22 20:30:00,799,08/22/21 08:30:00 PM,101.089,26,758.23017518,641.7044,12.0104901236858
2021-08-22 21:00:00,801,08/22/21 09:00:00 PM,101.112,25.61,758.40268944,642.3936,11.957234533086
2021-08-22 21:30:00,803,08/22/21 09:30:00 PM,101.104,25.319,758.34268448,644.0856,11.7766526984127
2021-08-22 22:00:00,805,08/22/21 10:00:00 PM,101.099,25.125,758.30518138,643.6322,11.8195198289013
2021-08-22 22:30:00,807,08/22/21 10:30:00 PM,101.075,24.835,758.1251665,643.6506,11.7990689033189
2021-08-22 23:00:00,809,08/22/21 11:00:00 PM,101.083,24.545,758.18517146,642.0638,11.9688076128633
2021-08-22 23:30:00,811,08/22/21 11:30:00 PM,101.095,24.351,758.2751789,644.8869,11.6871035765821
2021-08-23 00:00:00,813,08/23/21 12:00:00 AM,101.076,24.255,758.13266712,645.4639,11.6129423953824
