notes
 
"Plot Title: Chalgrove_lake_1.2m"
"#","Date Time, GMT-04:00","Temp, °C (LGR S/N: 10615484, SEN S/N: 10615484)"
"Plot Title: Chalgrove_Lake_1.7m"
"#","Date Time, GMT-04:00","Temp, °C (LGR S/N: 10615472, SEN S/N: 10615472)"
"Plot Title: Chalgrove_Lake_2.2m"
"#","Date Time, GMT-04:00","Temp, °C (LGR S/N: 10615471, SEN S/N: 10615471)"
"Plot Title: Chalgrove_Lake_2.7m"
"#","Date Time, GMT-04:00","Temp, °C (LGR S/N: 10615469, SEN S/N: 10615469)"
Deploy Begin:
2022-03-22 14:30:00
Deploy End:
2022-05-18 11:15:00
