1,12/21/22 10:30:00 AM,5.37,12.68
2,12/21/22 10:45:00 AM,5.69,6.48
Deploy Begin:
2022-12-21 13:00:00
Deploy End:
2023-02-24 15:00:00
ODO Calibration:
2022-12-21
Adjusted deploy time to 13:00:00 based on temperature graph
