1,10/11/22 03:00:00 PM,8.65,22.04
2,10/11/22 03:15:00 PM,4.99,19.12
Deploy Begin:
2022-10-10 16:00:00
Deploy End:
2022-12-21 09:11:00
ODO Calibration:
2022-10-10
The DO sensor expired and so some of the DO measurements went to -800. These were converted to NA
