"Plot Title: HS_wetland_CT"
"#","Date Time, GMT-04:00","Low Range, μS/cm (LGR S/N: 20781943, SEN S/N: 20781943)","Full Range, μS/cm (LGR S/N: 20781943, SEN S/N: 20781943)","Temp, °C (LGR S/N: 20781943, SEN S/N: 20781943)"
Deploy Begin:
2021-09-18 16:30:00
Deploy End:
2021-10-28 13:55:00
YSI SPC = 
the wetland was dry, no SCP measured
