"TOA5","LP_weather_CR300","CR300","1294","CR300.Std.07.02","CPU:LP_weather_2021-10-15.CR300","40139","Table1"
"TIMESTAMP","RECORD","Rain_mm_Tot","AirTC","BP_mbar","RH","SlrW","SlrMJ_Tot","WS_ms","WindDir"
"TS","RN","mm","Deg C","mbar","%","W/m^2","MJ/m^2","meters/second","degrees"
"","","Tot","Smp","Smp","Smp","Smp","Tot","Smp","Smp"
"TOA5","LP_weather_CR300","CR300","1294","CR300.Std.07.02","CPU:LP_weather_2021-10-15.CR300","40139","Table2"
"TIMESTAMP","RECORD","BattV_Min"
"TS","RN","Volts"
"","","Min"
