"TIMESTAMP","RECORD","BattV_Min"
"2021-10-19 11:15:00",0,13.22
"2021-10-19 11:30:00",1,13.22
"2021-10-19 11:45:00",2,13.22
"2021-10-19 12:00:00",3,13.22
"2021-10-19 12:15:00",4,13.14
"2021-10-19 12:30:00",5,13.14
"2021-10-19 12:45:00",6,13.12
"2021-10-19 13:00:00",7,13.11
"2021-10-19 13:15:00",8,13.09
"2021-10-19 13:30:00",9,13.06
"2021-10-19 13:45:00",10,13.06
"2021-10-19 14:00:00",11,13.03
"2021-10-19 14:15:00",12,13.03
"2021-10-19 14:30:00",13,13.03
"2021-10-19 14:45:00",14,13.03
"2021-10-19 15:00:00",15,13.03
"2021-10-19 15:15:00",16,13.03
"2021-10-19 15:30:00",17,13.03
"2021-10-19 15:45:00",18,13.03
"2021-10-19 16:00:00",19,13.03
"2021-10-19 16:15:00",20,13.03
"2021-10-19 16:30:00",21,13.03
"2021-10-19 16:45:00",22,13.03
"2021-10-19 17:00:00",23,13.03
"2021-10-19 17:15:00",24,13.06
"2021-10-19 17:30:00",25,13.11
"2021-10-19 17:45:00",26,13.01
"2021-10-19 18:00:00",27,13.04
"2021-10-19 18:15:00",28,12.92
"2021-10-19 18:30:00",29,12.81
"2021-10-19 18:45:00",30,12.75
"2021-10-19 19:00:00",31,12.7
"2021-10-19 19:15:00",32,12.67
"2021-10-19 19:30:00",33,12.64
"2021-10-19 19:45:00",34,12.62
"2021-10-19 20:00:00",35,12.6
"2021-10-19 20:15:00",36,12.58
"2021-10-19 20:30:00",37,12.56
"2021-10-19 20:45:00",38,12.55
"2021-10-19 21:00:00",39,12.54
"2021-10-19 21:15:00",40,12.53
"2021-10-19 21:30:00",41,12.52
"2021-10-19 21:45:00",42,12.51
"2021-10-19 22:00:00",43,12.5
"2021-10-19 22:15:00",44,12.48
"2021-10-19 22:30:00",45,12.48
"2021-10-19 22:45:00",46,12.47
"2021-10-19 23:00:00",47,12.46
"2021-10-19 23:15:00",48,12.45
"2021-10-19 23:30:00",49,12.44
"2021-10-19 23:45:00",50,12.43
"2021-10-20 00:00:00",51,12.43
"2021-10-20 00:15:00",52,12.42
"2021-10-20 00:30:00",53,12.41
"2021-10-20 00:45:00",54,12.41
"2021-10-20 01:00:00",55,12.4
"2021-10-20 01:15:00",56,12.4
"2021-10-20 01:30:00",57,12.39
"2021-10-20 01:45:00",58,12.38
"2021-10-20 02:00:00",59,12.38
"2021-10-20 02:15:00",60,12.37
"2021-10-20 02:30:00",61,12.37
"2021-10-20 02:45:00",62,12.36
"2021-10-20 03:00:00",63,12.35
"2021-10-20 03:15:00",64,12.35
"2021-10-20 03:30:00",65,12.34
"2021-10-20 03:45:00",66,12.34
"2021-10-20 04:00:00",67,12.34
"2021-10-20 04:15:00",68,12.33
"2021-10-20 04:30:00",69,12.33
"2021-10-20 04:45:00",70,12.32
"2021-10-20 05:00:00",71,12.32
"2021-10-20 05:15:00",72,12.31
"2021-10-20 05:30:00",73,12.31
"2021-10-20 05:45:00",74,12.31
"2021-10-20 06:00:00",75,12.3
"2021-10-20 06:15:00",76,12.3
"2021-10-20 06:30:00",77,12.29
"2021-10-20 06:45:00",78,12.29
"2021-10-20 07:00:00",79,12.29
"2021-10-20 07:15:00",80,12.28
"2021-10-20 07:30:00",81,12.29
"2021-10-20 07:45:00",82,12.38
"2021-10-20 08:00:00",83,12.49
"2021-10-20 08:15:00",84,12.98
"2021-10-20 08:30:00",85,14.08
"2021-10-20 08:45:00",86,13.92
"2021-10-20 09:00:00",87,13.81
"2021-10-20 09:15:00",88,13.75
"2021-10-20 09:30:00",89,13.67
"2021-10-20 09:45:00",90,13.55
"2021-10-20 10:00:00",91,13.47
"2021-10-20 10:15:00",92,13.42
"2021-10-20 10:30:00",93,13.33
"2021-10-20 10:45:00",94,13.28
"2021-10-20 11:00:00",95,13.25
"2021-10-20 11:15:00",96,13.2
"2021-10-20 11:30:00",97,13.17
"2021-10-20 11:45:00",98,13.11
"2021-10-20 12:00:00",99,13.09
"2021-10-20 12:15:00",100,13.06
"2021-10-20 12:30:00",101,13.06
"2021-10-20 12:45:00",102,13.03
"2021-10-20 13:00:00",103,13
"2021-10-20 13:15:00",104,13
"2021-10-20 13:30:00",105,13
"2021-10-20 13:45:00",106,13
"2021-10-20 14:00:00",107,13
"2021-10-20 14:15:00",108,13
"2021-10-20 14:30:00",109,13
"2021-10-20 14:45:00",110,13
"2021-10-20 15:00:00",111,13
"2021-10-20 15:15:00",112,13
"2021-10-20 15:30:00",113,13
"2021-10-20 15:45:00",114,13
"2021-10-20 16:00:00",115,13
"2021-10-20 16:15:00",116,13
"2021-10-20 16:30:00",117,13
"2021-10-20 16:45:00",118,13
"2021-10-20 17:00:00",119,13
"2021-10-20 17:15:00",120,13
"2021-10-20 17:30:00",121,13.01
"2021-10-20 17:45:00",122,13
"2021-10-20 18:00:00",123,12.98
"2021-10-20 18:15:00",124,12.87
"2021-10-20 18:30:00",125,12.77
"2021-10-20 18:45:00",126,12.71
"2021-10-20 19:00:00",127,12.67
"2021-10-20 19:15:00",128,12.64
"2021-10-20 19:30:00",129,12.61
"2021-10-20 19:45:00",130,12.59
"2021-10-20 20:00:00",131,12.57
"2021-10-20 20:15:00",132,12.55
"2021-10-20 20:30:00",133,12.54
"2021-10-20 20:45:00",134,12.52
"2021-10-20 21:00:00",135,12.51
"2021-10-20 21:15:00",136,12.5
"2021-10-20 21:30:00",137,12.49
"2021-10-20 21:45:00",138,12.48
"2021-10-20 22:00:00",139,12.47
"2021-10-20 22:15:00",140,12.46
"2021-10-20 22:30:00",141,12.45
"2021-10-20 22:45:00",142,12.44
"2021-10-20 23:00:00",143,12.43
"2021-10-20 23:15:00",144,12.43
"2021-10-20 23:30:00",145,12.42
"2021-10-20 23:45:00",146,12.41
"2021-10-21 00:00:00",147,12.41
"2021-10-21 00:15:00",148,12.4
"2021-10-21 00:30:00",149,12.39
"2021-10-21 00:45:00",150,12.39
"2021-10-21 01:00:00",151,12.38
"2021-10-21 01:15:00",152,12.38
"2021-10-21 01:30:00",153,12.37
"2021-10-21 01:45:00",154,12.36
"2021-10-21 02:00:00",155,12.36
"2021-10-21 02:15:00",156,12.35
"2021-10-21 02:30:00",157,12.35
"2021-10-21 02:45:00",158,12.34
"2021-10-21 03:00:00",159,12.34
"2021-10-21 03:15:00",160,12.33
"2021-10-21 03:30:00",161,12.33
"2021-10-21 03:45:00",162,12.32
"2021-10-21 04:00:00",163,12.32
"2021-10-21 04:15:00",164,12.31
"2021-10-21 04:30:00",165,12.31
"2021-10-21 04:45:00",166,12.31
"2021-10-21 05:00:00",167,12.3
"2021-10-21 05:15:00",168,12.3
"2021-10-21 05:30:00",169,12.3
"2021-10-21 05:45:00",170,12.29
"2021-10-21 06:00:00",171,12.29
"2021-10-21 06:15:00",172,12.29
"2021-10-21 06:30:00",173,12.28
"2021-10-21 06:45:00",174,12.28
"2021-10-21 07:00:00",175,12.28
"2021-10-21 07:15:00",176,12.27
"2021-10-21 07:30:00",177,12.28
"2021-10-21 07:45:00",178,12.35
"2021-10-21 08:00:00",179,12.54
"2021-10-21 08:15:00",180,13.1
"2021-10-21 08:30:00",181,13.93
"2021-10-21 08:45:00",182,13.86
"2021-10-21 09:00:00",183,13.79
"2021-10-21 09:15:00",184,13.72
"2021-10-21 09:30:00",185,13.63
"2021-10-21 09:45:00",186,13.55
"2021-10-21 10:00:00",187,13.46
"2021-10-21 10:15:00",188,13.39
"2021-10-21 10:30:00",189,13.33
"2021-10-21 10:45:00",190,13.27
"2021-10-21 11:00:00",191,13.22
"2021-10-21 11:15:00",192,13.19
"2021-10-21 11:30:00",193,13.17
"2021-10-21 11:45:00",194,13.11
"2021-10-21 12:00:00",195,13.06
"2021-10-21 12:15:00",196,13.06
"2021-10-21 12:30:00",197,13.03
"2021-10-21 12:45:00",198,13.03
"2021-10-21 13:00:00",199,13
"2021-10-21 13:15:00",200,13
"2021-10-21 13:30:00",201,13
"2021-10-21 13:45:00",202,13
"2021-10-21 14:00:00",203,13
"2021-10-21 14:15:00",204,13
"2021-10-21 14:30:00",205,13
"2021-10-21 14:45:00",206,13.01
"2021-10-21 15:00:00",207,13
"2021-10-21 15:15:00",208,13
"2021-10-21 15:30:00",209,13
"2021-10-21 15:45:00",210,13.01
"2021-10-21 16:00:00",211,13
"2021-10-21 16:15:00",212,13
"2021-10-21 16:30:00",213,13
"2021-10-21 16:45:00",214,13.03
"2021-10-21 17:00:00",215,13.06
"2021-10-21 17:15:00",216,13.13
"2021-10-21 17:30:00",217,13.22
"2021-10-21 17:45:00",218,13.09
"2021-10-21 18:00:00",219,12.91
"2021-10-21 18:15:00",220,12.83
"2021-10-21 18:30:00",221,12.74
"2021-10-21 18:45:00",222,12.69
"2021-10-21 19:00:00",223,12.65
"2021-10-21 19:15:00",224,12.62
"2021-10-21 19:30:00",225,12.6
"2021-10-21 19:45:00",226,12.57
"2021-10-21 20:00:00",227,12.55
"2021-10-21 20:15:00",228,12.54
"2021-10-21 20:30:00",229,12.52
"2021-10-21 20:45:00",230,12.5
"2021-10-21 21:00:00",231,12.49
"2021-10-21 21:15:00",232,12.48
"2021-10-21 21:30:00",233,12.47
"2021-10-21 21:45:00",234,12.46
"2021-10-21 22:00:00",235,12.45
"2021-10-21 22:15:00",236,12.44
"2021-10-21 22:30:00",237,12.43
"2021-10-21 22:45:00",238,12.42
"2021-10-21 23:00:00",239,12.41
"2021-10-21 23:15:00",240,12.4
"2021-10-21 23:30:00",241,12.39
"2021-10-21 23:45:00",242,12.38
"2021-10-22 00:00:00",243,12.38
"2021-10-22 00:15:00",244,12.37
"2021-10-22 00:30:00",245,12.36
"2021-10-22 00:45:00",246,12.36
"2021-10-22 01:00:00",247,12.35
"2021-10-22 01:15:00",248,12.35
"2021-10-22 01:30:00",249,12.34
"2021-10-22 01:45:00",250,12.33
"2021-10-22 02:00:00",251,12.33
"2021-10-22 02:15:00",252,12.32
"2021-10-22 02:30:00",253,12.32
"2021-10-22 02:45:00",254,12.31
"2021-10-22 03:00:00",255,12.31
"2021-10-22 03:15:00",256,12.3
"2021-10-22 03:30:00",257,12.3
"2021-10-22 03:45:00",258,12.3
"2021-10-22 04:00:00",259,12.29
"2021-10-22 04:15:00",260,12.29
"2021-10-22 04:30:00",261,12.29
"2021-10-22 04:45:00",262,12.28
"2021-10-22 05:00:00",263,12.28
"2021-10-22 05:15:00",264,12.28
"2021-10-22 05:30:00",265,12.27
"2021-10-22 05:45:00",266,12.27
"2021-10-22 06:00:00",267,12.27
"2021-10-22 06:15:00",268,12.26
"2021-10-22 06:30:00",269,12.26
"2021-10-22 06:45:00",270,12.26
"2021-10-22 07:00:00",271,12.26
"2021-10-22 07:15:00",272,12.26
"2021-10-22 07:30:00",273,12.25
"2021-10-22 07:45:00",274,12.27
"2021-10-22 08:00:00",275,12.27
"2021-10-22 08:15:00",276,12.53
"2021-10-22 08:30:00",277,13.71
"2021-10-22 08:45:00",278,13.47
"2021-10-22 09:00:00",279,13.55
"2021-10-22 09:15:00",280,13.55
"2021-10-22 09:30:00",281,13.54
"2021-10-22 09:45:00",282,13.43
"2021-10-22 10:00:00",283,13.33
"2021-10-22 10:15:00",284,13.36
"2021-10-22 10:30:00",285,13.41
"2021-10-22 10:45:00",286,13.46
"2021-10-22 11:00:00",287,13.46
"2021-10-22 11:15:00",288,13.43
"2021-10-22 11:30:00",289,13.43
"2021-10-22 11:45:00",290,13.43
"2021-10-22 12:00:00",291,13.36
"2021-10-22 12:15:00",292,13.3
"2021-10-22 12:30:00",293,13.36
"2021-10-22 12:45:00",294,13.38
"2021-10-22 13:00:00",295,13.38
"2021-10-22 13:15:00",296,13.38
"2021-10-22 13:30:00",297,13.41
"2021-10-22 13:45:00",298,13.41
"2021-10-22 14:00:00",299,13.39
"2021-10-22 14:15:00",300,13.35
"2021-10-22 14:30:00",301,13.36
"2021-10-22 14:45:00",302,13.3
"2021-10-22 15:00:00",303,13.24
"2021-10-22 15:15:00",304,13.22
"2021-10-22 15:30:00",305,13.27
"2021-10-22 15:45:00",306,13.33
"2021-10-22 16:00:00",307,13.38
"2021-10-22 16:15:00",308,13.38
"2021-10-22 16:30:00",309,13.41
"2021-10-22 16:45:00",310,13.43
"2021-10-22 17:00:00",311,13.46
"2021-10-22 17:15:00",312,13.45
"2021-10-22 17:30:00",313,13.46
"2021-10-22 17:45:00",314,13.14
"2021-10-22 18:00:00",315,12.97
"2021-10-22 18:15:00",316,12.88
"2021-10-22 18:30:00",317,12.83
"2021-10-22 18:45:00",318,12.77
"2021-10-22 19:00:00",319,12.73
"2021-10-22 19:15:00",320,12.7
"2021-10-22 19:30:00",321,12.67
"2021-10-22 19:45:00",322,12.64
"2021-10-22 20:00:00",323,12.62
"2021-10-22 20:15:00",324,12.61
"2021-10-22 20:30:00",325,12.59
"2021-10-22 20:45:00",326,12.57
"2021-10-22 21:00:00",327,12.56
"2021-10-22 21:15:00",328,12.55
"2021-10-22 21:30:00",329,12.53
"2021-10-22 21:45:00",330,12.52
"2021-10-22 22:00:00",331,12.51
"2021-10-22 22:15:00",332,12.5
"2021-10-22 22:30:00",333,12.49
"2021-10-22 22:45:00",334,12.48
"2021-10-22 23:00:00",335,12.47
"2021-10-22 23:15:00",336,12.46
"2021-10-22 23:30:00",337,12.45
"2021-10-22 23:45:00",338,12.45
"2021-10-23 00:00:00",339,12.44
"2021-10-23 00:15:00",340,12.43
"2021-10-23 00:30:00",341,12.42
"2021-10-23 00:45:00",342,12.42
"2021-10-23 01:00:00",343,12.41
"2021-10-23 01:15:00",344,12.4
"2021-10-23 01:30:00",345,12.39
"2021-10-23 01:45:00",346,12.39
"2021-10-23 02:00:00",347,12.38
"2021-10-23 02:15:00",348,12.38
"2021-10-23 02:30:00",349,12.37
"2021-10-23 02:45:00",350,12.37
"2021-10-23 03:00:00",351,12.36
"2021-10-23 03:15:00",352,12.35
"2021-10-23 03:30:00",353,12.35
"2021-10-23 03:45:00",354,12.35
"2021-10-23 04:00:00",355,12.34
"2021-10-23 04:15:00",356,12.34
"2021-10-23 04:30:00",357,12.33
"2021-10-23 04:45:00",358,12.33
"2021-10-23 05:00:00",359,12.33
"2021-10-23 05:15:00",360,12.32
"2021-10-23 05:30:00",361,12.32
"2021-10-23 05:45:00",362,12.31
"2021-10-23 06:00:00",363,12.31
"2021-10-23 06:15:00",364,12.31
"2021-10-23 06:30:00",365,12.31
"2021-10-23 06:45:00",366,12.3
"2021-10-23 07:00:00",367,12.3
"2021-10-23 07:15:00",368,12.29
"2021-10-23 07:30:00",369,12.29
"2021-10-23 07:45:00",370,12.3
"2021-10-23 08:00:00",371,12.45
"2021-10-23 08:15:00",372,12.74
"2021-10-23 08:30:00",373,13.1
"2021-10-23 08:45:00",374,13.42
"2021-10-23 09:00:00",375,13.7
"2021-10-23 09:15:00",376,13.86
"2021-10-23 09:30:00",377,13.86
"2021-10-23 09:45:00",378,13.72
"2021-10-23 10:00:00",379,13.55
"2021-10-23 10:15:00",380,13.44
"2021-10-23 10:30:00",381,13.36
"2021-10-23 10:45:00",382,13.3
"2021-10-23 11:00:00",383,13.36
"2021-10-23 11:15:00",384,13.36
"2021-10-23 11:30:00",385,13.3
"2021-10-23 11:45:00",386,13.22
"2021-10-23 12:00:00",387,13.17
"2021-10-23 12:15:00",388,13.14
"2021-10-23 12:30:00",389,13.17
"2021-10-23 12:45:00",390,13.17
"2021-10-23 13:00:00",391,13.14
"2021-10-23 13:15:00",392,13.14
"2021-10-23 13:30:00",393,13.19
"2021-10-23 13:45:00",394,13.14
"2021-10-23 14:00:00",395,13.11
"2021-10-23 14:15:00",396,13.14
"2021-10-23 14:30:00",397,13.11
"2021-10-23 14:45:00",398,13.08
"2021-10-23 15:00:00",399,13.11
"2021-10-23 15:15:00",400,13.11
"2021-10-23 15:30:00",401,13.08
"2021-10-23 15:45:00",402,13.08
"2021-10-23 16:00:00",403,13.08
"2021-10-23 16:15:00",404,13.08
"2021-10-23 16:30:00",405,13.06
"2021-10-23 16:45:00",406,13.05
"2021-10-23 17:00:00",407,13.11
"2021-10-23 17:15:00",408,13.24
"2021-10-23 17:30:00",409,13.36
"2021-10-23 17:45:00",410,13.3
"2021-10-23 18:00:00",411,13.28
"2021-10-23 18:15:00",412,12.99
"2021-10-23 18:30:00",413,12.85
"2021-10-23 18:45:00",414,12.78
"2021-10-23 19:00:00",415,12.73
"2021-10-23 19:15:00",416,12.69
"2021-10-23 19:30:00",417,12.67
"2021-10-23 19:45:00",418,12.64
"2021-10-23 20:00:00",419,12.62
"2021-10-23 20:15:00",420,12.6
"2021-10-23 20:30:00",421,12.59
"2021-10-23 20:45:00",422,12.57
"2021-10-23 21:00:00",423,12.56
"2021-10-23 21:15:00",424,12.54
"2021-10-23 21:30:00",425,12.53
"2021-10-23 21:45:00",426,12.52
"2021-10-23 22:00:00",427,12.51
"2021-10-23 22:15:00",428,12.5
"2021-10-23 22:30:00",429,12.49
"2021-10-23 22:45:00",430,12.48
"2021-10-23 23:00:00",431,12.47
"2021-10-23 23:15:00",432,12.47
"2021-10-23 23:30:00",433,12.46
"2021-10-23 23:45:00",434,12.45
"2021-10-24 00:00:00",435,12.44
"2021-10-24 00:15:00",436,12.43
"2021-10-24 00:30:00",437,12.43
"2021-10-24 00:45:00",438,12.42
"2021-10-24 01:00:00",439,12.41
"2021-10-24 01:15:00",440,12.41
"2021-10-24 01:30:00",441,12.4
"2021-10-24 01:45:00",442,12.39
"2021-10-24 02:00:00",443,12.39
"2021-10-24 02:15:00",444,12.38
"2021-10-24 02:30:00",445,12.37
"2021-10-24 02:45:00",446,12.37
"2021-10-24 03:00:00",447,12.36
"2021-10-24 03:15:00",448,12.36
"2021-10-24 03:30:00",449,12.35
"2021-10-24 03:45:00",450,12.35
"2021-10-24 04:00:00",451,12.34
"2021-10-24 04:15:00",452,12.34
"2021-10-24 04:30:00",453,12.33
"2021-10-24 04:45:00",454,12.33
"2021-10-24 05:00:00",455,12.32
"2021-10-24 05:15:00",456,12.32
"2021-10-24 05:30:00",457,12.31
"2021-10-24 05:45:00",458,12.31
"2021-10-24 06:00:00",459,12.31
"2021-10-24 06:15:00",460,12.3
"2021-10-24 06:30:00",461,12.3
"2021-10-24 06:45:00",462,12.3
"2021-10-24 07:00:00",463,12.29
"2021-10-24 07:15:00",464,12.29
"2021-10-24 07:30:00",465,12.29
"2021-10-24 07:45:00",466,12.31
"2021-10-24 08:00:00",467,12.45
"2021-10-24 08:15:00",468,12.66
"2021-10-24 08:30:00",469,13.05
"2021-10-24 08:45:00",470,13.33
"2021-10-24 09:00:00",471,13.46
"2021-10-24 09:15:00",472,13.5
"2021-10-24 09:30:00",473,13.44
"2021-10-24 09:45:00",474,13.89
"2021-10-24 10:00:00",475,13.83
"2021-10-24 10:15:00",476,13.75
"2021-10-24 10:30:00",477,13.67
"2021-10-24 10:45:00",478,13.52
"2021-10-24 11:00:00",479,13.43
"2021-10-24 11:15:00",480,13.31
"2021-10-24 11:30:00",481,13.22
"2021-10-24 11:45:00",482,13.17
"2021-10-24 12:00:00",483,13.11
"2021-10-24 12:15:00",484,13.11
"2021-10-24 12:30:00",485,13.09
"2021-10-24 12:45:00",486,13.08
"2021-10-24 13:00:00",487,13.08
"2021-10-24 13:15:00",488,13.09
"2021-10-24 13:30:00",489,13.08
"2021-10-24 13:45:00",490,13.09
"2021-10-24 14:00:00",491,13.08
"2021-10-24 14:15:00",492,13.08
"2021-10-24 14:30:00",493,13.08
"2021-10-24 14:45:00",494,13.08
"2021-10-24 15:00:00",495,13.08
"2021-10-24 15:15:00",496,13.09
"2021-10-24 15:30:00",497,13.08
"2021-10-24 15:45:00",498,13.09
"2021-10-24 16:00:00",499,13.09
"2021-10-24 16:15:00",500,13.08
"2021-10-24 16:30:00",501,13.08
"2021-10-24 16:45:00",502,13.08
"2021-10-24 17:00:00",503,13.11
"2021-10-24 17:15:00",504,13.14
"2021-10-24 17:30:00",505,13.21
"2021-10-24 17:45:00",506,13.14
"2021-10-24 18:00:00",507,13.03
"2021-10-24 18:15:00",508,12.86
"2021-10-24 18:30:00",509,12.77
"2021-10-24 18:45:00",510,12.72
"2021-10-24 19:00:00",511,12.68
"2021-10-24 19:15:00",512,12.65
"2021-10-24 19:30:00",513,12.63
"2021-10-24 19:45:00",514,12.6
"2021-10-24 20:00:00",515,12.58
"2021-10-24 20:15:00",516,12.56
"2021-10-24 20:30:00",517,12.55
"2021-10-24 20:45:00",518,12.54
"2021-10-24 21:00:00",519,12.52
"2021-10-24 21:15:00",520,12.51
"2021-10-24 21:30:00",521,12.5
"2021-10-24 21:45:00",522,12.49
"2021-10-24 22:00:00",523,12.48
"2021-10-24 22:15:00",524,12.47
"2021-10-24 22:30:00",525,12.46
"2021-10-24 22:45:00",526,12.45
"2021-10-24 23:00:00",527,12.44
"2021-10-24 23:15:00",528,12.43
"2021-10-24 23:30:00",529,12.43
"2021-10-24 23:45:00",530,12.42
"2021-10-25 00:00:00",531,12.41
"2021-10-25 00:15:00",532,12.4
"2021-10-25 00:30:00",533,12.4
"2021-10-25 00:45:00",534,12.39
"2021-10-25 01:00:00",535,12.38
"2021-10-25 01:15:00",536,12.38
"2021-10-25 01:30:00",537,12.37
"2021-10-25 01:45:00",538,12.37
"2021-10-25 02:00:00",539,12.36
"2021-10-25 02:15:00",540,12.35
"2021-10-25 02:30:00",541,12.35
"2021-10-25 02:45:00",542,12.34
"2021-10-25 03:00:00",543,12.34
"2021-10-25 03:15:00",544,12.33
"2021-10-25 03:30:00",545,12.33
"2021-10-25 03:45:00",546,12.32
"2021-10-25 04:00:00",547,12.32
"2021-10-25 04:15:00",548,12.32
"2021-10-25 04:30:00",549,12.31
"2021-10-25 04:45:00",550,12.31
"2021-10-25 05:00:00",551,12.3
"2021-10-25 05:15:00",552,12.3
"2021-10-25 05:30:00",553,12.3
"2021-10-25 05:45:00",554,12.29
"2021-10-25 06:00:00",555,12.29
"2021-10-25 06:15:00",556,12.29
"2021-10-25 06:30:00",557,12.28
"2021-10-25 06:45:00",558,12.28
"2021-10-25 07:00:00",559,12.28
"2021-10-25 07:15:00",560,12.27
"2021-10-25 07:30:00",561,12.27
"2021-10-25 07:45:00",562,12.33
"2021-10-25 08:00:00",563,12.45
"2021-10-25 08:15:00",564,12.94
"2021-10-25 08:30:00",565,13.76
"2021-10-25 08:45:00",566,13.75
"2021-10-25 09:00:00",567,13.69
"2021-10-25 09:15:00",568,13.69
"2021-10-25 09:30:00",569,13.69
"2021-10-25 09:45:00",570,13.66
"2021-10-25 10:00:00",571,13.61
"2021-10-25 10:15:00",572,13.58
"2021-10-25 10:30:00",573,13.49
"2021-10-25 10:45:00",574,13.43
"2021-10-25 11:00:00",575,13.43
"2021-10-25 11:15:00",576,13.43
"2021-10-25 11:30:00",577,13.43
"2021-10-25 11:45:00",578,13.39
"2021-10-25 12:00:00",579,13.3
"2021-10-25 12:15:00",580,13.24
"2021-10-25 12:30:00",581,13.19
"2021-10-25 12:45:00",582,13.17
"2021-10-25 13:00:00",583,13.16
"2021-10-25 13:15:00",584,13.16
"2021-10-25 13:30:00",585,13.16
"2021-10-25 13:45:00",586,13.22
"2021-10-25 14:00:00",587,13.27
"2021-10-25 14:15:00",588,13.27
"2021-10-25 14:30:00",589,13.27
"2021-10-25 14:45:00",590,13.3
"2021-10-25 15:00:00",591,13.33
"2021-10-25 15:15:00",592,13.33
"2021-10-25 15:30:00",593,13.24
"2021-10-25 15:45:00",594,13.19
"2021-10-25 16:00:00",595,13.19
"2021-10-25 16:15:00",596,13.21
"2021-10-25 16:30:00",597,13.22
"2021-10-25 16:45:00",598,13.22
"2021-10-25 17:00:00",599,13.3
"2021-10-25 17:15:00",600,13.12
"2021-10-25 17:30:00",601,13.19
"2021-10-25 17:45:00",602,13.05
"2021-10-25 18:00:00",603,12.91
"2021-10-25 18:15:00",604,12.82
"2021-10-25 18:30:00",605,12.76
"2021-10-25 18:45:00",606,12.72
"2021-10-25 19:00:00",607,12.69
"2021-10-25 19:15:00",608,12.66
"2021-10-25 19:30:00",609,12.63
"2021-10-25 19:45:00",610,12.61
"2021-10-25 20:00:00",611,12.59
"2021-10-25 20:15:00",612,12.57
"2021-10-25 20:30:00",613,12.56
"2021-10-25 20:45:00",614,12.55
"2021-10-25 21:00:00",615,12.53
"2021-10-25 21:15:00",616,12.52
"2021-10-25 21:30:00",617,12.51
"2021-10-25 21:45:00",618,12.5
"2021-10-25 22:00:00",619,12.49
"2021-10-25 22:15:00",620,12.47
"2021-10-25 22:30:00",621,12.46
"2021-10-25 22:45:00",622,12.46
"2021-10-25 23:00:00",623,12.45
"2021-10-25 23:15:00",624,12.44
"2021-10-25 23:30:00",625,12.43
"2021-10-25 23:45:00",626,12.42
"2021-10-26 00:00:00",627,12.42
"2021-10-26 00:15:00",628,12.41
"2021-10-26 00:30:00",629,12.4
"2021-10-26 00:45:00",630,12.4
"2021-10-26 01:00:00",631,12.39
"2021-10-26 01:15:00",632,12.38
"2021-10-26 01:30:00",633,12.38
"2021-10-26 01:45:00",634,12.37
"2021-10-26 02:00:00",635,12.36
"2021-10-26 02:15:00",636,12.36
"2021-10-26 02:30:00",637,12.35
"2021-10-26 02:45:00",638,12.35
"2021-10-26 03:00:00",639,12.34
"2021-10-26 03:15:00",640,12.34
"2021-10-26 03:30:00",641,12.34
"2021-10-26 03:45:00",642,12.33
"2021-10-26 04:00:00",643,12.33
"2021-10-26 04:15:00",644,12.32
"2021-10-26 04:30:00",645,12.32
"2021-10-26 04:45:00",646,12.32
"2021-10-26 05:00:00",647,12.31
"2021-10-26 05:15:00",648,12.31
"2021-10-26 05:30:00",649,12.3
"2021-10-26 05:45:00",650,12.3
"2021-10-26 06:00:00",651,12.3
"2021-10-26 06:15:00",652,12.29
"2021-10-26 06:30:00",653,12.29
"2021-10-26 06:45:00",654,12.29
"2021-10-26 07:00:00",655,12.28
"2021-10-26 07:15:00",656,12.28
"2021-10-26 07:30:00",657,12.28
"2021-10-26 07:45:00",658,12.32
"2021-10-26 08:00:00",659,12.38
"2021-10-26 08:15:00",660,12.55
"2021-10-26 08:30:00",661,13.85
"2021-10-26 08:45:00",662,13.73
"2021-10-26 09:00:00",663,13.66
"2021-10-26 09:15:00",664,13.61
"2021-10-26 09:30:00",665,13.52
"2021-10-26 09:45:00",666,13.49
"2021-10-26 10:00:00",667,13.46
"2021-10-26 10:15:00",668,13.42
"2021-10-26 10:30:00",669,13.39
"2021-10-26 10:45:00",670,13.36
"2021-10-26 11:00:00",671,13.33
"2021-10-26 11:15:00",672,13.3
"2021-10-26 11:30:00",673,13.3
"2021-10-26 11:45:00",674,13.27
"2021-10-26 12:00:00",675,13.22
"2021-10-26 12:15:00",676,13.36
"2021-10-26 12:30:00",677,13.41
"2021-10-26 12:45:00",678,13.43
"2021-10-26 13:00:00",679,13.36
"2021-10-26 13:15:00",680,13.25
"2021-10-26 13:30:00",681,13.19
"2021-10-26 13:45:00",682,13.19
"2021-10-26 14:00:00",683,13.19
"2021-10-26 14:15:00",684,13.19
"2021-10-26 14:30:00",685,13.19
"2021-10-26 14:45:00",686,13.19
"2021-10-26 15:00:00",687,13.19
"2021-10-26 15:15:00",688,13.19
"2021-10-26 15:30:00",689,13.19
"2021-10-26 15:45:00",690,13.19
"2021-10-26 16:00:00",691,13.22
"2021-10-26 16:15:00",692,13.22
"2021-10-26 16:30:00",693,13.24
"2021-10-26 16:45:00",694,13.27
"2021-10-26 17:00:00",695,13.3
"2021-10-26 17:15:00",696,13.19
"2021-10-26 17:30:00",697,13.19
"2021-10-26 17:45:00",698,13.25
"2021-10-26 18:00:00",699,13.08
"2021-10-26 18:15:00",700,12.92
"2021-10-26 18:30:00",701,12.84
"2021-10-26 18:45:00",702,12.78
"2021-10-26 19:00:00",703,12.74
"2021-10-26 19:15:00",704,12.71
"2021-10-26 19:30:00",705,12.68
"2021-10-26 19:45:00",706,12.66
"2021-10-26 20:00:00",707,12.64
"2021-10-26 20:15:00",708,12.63
"2021-10-26 20:30:00",709,12.61
"2021-10-26 20:45:00",710,12.6
"2021-10-26 21:00:00",711,12.58
"2021-10-26 21:15:00",712,12.57
"2021-10-26 21:30:00",713,12.56
"2021-10-26 21:45:00",714,12.55
"2021-10-26 22:00:00",715,12.54
"2021-10-26 22:15:00",716,12.53
"2021-10-26 22:30:00",717,12.52
"2021-10-26 22:45:00",718,12.51
"2021-10-26 23:00:00",719,12.5
"2021-10-26 23:15:00",720,12.49
"2021-10-26 23:30:00",721,12.48
"2021-10-26 23:45:00",722,12.48
"2021-10-27 00:00:00",723,12.47
"2021-10-27 00:15:00",724,12.46
"2021-10-27 00:30:00",725,12.45
"2021-10-27 00:45:00",726,12.44
"2021-10-27 01:00:00",727,12.44
"2021-10-27 01:15:00",728,12.43
"2021-10-27 01:30:00",729,12.43
"2021-10-27 01:45:00",730,12.42
"2021-10-27 02:00:00",731,12.42
"2021-10-27 02:15:00",732,12.41
"2021-10-27 02:30:00",733,12.4
"2021-10-27 02:45:00",734,12.39
"2021-10-27 03:00:00",735,12.39
"2021-10-27 03:15:00",736,12.38
"2021-10-27 03:30:00",737,12.38
"2021-10-27 03:45:00",738,12.37
"2021-10-27 04:00:00",739,12.37
"2021-10-27 04:15:00",740,12.36
"2021-10-27 04:30:00",741,12.36
"2021-10-27 04:45:00",742,12.35
"2021-10-27 05:00:00",743,12.35
"2021-10-27 05:15:00",744,12.34
"2021-10-27 05:30:00",745,12.34
"2021-10-27 05:45:00",746,12.34
"2021-10-27 06:00:00",747,12.33
"2021-10-27 06:15:00",748,12.33
"2021-10-27 06:30:00",749,12.32
"2021-10-27 06:45:00",750,12.32
"2021-10-27 07:00:00",751,12.31
"2021-10-27 07:15:00",752,12.31
"2021-10-27 07:30:00",753,12.31
"2021-10-27 07:45:00",754,12.37
"2021-10-27 08:00:00",755,12.46
"2021-10-27 08:15:00",756,12.71
"2021-10-27 08:30:00",757,13.97
"2021-10-27 08:45:00",758,13.81
"2021-10-27 09:00:00",759,13.73
"2021-10-27 09:15:00",760,13.64
"2021-10-27 09:30:00",761,13.55
"2021-10-27 09:45:00",762,13.49
"2021-10-27 10:00:00",763,13.43
"2021-10-27 10:15:00",764,13.36
"2021-10-27 10:30:00",765,13.34
"2021-10-27 10:45:00",766,13.31
"2021-10-27 11:00:00",767,13.25
"2021-10-27 11:15:00",768,13.22
"2021-10-27 11:30:00",769,13.2
"2021-10-27 11:45:00",770,13.2
"2021-10-27 12:00:00",771,13.17
"2021-10-27 12:15:00",772,13.14
"2021-10-27 12:30:00",773,13.11
"2021-10-27 12:45:00",774,13.11
"2021-10-27 13:00:00",775,13.08
"2021-10-27 13:15:00",776,13.09
"2021-10-27 13:30:00",777,13.08
"2021-10-27 13:45:00",778,13.06
"2021-10-27 14:00:00",779,13.03
"2021-10-27 14:15:00",780,13.03
"2021-10-27 14:30:00",781,13.03
"2021-10-27 14:45:00",782,13.03
"2021-10-27 15:00:00",783,13.03
"2021-10-27 15:15:00",784,13.03
"2021-10-27 15:30:00",785,13.03
"2021-10-27 15:45:00",786,13.03
"2021-10-27 16:00:00",787,13.03
"2021-10-27 16:15:00",788,13.03
"2021-10-27 16:30:00",789,13.03
"2021-10-27 16:45:00",790,13.03
"2021-10-27 17:00:00",791,13.03
"2021-10-27 17:15:00",792,13.03
"2021-10-27 17:30:00",793,13.04
"2021-10-27 17:45:00",794,13.02
"2021-10-27 18:00:00",795,12.92
"2021-10-27 18:15:00",796,12.83
"2021-10-27 18:30:00",797,12.77
"2021-10-27 18:45:00",798,12.72
"2021-10-27 19:00:00",799,12.69
"2021-10-27 19:15:00",800,12.66
"2021-10-27 19:30:00",801,12.64
"2021-10-27 19:45:00",802,12.62
"2021-10-27 20:00:00",803,12.6
"2021-10-27 20:15:00",804,12.58
"2021-10-27 20:30:00",805,12.57
"2021-10-27 20:45:00",806,12.55
"2021-10-27 21:00:00",807,12.54
"2021-10-27 21:15:00",808,12.53
"2021-10-27 21:30:00",809,12.52
"2021-10-27 21:45:00",810,12.51
"2021-10-27 22:00:00",811,12.5
"2021-10-27 22:15:00",812,12.49
"2021-10-27 22:30:00",813,12.48
"2021-10-27 22:45:00",814,12.47
"2021-10-27 23:00:00",815,12.46
"2021-10-27 23:15:00",816,12.45
"2021-10-27 23:30:00",817,12.45
"2021-10-27 23:45:00",818,12.44
"2021-10-28 00:00:00",819,12.43
"2021-10-28 00:15:00",820,12.43
"2021-10-28 00:30:00",821,12.42
"2021-10-28 00:45:00",822,12.41
"2021-10-28 01:00:00",823,12.4
"2021-10-28 01:15:00",824,12.4
"2021-10-28 01:30:00",825,12.39
"2021-10-28 01:45:00",826,12.39
"2021-10-28 02:00:00",827,12.38
"2021-10-28 02:15:00",828,12.38
"2021-10-28 02:30:00",829,12.37
"2021-10-28 02:45:00",830,12.37
"2021-10-28 03:00:00",831,12.36
"2021-10-28 03:15:00",832,12.36
"2021-10-28 03:30:00",833,12.35
"2021-10-28 03:45:00",834,12.35
"2021-10-28 04:00:00",835,12.34
"2021-10-28 04:15:00",836,12.34
"2021-10-28 04:30:00",837,12.33
"2021-10-28 04:45:00",838,12.33
"2021-10-28 05:00:00",839,12.33
"2021-10-28 05:15:00",840,12.32
"2021-10-28 05:30:00",841,12.32
"2021-10-28 05:45:00",842,12.31
"2021-10-28 06:00:00",843,12.31
"2021-10-28 06:15:00",844,12.3
"2021-10-28 06:30:00",845,12.3
"2021-10-28 06:45:00",846,12.3
"2021-10-28 07:00:00",847,12.29
"2021-10-28 07:15:00",848,12.29
"2021-10-28 07:30:00",849,12.31
"2021-10-28 07:45:00",850,12.4
"2021-10-28 08:00:00",851,12.56
"2021-10-28 08:15:00",852,13.08
"2021-10-28 08:30:00",853,14.07
"2021-10-28 08:45:00",854,13.97
"2021-10-28 09:00:00",855,13.91
"2021-10-28 09:15:00",856,13.88
"2021-10-28 09:30:00",857,13.81
"2021-10-28 09:45:00",858,13.78
"2021-10-28 10:00:00",859,13.75
"2021-10-28 10:15:00",860,13.72
"2021-10-28 10:30:00",861,13.67
"2021-10-28 10:45:00",862,13.49
"2021-10-28 11:00:00",863,13.36
"2021-10-28 11:15:00",864,13.36
"2021-10-28 11:30:00",865,13.39
"2021-10-28 11:45:00",866,13.42
"2021-10-28 12:00:00",867,13.43
"2021-10-28 12:15:00",868,13.42
"2021-10-28 12:30:00",869,13.36
"2021-10-28 12:45:00",870,13.27
"2021-10-28 13:00:00",871,13.19
"2021-10-28 13:15:00",872,13.22
"2021-10-28 13:30:00",873,13.33
"2021-10-28 13:45:00",874,13.36
"2021-10-28 14:00:00",875,13.33
"2021-10-28 14:15:00",876,13.38
"2021-10-28 14:30:00",877,13.39
"2021-10-28 14:45:00",878,13.41
"2021-10-28 15:00:00",879,13.46
"2021-10-28 15:15:00",880,13.48
"2021-10-28 15:30:00",881,13.52
"2021-10-28 15:45:00",882,13.39
"2021-10-28 16:00:00",883,13.62
"2021-10-28 16:15:00",884,13.52
"2021-10-28 16:30:00",885,13.48
"2021-10-28 16:45:00",886,13.44
"2021-10-28 17:00:00",887,13.34
"2021-10-28 17:15:00",888,13.18
"2021-10-28 17:30:00",889,13.03
"2021-10-28 17:45:00",890,13
"2021-10-28 18:00:00",891,12.91
"2021-10-28 18:15:00",892,12.85
"2021-10-28 18:30:00",893,12.81
"2021-10-28 18:45:00",894,12.77
"2021-10-28 19:00:00",895,12.75
"2021-10-28 19:15:00",896,12.72
"2021-10-28 19:30:00",897,12.7
"2021-10-28 19:45:00",898,12.68
"2021-10-28 20:00:00",899,12.66
"2021-10-28 20:15:00",900,12.64
"2021-10-28 20:30:00",901,12.63
"2021-10-28 20:45:00",902,12.61
"2021-10-28 21:00:00",903,12.6
"2021-10-28 21:15:00",904,12.59
"2021-10-28 21:30:00",905,12.57
"2021-10-28 21:45:00",906,12.56
"2021-10-28 22:00:00",907,12.55
"2021-10-28 22:15:00",908,12.54
"2021-10-28 22:30:00",909,12.53
"2021-10-28 22:45:00",910,12.52
"2021-10-28 23:00:00",911,12.51
"2021-10-28 23:15:00",912,12.5
"2021-10-28 23:30:00",913,12.49
"2021-10-28 23:45:00",914,12.49
"2021-10-29 00:00:00",915,12.47
"2021-10-29 00:15:00",916,12.47
"2021-10-29 00:30:00",917,12.46
"2021-10-29 00:45:00",918,12.45
"2021-10-29 01:00:00",919,12.45
"2021-10-29 01:15:00",920,12.44
"2021-10-29 01:30:00",921,12.43
"2021-10-29 01:45:00",922,12.42
"2021-10-29 02:00:00",923,12.42
"2021-10-29 02:15:00",924,12.41
"2021-10-29 02:30:00",925,12.41
"2021-10-29 02:45:00",926,12.4
"2021-10-29 03:00:00",927,12.39
"2021-10-29 03:15:00",928,12.39
"2021-10-29 03:30:00",929,12.38
"2021-10-29 03:45:00",930,12.38
"2021-10-29 04:00:00",931,12.37
"2021-10-29 04:15:00",932,12.37
"2021-10-29 04:30:00",933,12.36
"2021-10-29 04:45:00",934,12.36
"2021-10-29 05:00:00",935,12.35
"2021-10-29 05:15:00",936,12.34
"2021-10-29 05:30:00",937,12.34
"2021-10-29 05:45:00",938,12.34
"2021-10-29 06:00:00",939,12.33
"2021-10-29 06:15:00",940,12.33
"2021-10-29 06:30:00",941,12.32
"2021-10-29 06:45:00",942,12.32
"2021-10-29 07:00:00",943,12.32
"2021-10-29 07:15:00",944,12.31
"2021-10-29 07:30:00",945,12.31
"2021-10-29 07:45:00",946,12.3
"2021-10-29 08:00:00",947,12.3
"2021-10-29 08:15:00",948,12.3
"2021-10-29 08:30:00",949,12.31
"2021-10-29 08:45:00",950,12.36
"2021-10-29 09:00:00",951,12.45
"2021-10-29 09:15:00",952,12.71
"2021-10-29 09:30:00",953,12.95
"2021-10-29 09:45:00",954,13.1
"2021-10-29 10:00:00",955,13.38
"2021-10-29 10:15:00",956,13.53
"2021-10-29 10:30:00",957,13.66
"2021-10-29 10:45:00",958,13.63
"2021-10-29 11:00:00",959,13.46
"2021-10-29 11:15:00",960,13.36
"2021-10-29 11:30:00",961,13.27
"2021-10-29 11:45:00",962,13.22
"2021-10-29 12:00:00",963,13.19
"2021-10-29 12:15:00",964,13.17
"2021-10-29 12:30:00",965,13.17
"2021-10-29 12:45:00",966,13.14
"2021-10-29 13:00:00",967,13.14
"2021-10-29 13:15:00",968,13.17
"2021-10-29 13:30:00",969,13.14
"2021-10-29 13:45:00",970,13.17
"2021-10-29 14:00:00",971,13.11
"2021-10-29 14:15:00",972,13.19
"2021-10-29 14:30:00",973,13.17
"2021-10-29 14:45:00",974,13.21
"2021-10-29 15:00:00",975,13.27
"2021-10-29 15:15:00",976,13.27
"2021-10-29 15:30:00",977,13.3
"2021-10-29 15:45:00",978,13.38
"2021-10-29 16:00:00",979,13.41
"2021-10-29 16:15:00",980,13.45
"2021-10-29 16:30:00",981,13.46
"2021-10-29 16:45:00",982,13.35
"2021-10-29 17:00:00",983,13.41
"2021-10-29 17:15:00",984,13.35
"2021-10-29 17:30:00",985,13.28
"2021-10-29 17:45:00",986,13.17
"2021-10-29 18:00:00",987,13.01
"2021-10-29 18:15:00",988,12.9
"2021-10-29 18:30:00",989,12.83
"2021-10-29 18:45:00",990,12.78
"2021-10-29 19:00:00",991,12.74
"2021-10-29 19:15:00",992,12.71
"2021-10-29 19:30:00",993,12.68
"2021-10-29 19:45:00",994,12.66
"2021-10-29 20:00:00",995,12.64
"2021-10-29 20:15:00",996,12.62
"2021-10-29 20:30:00",997,12.61
"2021-10-29 20:45:00",998,12.59
"2021-10-29 21:00:00",999,12.58
"2021-10-29 21:15:00",1000,12.57
"2021-10-29 21:30:00",1001,12.55
"2021-10-29 21:45:00",1002,12.54
"2021-10-29 22:00:00",1003,12.53
"2021-10-29 22:15:00",1004,12.52
"2021-10-29 22:30:00",1005,12.51
"2021-10-29 22:45:00",1006,12.5
"2021-10-29 23:00:00",1007,12.49
"2021-10-29 23:15:00",1008,12.48
"2021-10-29 23:30:00",1009,12.47
"2021-10-29 23:45:00",1010,12.47
"2021-10-30 00:00:00",1011,12.46
"2021-10-30 00:15:00",1012,12.45
"2021-10-30 00:30:00",1013,12.44
"2021-10-30 00:45:00",1014,12.43
"2021-10-30 01:00:00",1015,12.43
"2021-10-30 01:15:00",1016,12.42
"2021-10-30 01:30:00",1017,12.42
"2021-10-30 01:45:00",1018,12.41
"2021-10-30 02:00:00",1019,12.4
"2021-10-30 02:15:00",1020,12.4
"2021-10-30 02:30:00",1021,12.39
"2021-10-30 02:45:00",1022,12.39
"2021-10-30 03:00:00",1023,12.38
"2021-10-30 03:15:00",1024,12.37
"2021-10-30 03:30:00",1025,12.37
"2021-10-30 03:45:00",1026,12.36
"2021-10-30 04:00:00",1027,12.36
"2021-10-30 04:15:00",1028,12.35
"2021-10-30 04:30:00",1029,12.35
"2021-10-30 04:45:00",1030,12.34
"2021-10-30 05:00:00",1031,12.34
"2021-10-30 05:15:00",1032,12.34
"2021-10-30 05:30:00",1033,12.33
"2021-10-30 05:45:00",1034,12.33
"2021-10-30 06:00:00",1035,12.33
"2021-10-30 06:15:00",1036,12.32
"2021-10-30 06:30:00",1037,12.31
"2021-10-30 06:45:00",1038,12.31
"2021-10-30 07:00:00",1039,12.31
"2021-10-30 07:15:00",1040,12.3
"2021-10-30 07:30:00",1041,12.3
"2021-10-30 07:45:00",1042,12.3
"2021-10-30 08:00:00",1043,12.34
"2021-10-30 08:15:00",1044,12.39
"2021-10-30 08:30:00",1045,12.47
"2021-10-30 08:45:00",1046,12.6
"2021-10-30 09:00:00",1047,12.74
"2021-10-30 09:15:00",1048,12.93
"2021-10-30 09:30:00",1049,13.22
"2021-10-30 09:45:00",1050,13.42
"2021-10-30 10:00:00",1051,13.51
"2021-10-30 10:15:00",1052,13.62
"2021-10-30 10:30:00",1053,13.54
"2021-10-30 10:45:00",1054,13.71
"2021-10-30 11:00:00",1055,13.85
"2021-10-30 11:15:00",1056,13.81
"2021-10-30 11:30:00",1057,13.78
"2021-10-30 11:45:00",1058,13.75
"2021-10-30 12:00:00",1059,13.75
"2021-10-30 12:15:00",1060,13.75
"2021-10-30 12:30:00",1061,13.58
"2021-10-30 12:45:00",1062,13.75
"2021-10-30 13:00:00",1063,13.64
"2021-10-30 13:15:00",1064,13.58
"2021-10-30 13:30:00",1065,13.58
"2021-10-30 13:45:00",1066,13.68
"2021-10-30 14:00:00",1067,13.54
"2021-10-30 14:15:00",1068,13.82
"2021-10-30 14:30:00",1069,13.67
"2021-10-30 14:45:00",1070,13.82
"2021-10-30 15:00:00",1071,13.76
"2021-10-30 15:15:00",1072,13.76
"2021-10-30 15:30:00",1073,13.68
"2021-10-30 15:45:00",1074,13.61
"2021-10-30 16:00:00",1075,13.56
"2021-10-30 16:15:00",1076,13.54
"2021-10-30 16:30:00",1077,13.62
"2021-10-30 16:45:00",1078,13.66
"2021-10-30 17:00:00",1079,13.67
"2021-10-30 17:15:00",1080,13.57
"2021-10-30 17:30:00",1081,13.42
"2021-10-30 17:45:00",1082,13.47
"2021-10-30 18:00:00",1083,13.28
"2021-10-30 18:15:00",1084,13.08
"2021-10-30 18:30:00",1085,13
"2021-10-30 18:45:00",1086,12.95
"2021-10-30 19:00:00",1087,12.9
"2021-10-30 19:15:00",1088,12.87
"2021-10-30 19:30:00",1089,12.84
"2021-10-30 19:45:00",1090,12.82
"2021-10-30 20:00:00",1091,12.8
"2021-10-30 20:15:00",1092,12.77
"2021-10-30 20:30:00",1093,12.76
"2021-10-30 20:45:00",1094,12.74
"2021-10-30 21:00:00",1095,12.72
"2021-10-30 21:15:00",1096,12.71
"2021-10-30 21:30:00",1097,12.69
"2021-10-30 21:45:00",1098,12.68
"2021-10-30 22:00:00",1099,12.67
"2021-10-30 22:15:00",1100,12.65
"2021-10-30 22:30:00",1101,12.64
"2021-10-30 22:45:00",1102,12.63
"2021-10-30 23:00:00",1103,12.62
"2021-10-30 23:15:00",1104,12.61
"2021-10-30 23:30:00",1105,12.6
"2021-10-30 23:45:00",1106,12.59
"2021-10-31 00:00:00",1107,12.58
"2021-10-31 00:15:00",1108,12.57
"2021-10-31 00:30:00",1109,12.56
"2021-10-31 00:45:00",1110,12.55
"2021-10-31 01:00:00",1111,12.54
"2021-10-31 01:15:00",1112,12.54
"2021-10-31 01:30:00",1113,12.53
"2021-10-31 01:45:00",1114,12.52
"2021-10-31 02:00:00",1115,12.51
"2021-10-31 02:15:00",1116,12.51
"2021-10-31 02:30:00",1117,12.5
"2021-10-31 02:45:00",1118,12.49
"2021-10-31 03:00:00",1119,12.49
"2021-10-31 03:15:00",1120,12.48
"2021-10-31 03:30:00",1121,12.47
"2021-10-31 03:45:00",1122,12.46
"2021-10-31 04:00:00",1123,12.46
"2021-10-31 04:15:00",1124,12.45
"2021-10-31 04:30:00",1125,12.44
"2021-10-31 04:45:00",1126,12.44
"2021-10-31 05:00:00",1127,12.43
"2021-10-31 05:15:00",1128,12.43
"2021-10-31 05:30:00",1129,12.42
"2021-10-31 05:45:00",1130,12.42
"2021-10-31 06:00:00",1131,12.41
"2021-10-31 06:15:00",1132,12.41
"2021-10-31 06:30:00",1133,12.4
"2021-10-31 06:45:00",1134,12.39
"2021-10-31 07:00:00",1135,12.39
"2021-10-31 07:15:00",1136,12.38
"2021-10-31 07:30:00",1137,12.38
"2021-10-31 07:45:00",1138,12.42
"2021-10-31 08:00:00",1139,12.49
"2021-10-31 08:15:00",1140,12.74
"2021-10-31 08:30:00",1141,14.03
"2021-10-31 08:45:00",1142,13.84
"2021-10-31 09:00:00",1143,13.78
"2021-10-31 09:15:00",1144,13.7
"2021-10-31 09:30:00",1145,13.64
"2021-10-31 09:45:00",1146,13.58
"2021-10-31 10:00:00",1147,13.49
"2021-10-31 10:15:00",1148,13.44
"2021-10-31 10:30:00",1149,13.36
"2021-10-31 10:45:00",1150,13.31
"2021-10-31 11:00:00",1151,13.28
"2021-10-31 11:15:00",1152,13.25
"2021-10-31 11:30:00",1153,13.22
"2021-10-31 11:45:00",1154,13.22
"2021-10-31 12:00:00",1155,13.2
"2021-10-31 12:15:00",1156,13.19
"2021-10-31 12:30:00",1157,13.16
"2021-10-31 12:45:00",1158,13.14
"2021-10-31 13:00:00",1159,13.14
"2021-10-31 13:15:00",1160,13.14
"2021-10-31 13:30:00",1161,13.14
"2021-10-31 13:45:00",1162,13.22
"2021-10-31 14:00:00",1163,13.25
"2021-10-31 14:15:00",1164,13.22
"2021-10-31 14:30:00",1165,13.31
"2021-10-31 14:45:00",1166,13.38
"2021-10-31 15:00:00",1167,13.38
"2021-10-31 15:15:00",1168,13.38
"2021-10-31 15:30:00",1169,13.35
"2021-10-31 15:45:00",1170,13.3
"2021-10-31 16:00:00",1171,13.24
"2021-10-31 16:15:00",1172,13.19
"2021-10-31 16:30:00",1173,13.17
"2021-10-31 16:45:00",1174,13.14
"2021-10-31 17:00:00",1175,13.16
"2021-10-31 17:15:00",1176,13.19
"2021-10-31 17:30:00",1177,13.11
"2021-10-31 17:45:00",1178,13.06
"2021-10-31 18:00:00",1179,12.96
"2021-10-31 18:15:00",1180,12.9
"2021-10-31 18:30:00",1181,12.82
"2021-10-31 18:45:00",1182,12.78
"2021-10-31 19:00:00",1183,12.74
"2021-10-31 19:15:00",1184,12.71
"2021-10-31 19:30:00",1185,12.69
"2021-10-31 19:45:00",1186,12.67
"2021-10-31 20:00:00",1187,12.65
"2021-10-31 20:15:00",1188,12.63
"2021-10-31 20:30:00",1189,12.62
"2021-10-31 20:45:00",1190,12.6
"2021-10-31 21:00:00",1191,12.59
"2021-10-31 21:15:00",1192,12.58
"2021-10-31 21:30:00",1193,12.57
"2021-10-31 21:45:00",1194,12.56
"2021-10-31 22:00:00",1195,12.54
"2021-10-31 22:15:00",1196,12.54
"2021-10-31 22:30:00",1197,12.53
"2021-10-31 22:45:00",1198,12.52
"2021-10-31 23:00:00",1199,12.51
"2021-10-31 23:15:00",1200,12.5
"2021-10-31 23:30:00",1201,12.49
"2021-10-31 23:45:00",1202,12.49
"2021-11-01 00:00:00",1203,12.48
"2021-11-01 00:15:00",1204,12.47
"2021-11-01 00:30:00",1205,12.46
"2021-11-01 00:45:00",1206,12.46
"2021-11-01 01:00:00",1207,12.45
"2021-11-01 01:15:00",1208,12.44
"2021-11-01 01:30:00",1209,12.44
"2021-11-01 01:45:00",1210,12.43
"2021-11-01 02:00:00",1211,12.43
"2021-11-01 02:15:00",1212,12.42
"2021-11-01 02:30:00",1213,12.41
"2021-11-01 02:45:00",1214,12.41
"2021-11-01 03:00:00",1215,12.4
"2021-11-01 03:15:00",1216,12.4
"2021-11-01 03:30:00",1217,12.39
"2021-11-01 03:45:00",1218,12.39
"2021-11-01 04:00:00",1219,12.38
"2021-11-01 04:15:00",1220,12.37
"2021-11-01 04:30:00",1221,12.37
"2021-11-01 04:45:00",1222,12.37
"2021-11-01 05:00:00",1223,12.36
"2021-11-01 05:15:00",1224,12.36
"2021-11-01 05:30:00",1225,12.35
"2021-11-01 05:45:00",1226,12.35
"2021-11-01 06:00:00",1227,12.34
"2021-11-01 06:15:00",1228,12.34
"2021-11-01 06:30:00",1229,12.33
"2021-11-01 06:45:00",1230,12.33
"2021-11-01 07:00:00",1231,12.33
"2021-11-01 07:15:00",1232,12.32
"2021-11-01 07:30:00",1233,12.32
"2021-11-01 07:45:00",1234,12.37
"2021-11-01 08:00:00",1235,12.44
"2021-11-01 08:15:00",1236,12.69
"2021-11-01 08:30:00",1237,14.02
"2021-11-01 08:45:00",1238,13.97
"2021-11-01 09:00:00",1239,13.89
"2021-11-01 09:15:00",1240,13.82
"2021-11-01 09:30:00",1241,13.72
"2021-11-01 09:45:00",1242,13.61
"2021-11-01 10:00:00",1243,13.52
"2021-11-01 10:15:00",1244,13.43
"2021-11-01 10:30:00",1245,13.36
"2021-11-01 10:45:00",1246,13.31
"2021-11-01 11:00:00",1247,13.28
"2021-11-01 11:15:00",1248,13.25
"2021-11-01 11:30:00",1249,13.3
"2021-11-01 11:45:00",1250,13.36
"2021-11-01 12:00:00",1251,13.36
"2021-11-01 12:15:00",1252,13.33
"2021-11-01 12:30:00",1253,13.33
"2021-11-01 12:45:00",1254,13.3
"2021-11-01 13:00:00",1255,13.33
"2021-11-01 13:15:00",1256,13.28
"2021-11-01 13:30:00",1257,13.17
"2021-11-01 13:45:00",1258,13.11
"2021-11-01 14:00:00",1259,13.09
"2021-11-01 14:15:00",1260,13.06
"2021-11-01 14:30:00",1261,13.19
"2021-11-01 14:45:00",1262,13.3
"2021-11-01 15:00:00",1263,13.36
"2021-11-01 15:15:00",1264,13.38
"2021-11-01 15:30:00",1265,13.27
"2021-11-01 15:45:00",1266,13.27
"2021-11-01 16:00:00",1267,13.19
"2021-11-01 16:15:00",1268,13.14
"2021-11-01 16:30:00",1269,13.11
"2021-11-01 16:45:00",1270,13.13
"2021-11-01 17:00:00",1271,13.17
"2021-11-01 17:15:00",1272,13.19
"2021-11-01 17:30:00",1273,13.14
"2021-11-01 17:45:00",1274,13.11
"2021-11-01 18:00:00",1275,13.02
"2021-11-01 18:15:00",1276,12.93
"2021-11-01 18:30:00",1277,12.85
"2021-11-01 18:45:00",1278,12.81
"2021-11-01 19:00:00",1279,12.77
"2021-11-01 19:15:00",1280,12.74
"2021-11-01 19:30:00",1281,12.72
"2021-11-01 19:45:00",1282,12.7
"2021-11-01 20:00:00",1283,12.68
"2021-11-01 20:15:00",1284,12.66
"2021-11-01 20:30:00",1285,12.65
"2021-11-01 20:45:00",1286,12.63
"2021-11-01 21:00:00",1287,12.62
"2021-11-01 21:15:00",1288,12.6
"2021-11-01 21:30:00",1289,12.59
"2021-11-01 21:45:00",1290,12.58
"2021-11-01 22:00:00",1291,12.57
"2021-11-01 22:15:00",1292,12.56
"2021-11-01 22:30:00",1293,12.55
"2021-11-01 22:45:00",1294,12.54
"2021-11-01 23:00:00",1295,12.54
"2021-11-01 23:15:00",1296,12.53
"2021-11-01 23:30:00",1297,12.52
"2021-11-01 23:45:00",1298,12.51
"2021-11-02 00:00:00",1299,12.5
"2021-11-02 00:15:00",1300,12.5
"2021-11-02 00:30:00",1301,12.49
"2021-11-02 00:45:00",1302,12.48
"2021-11-02 01:00:00",1303,12.47
"2021-11-02 01:15:00",1304,12.47
"2021-11-02 01:30:00",1305,12.46
"2021-11-02 01:45:00",1306,12.45
"2021-11-02 02:00:00",1307,12.45
"2021-11-02 02:15:00",1308,12.44
"2021-11-02 02:30:00",1309,12.43
"2021-11-02 02:45:00",1310,12.43
"2021-11-02 03:00:00",1311,12.42
"2021-11-02 03:15:00",1312,12.42
"2021-11-02 03:30:00",1313,12.41
"2021-11-02 03:45:00",1314,12.41
"2021-11-02 04:00:00",1315,12.4
"2021-11-02 04:15:00",1316,12.4
"2021-11-02 04:30:00",1317,12.39
"2021-11-02 04:45:00",1318,12.38
"2021-11-02 05:00:00",1319,12.38
"2021-11-02 05:15:00",1320,12.37
"2021-11-02 05:30:00",1321,12.36
"2021-11-02 05:45:00",1322,12.36
"2021-11-02 06:00:00",1323,12.35
"2021-11-02 06:15:00",1324,12.35
"2021-11-02 06:30:00",1325,12.35
"2021-11-02 06:45:00",1326,12.34
"2021-11-02 07:00:00",1327,12.34
"2021-11-02 07:15:00",1328,12.33
"2021-11-02 07:30:00",1329,12.33
"2021-11-02 07:45:00",1330,12.37
"2021-11-02 08:00:00",1331,12.43
"2021-11-02 08:15:00",1332,12.42
"2021-11-02 08:30:00",1333,12.46
"2021-11-02 08:45:00",1334,12.51
"2021-11-02 09:00:00",1335,12.61
"2021-11-02 09:15:00",1336,12.61
"2021-11-02 09:30:00",1337,12.7
"2021-11-02 09:45:00",1338,12.77
"2021-11-02 10:00:00",1339,12.88
"2021-11-02 10:15:00",1340,13.07
"2021-11-02 10:30:00",1341,13.23
"2021-11-02 10:45:00",1342,13.43
"2021-11-02 11:00:00",1343,13.46
"2021-11-02 11:15:00",1344,13.59
"2021-11-02 11:30:00",1345,13.7
"2021-11-02 11:45:00",1346,13.5
"2021-11-02 12:00:00",1347,13.72
"2021-11-02 12:15:00",1348,13.56
"2021-11-02 12:30:00",1349,13.68
"2021-11-02 12:45:00",1350,13.58
"2021-11-02 13:00:00",1351,13.57
"2021-11-02 13:15:00",1352,13.79
"2021-11-02 13:30:00",1353,13.6
"2021-11-02 13:45:00",1354,13.77
"2021-11-02 14:00:00",1355,13.95
"2021-11-02 14:15:00",1356,13.78
"2021-11-02 14:30:00",1357,13.6
"2021-11-02 14:45:00",1358,13.66
"2021-11-02 15:00:00",1359,13.46
"2021-11-02 15:15:00",1360,13.54
"2021-11-02 15:30:00",1361,13.56
"2021-11-02 15:45:00",1362,13.55
"2021-11-02 16:00:00",1363,13.53
"2021-11-02 16:15:00",1364,13.51
"2021-11-02 16:30:00",1365,13.4
"2021-11-02 16:45:00",1366,13.32
"2021-11-02 17:00:00",1367,13.24
"2021-11-02 17:15:00",1368,13.15
"2021-11-02 17:30:00",1369,13.09
"2021-11-02 17:45:00",1370,13.04
"2021-11-02 18:00:00",1371,13
"2021-11-02 18:15:00",1372,12.96
"2021-11-02 18:30:00",1373,12.93
"2021-11-02 18:45:00",1374,12.91
"2021-11-02 19:00:00",1375,12.88
"2021-11-02 19:15:00",1376,12.86
"2021-11-02 19:30:00",1377,12.84
"2021-11-02 19:45:00",1378,12.82
"2021-11-02 20:00:00",1379,12.8
"2021-11-02 20:15:00",1380,12.79
"2021-11-02 20:30:00",1381,12.77
"2021-11-02 20:45:00",1382,12.76
"2021-11-02 21:00:00",1383,12.75
"2021-11-02 21:15:00",1384,12.73
"2021-11-02 21:30:00",1385,12.72
"2021-11-02 21:45:00",1386,12.71
"2021-11-02 22:00:00",1387,12.7
"2021-11-02 22:15:00",1388,12.68
"2021-11-02 22:30:00",1389,12.67
"2021-11-02 22:45:00",1390,12.66
"2021-11-02 23:00:00",1391,12.65
"2021-11-02 23:15:00",1392,12.64
"2021-11-02 23:30:00",1393,12.63
"2021-11-02 23:45:00",1394,12.62
"2021-11-03 00:00:00",1395,12.62
"2021-11-03 00:15:00",1396,12.6
"2021-11-03 00:30:00",1397,12.6
"2021-11-03 00:45:00",1398,12.59
"2021-11-03 01:00:00",1399,12.58
"2021-11-03 01:15:00",1400,12.57
"2021-11-03 01:30:00",1401,12.57
"2021-11-03 01:45:00",1402,12.56
"2021-11-03 02:00:00",1403,12.55
"2021-11-03 02:15:00",1404,12.54
"2021-11-03 02:30:00",1405,12.53
"2021-11-03 02:45:00",1406,12.52
"2021-11-03 03:00:00",1407,12.52
"2021-11-03 03:15:00",1408,12.51
"2021-11-03 03:30:00",1409,12.5
"2021-11-03 03:45:00",1410,12.5
"2021-11-03 04:00:00",1411,12.49
"2021-11-03 04:15:00",1412,12.49
"2021-11-03 04:30:00",1413,12.48
"2021-11-03 04:45:00",1414,12.47
"2021-11-03 05:00:00",1415,12.47
"2021-11-03 05:15:00",1416,12.46
"2021-11-03 05:30:00",1417,12.45
"2021-11-03 05:45:00",1418,12.45
"2021-11-03 06:00:00",1419,12.44
"2021-11-03 06:15:00",1420,12.44
"2021-11-03 06:30:00",1421,12.43
"2021-11-03 06:45:00",1422,12.42
"2021-11-03 07:00:00",1423,12.42
"2021-11-03 07:15:00",1424,12.41
"2021-11-03 07:30:00",1425,12.41
"2021-11-03 07:45:00",1426,12.41
"2021-11-03 08:00:00",1427,12.47
"2021-11-03 08:15:00",1428,12.63
"2021-11-03 08:30:00",1429,12.97
"2021-11-03 08:45:00",1430,14.07
"2021-11-03 09:00:00",1431,14.28
"2021-11-03 09:15:00",1432,14.03
"2021-11-03 09:30:00",1433,14.05
"2021-11-03 09:45:00",1434,13.9
"2021-11-03 10:00:00",1435,13.79
"2021-11-03 10:15:00",1436,13.67
"2021-11-03 10:30:00",1437,13.61
"2021-11-03 10:45:00",1438,13.55
"2021-11-03 11:00:00",1439,13.52
"2021-11-03 11:15:00",1440,13.5
"2021-11-03 11:30:00",1441,13.47
"2021-11-03 11:45:00",1442,13.46
"2021-11-03 12:00:00",1443,13.44
"2021-11-03 12:15:00",1444,13.42
"2021-11-03 12:30:00",1445,13.39
"2021-11-03 12:45:00",1446,13.36
"2021-11-03 13:00:00",1447,13.36
"2021-11-03 13:15:00",1448,13.36
"2021-11-03 13:30:00",1449,13.36
"2021-11-03 13:45:00",1450,13.36
"2021-11-03 14:00:00",1451,13.36
"2021-11-03 14:15:00",1452,13.36
"2021-11-03 14:30:00",1453,13.36
"2021-11-03 14:45:00",1454,13.36
"2021-11-03 15:00:00",1455,13.36
"2021-11-03 15:15:00",1456,13.36
"2021-11-03 15:30:00",1457,13.36
"2021-11-03 15:45:00",1458,13.33
"2021-11-03 16:00:00",1459,13.33
"2021-11-03 16:15:00",1460,13.3
"2021-11-03 16:30:00",1461,13.39
"2021-11-03 16:45:00",1462,13.52
"2021-11-03 17:00:00",1463,13.63
"2021-11-03 17:15:00",1464,13.52
"2021-11-03 17:30:00",1465,13.38
"2021-11-03 17:45:00",1466,13.25
"2021-11-03 18:00:00",1467,13.11
"2021-11-03 18:15:00",1468,12.99
"2021-11-03 18:30:00",1469,12.94
"2021-11-03 18:45:00",1470,12.9
"2021-11-03 19:00:00",1471,12.86
"2021-11-03 19:15:00",1472,12.83
"2021-11-03 19:30:00",1473,12.81
"2021-11-03 19:45:00",1474,12.78
"2021-11-03 20:00:00",1475,12.77
"2021-11-03 20:15:00",1476,12.75
"2021-11-03 20:30:00",1477,12.73
"2021-11-03 20:45:00",1478,12.72
"2021-11-03 21:00:00",1479,12.7
"2021-11-03 21:15:00",1480,12.69
"2021-11-03 21:30:00",1481,12.68
"2021-11-03 21:45:00",1482,12.66
"2021-11-03 22:00:00",1483,12.65
"2021-11-03 22:15:00",1484,12.64
"2021-11-03 22:30:00",1485,12.63
"2021-11-03 22:45:00",1486,12.62
"2021-11-03 23:00:00",1487,12.61
"2021-11-03 23:15:00",1488,12.6
"2021-11-03 23:30:00",1489,12.59
"2021-11-03 23:45:00",1490,12.58
"2021-11-04 00:00:00",1491,12.57
"2021-11-04 00:15:00",1492,12.56
"2021-11-04 00:30:00",1493,12.56
"2021-11-04 00:45:00",1494,12.55
"2021-11-04 01:00:00",1495,12.54
"2021-11-04 01:15:00",1496,12.53
"2021-11-04 01:30:00",1497,12.53
"2021-11-04 01:45:00",1498,12.52
"2021-11-04 02:00:00",1499,12.51
"2021-11-04 02:15:00",1500,12.5
"2021-11-04 02:30:00",1501,12.5
"2021-11-04 02:45:00",1502,12.49
"2021-11-04 03:00:00",1503,12.48
"2021-11-04 03:15:00",1504,12.48
"2021-11-04 03:30:00",1505,12.47
"2021-11-04 03:45:00",1506,12.46
"2021-11-04 04:00:00",1507,12.46
"2021-11-04 04:15:00",1508,12.45
"2021-11-04 04:30:00",1509,12.45
"2021-11-04 04:45:00",1510,12.44
"2021-11-04 05:00:00",1511,12.44
"2021-11-04 05:15:00",1512,12.43
"2021-11-04 05:30:00",1513,12.42
"2021-11-04 05:45:00",1514,12.42
"2021-11-04 06:00:00",1515,12.41
"2021-11-04 06:15:00",1516,12.41
"2021-11-04 06:30:00",1517,12.4
"2021-11-04 06:45:00",1518,12.4
"2021-11-04 07:00:00",1519,12.39
"2021-11-04 07:15:00",1520,12.39
"2021-11-04 07:30:00",1521,12.38
"2021-11-04 07:45:00",1522,12.38
"2021-11-04 08:00:00",1523,12.45
"2021-11-04 08:15:00",1524,12.62
"2021-11-04 08:30:00",1525,12.94
"2021-11-04 08:45:00",1526,13.39
"2021-11-04 09:00:00",1527,13.7
"2021-11-04 09:15:00",1528,13.95
"2021-11-04 09:30:00",1529,14.19
"2021-11-04 09:45:00",1530,14.13
"2021-11-04 10:00:00",1531,14.09
"2021-11-04 10:15:00",1532,14.04
"2021-11-04 10:30:00",1533,13.99
"2021-11-04 10:45:00",1534,13.98
"2021-11-04 11:00:00",1535,13.95
"2021-11-04 11:15:00",1536,13.92
"2021-11-04 11:30:00",1537,13.92
"2021-11-04 11:45:00",1538,13.89
"2021-11-04 12:00:00",1539,13.89
"2021-11-04 12:15:00",1540,13.89
"2021-11-04 12:30:00",1541,13.89
"2021-11-04 12:45:00",1542,13.92
"2021-11-04 13:00:00",1543,13.92
"2021-11-04 13:15:00",1544,13.92
"2021-11-04 13:30:00",1545,13.92
"2021-11-04 13:45:00",1546,13.92
"2021-11-04 14:00:00",1547,13.89
"2021-11-04 14:15:00",1548,13.92
"2021-11-04 14:30:00",1549,13.92
"2021-11-04 14:45:00",1550,13.92
"2021-11-04 15:00:00",1551,13.92
"2021-11-04 15:15:00",1552,13.89
"2021-11-04 15:30:00",1553,13.89
"2021-11-04 15:45:00",1554,13.84
"2021-11-04 16:00:00",1555,13.78
"2021-11-04 16:15:00",1556,13.69
"2021-11-04 16:30:00",1557,13.6
"2021-11-04 16:45:00",1558,13.49
"2021-11-04 17:00:00",1559,13.52
"2021-11-04 17:15:00",1560,13.55
"2021-11-04 17:30:00",1561,13.3
"2021-11-04 17:45:00",1562,13.3
"2021-11-04 18:00:00",1563,13.2
"2021-11-04 18:15:00",1564,13.1
"2021-11-04 18:30:00",1565,13.04
"2021-11-04 18:45:00",1566,12.99
"2021-11-04 19:00:00",1567,12.96
"2021-11-04 19:15:00",1568,12.93
"2021-11-04 19:30:00",1569,12.91
"2021-11-04 19:45:00",1570,12.88
"2021-11-04 20:00:00",1571,12.86
"2021-11-04 20:15:00",1572,12.84
"2021-11-04 20:30:00",1573,12.83
"2021-11-04 20:45:00",1574,12.81
"2021-11-04 21:00:00",1575,12.8
"2021-11-04 21:15:00",1576,12.78
"2021-11-04 21:30:00",1577,12.77
"2021-11-04 21:45:00",1578,12.75
"2021-11-04 22:00:00",1579,12.74
"2021-11-04 22:15:00",1580,12.73
"2021-11-04 22:30:00",1581,12.72
"2021-11-04 22:45:00",1582,12.71
"2021-11-04 23:00:00",1583,12.7
"2021-11-04 23:15:00",1584,12.69
"2021-11-04 23:30:00",1585,12.68
"2021-11-04 23:45:00",1586,12.67
"2021-11-05 00:00:00",1587,12.66
"2021-11-05 00:15:00",1588,12.65
"2021-11-05 00:30:00",1589,12.64
"2021-11-05 00:45:00",1590,12.63
"2021-11-05 01:00:00",1591,12.62
"2021-11-05 01:15:00",1592,12.61
"2021-11-05 01:30:00",1593,12.6
"2021-11-05 01:45:00",1594,12.59
"2021-11-05 02:00:00",1595,12.58
"2021-11-05 02:15:00",1596,12.57
"2021-11-05 02:30:00",1597,12.57
"2021-11-05 02:45:00",1598,12.56
"2021-11-05 03:00:00",1599,12.55
"2021-11-05 03:15:00",1600,12.54
"2021-11-05 03:30:00",1601,12.54
"2021-11-05 03:45:00",1602,12.53
"2021-11-05 04:00:00",1603,12.52
"2021-11-05 04:15:00",1604,12.51
"2021-11-05 04:30:00",1605,12.51
"2021-11-05 04:45:00",1606,12.5
"2021-11-05 05:00:00",1607,12.49
"2021-11-05 05:15:00",1608,12.48
"2021-11-05 05:30:00",1609,12.48
"2021-11-05 05:45:00",1610,12.47
"2021-11-05 06:00:00",1611,12.47
"2021-11-05 06:15:00",1612,12.46
"2021-11-05 06:30:00",1613,12.45
"2021-11-05 06:45:00",1614,12.45
"2021-11-05 07:00:00",1615,12.44
"2021-11-05 07:15:00",1616,12.43
"2021-11-05 07:30:00",1617,12.43
"2021-11-05 07:45:00",1618,12.44
"2021-11-05 08:00:00",1619,12.52
"2021-11-05 08:15:00",1620,12.73
"2021-11-05 08:30:00",1621,13.3
"2021-11-05 08:45:00",1622,14.39
"2021-11-05 09:00:00",1623,14.28
"2021-11-05 09:15:00",1624,14.15
"2021-11-05 09:30:00",1625,14.05
"2021-11-05 09:45:00",1626,13.93
"2021-11-05 10:00:00",1627,13.85
"2021-11-05 10:15:00",1628,13.76
"2021-11-05 10:30:00",1629,13.73
"2021-11-05 10:45:00",1630,13.67
"2021-11-05 11:00:00",1631,13.61
"2021-11-05 11:15:00",1632,13.52
"2021-11-05 11:30:00",1633,13.52
"2021-11-05 11:45:00",1634,13.52
"2021-11-05 12:00:00",1635,13.49
"2021-11-05 12:15:00",1636,13.46
"2021-11-05 12:30:00",1637,13.47
"2021-11-05 12:45:00",1638,13.47
"2021-11-05 13:00:00",1639,13.44
"2021-11-05 13:15:00",1640,13.47
