1,11/03/21 02:30:00 PM,165.3,161.1,12.50,Logged,,,,
2,11/03/21 02:45:00 PM,163.6,159.7,12.06,,,,,
3,11/03/21 03:00:00 PM,163.9,159.7,12.03,,,,,
4,11/03/21 03:15:00 PM,164.0,160.1,11.96,,,,,
5,11/03/21 03:30:00 PM,163.8,159.7,11.88,,,,,
6,11/03/21 03:45:00 PM,163.8,160.1,11.85,,,,,
7,11/03/21 04:00:00 PM,161.8,157.5,12.09,,,,,
8,11/03/21 04:15:00 PM,161.2,157.1,12.03,,,,,
9,11/03/21 04:30:00 PM,160.9,157.1,12.03,,,,,
10,11/03/21 04:45:00 PM,160.8,156.7,12.03,,,,,
11,11/03/21 05:00:00 PM,161.2,157.1,12.03,,,,,
12,11/03/21 05:15:00 PM,161.9,157.8,12.05,,,,,
13,11/03/21 05:30:00 PM,162.1,157.8,12.05,,,,,
14,11/03/21 05:45:00 PM,162.3,158.6,12.03,,,,,
15,11/03/21 06:00:00 PM,163.8,159.7,12.06,,,,,
16,11/03/21 06:15:00 PM,162.5,158.6,11.96,,,,,
17,11/03/21 06:30:00 PM,162.1,157.9,11.89,,,,,
18,11/03/21 06:45:00 PM,161.8,157.5,11.87,,,,,
19,11/03/21 07:00:00 PM,162.1,157.9,11.87,,,,,
20,11/03/21 07:15:00 PM,162.1,158.3,11.83,,,,,
21,11/03/21 07:30:00 PM,162.7,158.6,11.85,,,,,
22,11/03/21 07:45:00 PM,162.6,158.6,11.83,,,,,
23,11/03/21 08:00:00 PM,162.4,158.6,11.77,,,,,
24,11/03/21 08:15:00 PM,162.4,158.6,11.75,,,,,
25,11/03/21 08:30:00 PM,162.7,158.6,11.75,,,,,
26,11/03/21 08:45:00 PM,163.1,159.0,11.76,,,,,
27,11/03/21 09:00:00 PM,162.8,158.6,11.70,,,,,
28,11/03/21 09:15:00 PM,163.0,159.4,11.70,,,,,
29,11/03/21 09:30:00 PM,163.0,159.0,11.70,,,,,
30,11/03/21 09:45:00 PM,163.1,159.0,11.68,,,,,
31,11/03/21 10:00:00 PM,163.3,159.4,11.66,,,,,
32,11/03/21 10:15:00 PM,163.2,159.0,11.61,,,,,
33,11/03/21 10:30:00 PM,163.2,159.4,11.59,,,,,
34,11/03/21 10:45:00 PM,163.2,159.4,11.58,,,,,
35,11/03/21 11:00:00 PM,163.4,159.4,11.57,,,,,
36,11/03/21 11:15:00 PM,163.5,159.8,11.54,,,,,
37,11/03/21 11:30:00 PM,163.4,159.4,11.53,,,,,
38,11/03/21 11:45:00 PM,163.4,159.4,11.47,,,,,
39,11/04/21 12:00:00 AM,163.4,159.4,11.42,,,,,
40,11/04/21 12:15:00 AM,163.6,159.4,11.42,,,,,
41,11/04/21 12:30:00 AM,164.0,160.2,11.40,,,,,
42,11/04/21 12:45:00 AM,164.0,159.8,11.37,,,,,
43,11/04/21 01:00:00 AM,164.0,160.2,11.36,,,,,
44,11/04/21 01:15:00 AM,164.3,160.2,11.35,,,,,
45,11/04/21 01:30:00 AM,164.4,160.6,11.35,,,,,
46,11/04/21 01:45:00 AM,165.1,161.3,11.36,,,,,
47,11/04/21 02:00:00 AM,164.9,161.0,11.27,,,,,
48,11/04/21 02:15:00 AM,165.1,161.3,11.24,,,,,
49,11/04/21 02:30:00 AM,165.3,161.0,11.25,,,,,
50,11/04/21 02:45:00 AM,165.8,161.7,11.26,,,,,
51,11/04/21 03:00:00 AM,166.1,161.7,11.26,,,,,
52,11/04/21 03:15:00 AM,166.0,161.7,11.20,,,,,
53,11/04/21 03:30:00 AM,166.2,162.1,11.19,,,,,
54,11/04/21 03:45:00 AM,166.6,162.8,11.18,,,,,
55,11/04/21 04:00:00 AM,166.7,162.8,11.15,,,,,
56,11/04/21 04:15:00 AM,166.8,162.9,11.12,,,,,
57,11/04/21 04:30:00 AM,167.1,163.2,11.07,,,,,
58,11/04/21 04:45:00 AM,167.5,163.2,11.08,,,,,
59,11/04/21 05:00:00 AM,167.2,163.2,11.03,,,,,
60,11/04/21 05:15:00 AM,167.2,163.2,10.99,,,,,
61,11/04/21 05:30:00 AM,167.5,163.6,10.99,,,,,
62,11/04/21 05:45:00 AM,167.2,163.6,10.93,,,,,
63,11/04/21 06:00:00 AM,167.3,163.3,10.87,,,,,
64,11/04/21 06:15:00 AM,167.5,163.3,10.86,,,,,
65,11/04/21 06:30:00 AM,167.6,163.6,10.85,,,,,
66,11/04/21 06:45:00 AM,167.7,163.6,10.85,,,,,
67,11/04/21 07:00:00 AM,167.7,163.7,10.81,,,,,
68,11/04/21 07:15:00 AM,167.7,163.7,10.79,,,,,
69,11/04/21 07:30:00 AM,167.8,163.7,10.74,,,,,
70,11/04/21 07:45:00 AM,168.2,164.0,10.74,,,,,
71,11/04/21 08:00:00 AM,167.8,163.7,10.67,,,,,
72,11/04/21 08:15:00 AM,167.8,163.7,10.64,,,,,
73,11/04/21 08:30:00 AM,167.8,163.7,10.62,,,,,
74,11/04/21 08:45:00 AM,167.8,163.7,10.57,,,,,
75,11/04/21 09:00:00 AM,168.3,164.4,10.60,,,,,
76,11/04/21 09:15:00 AM,169.7,165.5,10.64,,,,,
77,11/04/21 09:30:00 AM,169.2,165.2,10.57,,,,,
78,11/04/21 09:45:00 AM,169.6,165.9,10.60,,,,,
79,11/04/21 10:00:00 AM,169.7,165.9,10.58,,,,,
80,11/04/21 10:15:00 AM,169.9,165.9,10.62,,,,,
81,11/04/21 10:30:00 AM,171.1,167.0,10.67,,,,,
82,11/04/21 10:45:00 AM,172.5,168.5,10.71,,,,,
83,11/04/21 11:00:00 AM,171.8,168.2,10.68,,,,,
84,11/04/21 11:15:00 AM,171.7,168.1,10.71,,,,,
85,11/04/21 11:30:00 AM,172.4,168.5,10.77,,,,,
86,11/04/21 11:45:00 AM,172.7,168.9,10.80,,,,,
87,11/04/21 12:00:00 PM,173.1,169.2,10.84,,,,,
88,11/04/21 12:15:00 PM,173.3,169.6,10.88,,,,,
89,11/04/21 12:30:00 PM,173.8,170.0,10.96,,,,,
90,11/04/21 12:45:00 PM,174.8,171.1,11.02,,,,,
91,11/04/21 01:00:00 PM,175.2,171.5,11.05,,,,,
92,11/04/21 01:15:00 PM,174.2,170.3,11.14,,,,,
93,11/04/21 01:30:00 PM,173.5,169.6,11.07,,,,,
94,11/04/21 01:45:00 PM,173.4,169.6,11.13,,,,,
95,11/04/21 02:00:00 PM,173.3,169.6,11.15,,,,,
96,11/04/21 02:15:00 PM,172.6,168.4,11.19,,,,,
97,11/04/21 02:30:00 PM,172.2,168.4,11.20,,,,,
98,11/04/21 02:45:00 PM,172.4,168.4,11.23,,,,,
99,11/04/21 03:00:00 PM,172.8,168.8,11.25,,,,,
100,11/04/21 03:15:00 PM,173.6,169.9,11.29,,,,,
101,11/04/21 03:30:00 PM,174.5,170.7,11.32,,,,,
102,11/04/21 03:45:00 PM,174.7,171.4,11.32,,,,,
103,11/04/21 04:00:00 PM,175.8,172.1,11.33,,,,,
104,11/04/21 04:15:00 PM,176.3,172.5,11.35,,,,,
105,11/04/21 04:30:00 PM,177.0,173.3,11.31,,,,,
106,11/04/21 04:45:00 PM,177.4,173.6,11.30,,,,,
107,11/04/21 05:00:00 PM,177.9,174.0,11.29,,,,,
108,11/04/21 05:15:00 PM,178.4,174.8,11.31,,,,,
109,11/04/21 05:30:00 PM,178.0,174.0,11.21,,,,,
110,11/04/21 05:45:00 PM,178.1,174.4,11.23,,,,,
111,11/04/21 06:00:00 PM,178.6,174.8,11.24,,,,,
112,11/04/21 06:15:00 PM,178.5,174.4,11.20,,,,,
113,11/04/21 06:30:00 PM,177.9,174.0,11.15,,,,,
114,11/04/21 06:45:00 PM,176.8,172.9,11.09,,,,,
115,11/04/21 07:00:00 PM,175.7,172.2,11.03,,,,,
116,11/04/21 07:15:00 PM,174.7,170.7,10.95,,,,,
117,11/04/21 07:30:00 PM,173.9,170.4,10.91,,,,,
118,11/04/21 07:45:00 PM,172.4,168.5,10.87,,,,,
119,11/04/21 08:00:00 PM,171.9,168.1,10.79,,,,,
120,11/04/21 08:15:00 PM,171.0,167.0,10.73,,,,,
121,11/04/21 08:30:00 PM,170.5,166.3,10.69,,,,,
122,11/04/21 08:45:00 PM,170.0,165.9,10.60,,,,,
123,11/04/21 09:00:00 PM,169.7,165.6,10.57,,,,,
124,11/04/21 09:15:00 PM,169.5,165.6,10.54,,,,,
125,11/04/21 09:30:00 PM,169.3,165.2,10.48,,,,,
126,11/04/21 09:45:00 PM,169.1,165.2,10.43,,,,,
127,11/04/21 10:00:00 PM,169.0,165.2,10.36,,,,,
128,11/04/21 10:15:00 PM,168.7,164.5,10.30,,,,,
129,11/04/21 10:30:00 PM,168.4,164.1,10.26,,,,,
130,11/04/21 10:45:00 PM,168.3,164.5,10.24,,,,,
131,11/04/21 11:00:00 PM,168.0,163.8,10.12,,,,,
132,11/04/21 11:15:00 PM,167.8,163.8,10.08,,,,,
133,11/04/21 11:30:00 PM,167.5,163.4,10.06,,,,,
134,11/04/21 11:45:00 PM,167.4,163.4,9.96,,,,,
135,11/05/21 12:00:00 AM,167.2,163.4,9.92,,,,,
136,11/05/21 12:15:00 AM,166.8,162.7,9.83,,,,,
137,11/05/21 12:30:00 AM,166.8,162.7,9.79,,,,,
138,11/05/21 12:45:00 AM,166.3,162.4,9.67,,,,,
139,11/05/21 01:00:00 AM,166.0,162.0,9.62,,,,,
140,11/05/21 01:15:00 AM,165.7,162.0,9.53,,,,,
141,11/05/21 01:30:00 AM,166.3,162.0,9.56,,,,,
142,11/05/21 01:45:00 AM,165.8,162.0,9.49,,,,,
143,11/05/21 02:00:00 AM,165.5,161.7,9.39,,,,,
144,11/05/21 02:15:00 AM,165.7,162.0,9.39,,,,,
145,11/05/21 02:30:00 AM,165.8,162.0,9.39,,,,,
146,11/05/21 02:45:00 AM,165.9,162.0,9.36,,,,,
147,11/05/21 03:00:00 AM,166.0,162.0,9.33,,,,,
148,11/05/21 03:15:00 AM,166.6,162.8,9.22,,,,,
149,11/05/21 03:30:00 AM,166.2,162.1,9.19,,,,,
150,11/05/21 03:45:00 AM,166.5,162.4,9.13,,,,,
151,11/05/21 04:00:00 AM,166.3,162.1,9.07,,,,,
152,11/05/21 04:15:00 AM,166.4,162.5,9.05,,,,,
153,11/05/21 04:30:00 AM,166.4,162.5,8.97,,,,,
154,11/05/21 04:45:00 AM,166.4,162.5,8.94,,,,,
155,11/05/21 05:00:00 AM,166.2,162.1,8.86,,,,,
156,11/05/21 05:15:00 AM,166.2,162.1,8.84,,,,,
157,11/05/21 05:30:00 AM,165.8,162.1,8.78,,,,,
158,11/05/21 05:45:00 AM,165.5,161.8,8.72,,,,,
159,11/05/21 06:00:00 AM,165.2,161.0,8.63,,,,,
160,11/05/21 06:15:00 AM,165.1,160.7,8.61,,,,,
161,11/05/21 06:30:00 AM,164.9,160.7,8.56,,,,,
162,11/05/21 06:45:00 AM,164.7,160.7,8.51,,,,,
163,11/05/21 07:00:00 AM,164.5,160.3,8.46,,,,,
164,11/05/21 07:15:00 AM,164.2,160.3,8.40,,,,,
165,11/05/21 07:30:00 AM,164.1,160.0,8.37,,,,,
166,11/05/21 07:45:00 AM,163.8,159.6,8.29,,,,,
167,11/05/21 08:00:00 AM,163.6,159.2,8.23,,,,,
168,11/05/21 08:15:00 AM,163.5,159.2,8.20,,,,,
169,11/05/21 08:30:00 AM,163.1,159.2,8.15,,,,,
170,11/05/21 08:45:00 AM,163.1,159.3,8.11,,,,,
171,11/05/21 09:00:00 AM,163.1,159.3,8.05,,,,,
172,11/05/21 09:15:00 AM,163.7,159.6,8.06,,,,,
173,11/05/21 09:30:00 AM,163.8,159.6,8.06,,,,,
174,11/05/21 09:45:00 AM,163.2,158.9,7.94,,,,,
175,11/05/21 10:00:00 AM,163.5,159.6,8.01,,,,,
176,11/05/21 10:15:00 AM,163.7,159.6,8.00,,,,,
177,11/05/21 10:30:00 AM,164.3,160.4,8.04,,,,,
178,11/05/21 10:45:00 AM,164.6,160.8,8.04,,,,,
179,11/05/21 11:00:00 AM,165.3,161.1,8.07,,,,,
180,11/05/21 11:15:00 AM,165.5,161.5,8.11,,,,,
181,11/05/21 11:30:00 AM,167.3,163.4,8.22,,,,,
182,11/05/21 11:45:00 AM,167.8,163.3,8.27,,,,,
183,11/05/21 12:00:00 PM,168.4,164.1,8.37,,,,,
184,11/05/21 12:15:00 PM,170.0,165.9,8.50,,,,,
185,11/05/21 12:30:00 PM,169.3,165.5,8.76,,,,,
186,11/05/21 12:45:00 PM,169.1,165.1,8.94,,,,,
187,11/05/21 01:00:00 PM,170.7,166.6,9.02,,,,,
188,11/05/21 01:15:00 PM,171.1,167.3,9.16,,,,,
189,11/05/21 01:30:00 PM,172.2,168.4,9.23,,,,,
190,11/05/21 01:45:00 PM,173.5,169.9,9.36,,,,,
191,11/05/21 02:00:00 PM,173.7,169.9,9.44,,,,,
192,11/05/21 02:15:00 PM,172.3,168.4,9.46,,,,,
193,11/05/21 02:30:00 PM,173.2,169.5,9.49,,,,,
194,11/05/21 02:45:00 PM,174.5,171.0,9.58,,,,,
195,11/05/21 03:00:00 PM,175.0,171.7,9.63,,,,,
196,11/05/21 03:15:00 PM,176.0,172.4,9.86,,,,,
197,11/05/21 03:30:00 PM,175.6,171.7,9.94,,,,,
198,11/05/21 03:45:00 PM,176.1,172.4,10.03,,,,,
199,11/05/21 04:00:00 PM,176.9,172.8,10.06,,,,,
200,11/05/21 04:15:00 PM,176.9,173.1,9.97,,,,,
201,11/05/21 04:30:00 PM,177.8,174.3,9.95,,,,,
202,11/05/21 04:45:00 PM,177.8,173.9,9.94,,,,,
203,11/05/21 05:00:00 PM,176.6,172.8,9.96,,,,,
204,11/05/21 05:15:00 PM,176.5,172.8,9.96,,,,,
205,11/05/21 05:30:00 PM,176.4,172.8,9.92,,,,,
206,11/05/21 05:45:00 PM,177.8,174.3,9.94,,,,,
207,11/05/21 06:00:00 PM,178.7,175.4,9.91,,,,,
208,11/05/21 06:15:00 PM,178.1,174.3,9.84,,,,,
209,11/05/21 06:30:00 PM,178.0,173.9,9.79,,,,,
210,11/05/21 06:45:00 PM,177.8,173.9,9.74,,,,,
211,11/05/21 07:00:00 PM,178.0,173.9,9.73,,,,,
212,11/05/21 07:15:00 PM,178.0,173.9,9.69,,,,,
213,11/05/21 07:30:00 PM,177.9,173.9,9.67,,,,,
214,11/05/21 07:45:00 PM,178.1,174.0,9.63,,,,,
215,11/05/21 08:00:00 PM,177.9,174.0,9.57,,,,,
216,11/05/21 08:15:00 PM,178.0,174.0,9.57,,,,,
217,11/05/21 08:30:00 PM,178.1,174.3,9.52,,,,,
218,11/05/21 08:45:00 PM,178.3,174.4,9.50,,,,,
219,11/05/21 09:00:00 PM,178.1,174.4,9.42,,,,,
220,11/05/21 09:15:00 PM,178.2,174.0,9.40,,,,,
221,11/05/21 09:30:00 PM,178.0,174.0,9.34,,,,,
222,11/05/21 09:45:00 PM,177.6,173.6,9.28,,,,,
223,11/05/21 10:00:00 PM,177.7,173.6,9.25,,,,,
224,11/05/21 10:15:00 PM,177.5,173.7,9.21,,,,,
225,11/05/21 10:30:00 PM,177.4,173.7,9.17,,,,,
226,11/05/21 10:45:00 PM,177.3,173.3,9.11,,,,,
227,11/05/21 11:00:00 PM,177.1,173.3,9.04,,,,,
228,11/05/21 11:15:00 PM,176.9,173.3,9.00,,,,,
229,11/05/21 11:30:00 PM,176.8,173.0,8.95,,,,,
230,11/05/21 11:45:00 PM,176.7,173.0,8.91,,,,,
231,11/06/21 12:00:00 AM,176.6,173.0,8.88,,,,,
232,11/06/21 12:15:00 AM,176.4,172.6,8.82,,,,,
233,11/06/21 12:30:00 AM,176.1,172.2,8.74,,,,,
234,11/06/21 12:45:00 AM,175.9,172.3,8.65,,,,,
235,11/06/21 01:00:00 AM,176.0,172.3,8.65,,,,,
236,11/06/21 01:15:00 AM,175.5,171.9,8.56,,,,,
237,11/06/21 01:30:00 AM,175.3,171.5,8.48,,,,,
238,11/06/21 01:45:00 AM,175.1,171.5,8.45,,,,,
239,11/06/21 02:00:00 AM,175.3,171.6,8.41,,,,,
240,11/06/21 02:15:00 AM,175.1,171.6,8.35,,,,,
241,11/06/21 02:30:00 AM,175.1,171.6,8.37,,,,,
242,11/06/21 02:45:00 AM,174.9,170.8,8.24,,,,,
243,11/06/21 03:00:00 AM,174.8,170.8,8.26,,,,,
244,11/06/21 03:15:00 AM,174.6,170.8,8.22,,,,,
245,11/06/21 03:30:00 AM,174.3,170.5,8.15,,,,,
246,11/06/21 03:45:00 AM,173.6,169.7,8.05,,,,,
247,11/06/21 04:00:00 AM,173.6,169.8,8.03,,,,,
248,11/06/21 04:15:00 AM,174.1,170.9,7.96,,,,,
249,11/06/21 04:30:00 AM,172.9,169.0,7.92,,,,,
250,11/06/21 04:45:00 AM,172.4,168.7,7.82,,,,,
251,11/06/21 05:00:00 AM,172.4,168.7,7.81,,,,,
252,11/06/21 05:15:00 AM,172.5,168.7,7.87,,,,,
253,11/06/21 05:30:00 AM,172.2,168.7,7.77,,,,,
254,11/06/21 05:45:00 AM,168.6,164.6,7.78,,,,,
255,11/06/21 06:00:00 AM,172.0,168.3,7.72,,,,,
256,11/06/21 06:15:00 AM,172.1,168.3,7.73,,,,,
257,11/06/21 06:30:00 AM,171.7,167.6,7.62,,,,,
258,11/06/21 06:45:00 AM,171.9,168.3,7.65,,,,,
259,11/06/21 07:00:00 AM,172.2,168.3,7.65,,,,,
260,11/06/21 07:15:00 AM,172.2,168.7,7.64,,,,,
261,11/06/21 07:30:00 AM,172.3,168.3,7.58,,,,,
262,11/06/21 07:45:00 AM,171.9,168.0,7.48,,,,,
263,11/06/21 08:00:00 AM,172.6,168.7,7.51,,,,,
264,11/06/21 08:15:00 AM,172.6,168.7,7.45,,,,,
265,11/06/21 08:30:00 AM,172.2,168.4,7.33,,,,,
266,11/06/21 08:45:00 AM,172.1,168.4,7.31,,,,,
267,11/06/21 09:00:00 AM,172.5,168.8,7.30,,,,,
268,11/06/21 09:15:00 AM,172.5,168.8,7.26,,,,,
269,11/06/21 09:30:00 AM,172.2,168.4,7.25,,,,,
270,11/06/21 09:45:00 AM,171.6,167.7,7.15,,,,,
271,11/06/21 10:00:00 AM,172.4,168.4,7.20,,,,,
272,11/06/21 10:15:00 AM,171.2,167.6,7.22,,,,,
273,11/06/21 10:30:00 AM,170.3,166.2,7.16,,,,,
274,11/06/21 10:45:00 AM,171.8,167.7,7.15,,,,,
275,11/06/21 11:00:00 AM,173.7,169.9,7.26,,,,,
276,11/06/21 11:15:00 AM,174.2,170.6,7.33,,,,,
277,11/06/21 11:30:00 AM,175.5,171.7,7.43,,,,,
278,11/06/21 11:45:00 AM,177.1,173.2,7.60,,,,,
279,11/06/21 12:00:00 PM,176.9,173.2,7.68,,,,,
280,11/06/21 12:15:00 PM,176.6,172.8,7.72,,,,,
281,11/06/21 12:30:00 PM,173.6,169.8,7.76,,,,,
282,11/06/21 12:45:00 PM,171.8,168.2,8.06,,,,,
283,11/06/21 01:00:00 PM,174.3,170.5,8.18,,,,,
284,11/06/21 01:15:00 PM,175.4,171.6,8.34,,,,,
285,11/06/21 01:30:00 PM,177.2,173.4,8.80,,,,,
286,11/06/21 01:45:00 PM,178.7,175.2,8.78,,,,,
287,11/06/21 02:00:00 PM,180.4,176.4,8.67,,,,,
288,11/06/21 02:15:00 PM,180.7,176.7,8.71,,,,,
289,11/06/21 02:30:00 PM,181.7,177.8,9.02,,,,,
290,11/06/21 02:45:00 PM,182.3,178.5,9.24,,,,,
291,11/06/21 03:00:00 PM,184.4,180.8,9.28,,,,,
292,11/06/21 03:15:00 PM,185.0,181.5,9.55,,,,,
293,11/06/21 03:30:00 PM,185.2,181.9,9.33,,,,,
294,11/06/21 03:45:00 PM,184.7,181.4,9.62,,,,,
295,11/06/21 04:00:00 PM,186.1,182.5,9.69,,,,,
296,11/06/21 04:15:00 PM,188.3,184.8,9.74,,,,,
297,11/06/21 04:30:00 PM,189.6,186.3,9.69,,,,,
298,11/06/21 04:45:00 PM,192.9,189.3,9.85,,,,,
299,11/06/21 05:00:00 PM,191.6,188.2,9.75,,,,,
300,11/06/21 05:15:00 PM,189.7,186.3,9.58,,,,,
301,11/06/21 05:30:00 PM,190.8,187.0,9.75,,,,,
302,11/06/21 05:45:00 PM,193.0,189.3,9.84,,,,,
303,11/06/21 06:00:00 PM,192.5,188.9,9.79,,,,,
304,11/06/21 06:15:00 PM,189.9,186.3,9.61,,,,,
305,11/06/21 06:30:00 PM,188.4,184.8,9.57,,,,,
306,11/06/21 06:45:00 PM,188.4,184.8,9.56,,,,,
307,11/06/21 07:00:00 PM,187.1,183.7,9.45,,,,,
308,11/06/21 07:15:00 PM,186.2,182.6,9.41,,,,,
309,11/06/21 07:30:00 PM,185.3,181.9,9.41,,,,,
310,11/06/21 07:45:00 PM,185.0,181.5,9.40,,,,,
311,11/06/21 08:00:00 PM,184.6,180.7,9.41,,,,,
312,11/06/21 08:15:00 PM,184.3,180.7,9.41,,,,,
313,11/06/21 08:30:00 PM,184.3,180.4,9.40,,,,,
314,11/06/21 08:45:00 PM,184.5,180.4,9.39,,,,,
315,11/06/21 09:00:00 PM,184.3,180.4,9.38,,,,,
316,11/06/21 09:15:00 PM,183.9,180.0,9.35,,,,,
317,11/06/21 09:30:00 PM,183.8,180.0,9.35,,,,,
318,11/06/21 09:45:00 PM,183.5,180.0,9.35,,,,,
319,11/06/21 10:00:00 PM,183.4,179.6,9.34,,,,,
320,11/06/21 10:15:00 PM,183.4,179.6,9.34,,,,,
321,11/06/21 10:30:00 PM,183.4,179.6,9.31,,,,,
322,11/06/21 10:45:00 PM,183.2,179.6,9.31,,,,,
323,11/06/21 11:00:00 PM,183.0,179.3,9.30,,,,,
324,11/06/21 11:15:00 PM,182.9,179.3,9.29,,,,,
325,11/06/21 11:30:00 PM,182.7,178.9,9.28,,,,,
326,11/06/21 11:45:00 PM,182.5,178.9,9.28,,,,,
327,11/07/21 12:00:00 AM,182.5,178.5,9.27,,,,,
328,11/07/21 12:15:00 AM,182.3,178.5,9.27,,,,,
329,11/07/21 12:30:00 AM,182.2,178.5,9.24,,,,,
330,11/07/21 12:45:00 AM,182.5,178.5,9.23,,,,,
331,11/07/21 01:00:00 AM,182.5,178.5,9.18,,,,,
332,11/07/21 01:15:00 AM,182.5,178.5,9.17,,,,,
333,11/07/21 01:30:00 AM,182.8,178.9,9.16,,,,,
334,11/07/21 01:45:00 AM,183.1,179.7,9.14,,,,,
335,11/07/21 02:00:00 AM,183.0,179.3,9.12,,,,,
336,11/07/21 02:15:00 AM,183.3,179.7,9.12,,,,,
337,11/07/21 02:30:00 AM,183.1,179.3,9.06,,,,,
338,11/07/21 02:45:00 AM,183.0,179.3,9.05,,,,,
339,11/07/21 03:00:00 AM,183.0,179.3,9.05,,,,,
340,11/07/21 03:15:00 AM,182.9,179.3,8.99,,,,,
341,11/07/21 03:30:00 AM,182.9,179.3,8.99,,,,,
342,11/07/21 03:45:00 AM,182.9,179.3,8.99,,,,,
343,11/07/21 04:00:00 AM,182.8,178.9,8.95,,,,,
344,11/07/21 04:15:00 AM,182.8,179.3,8.94,,,,,
345,11/07/21 04:30:00 AM,182.8,179.3,8.93,,,,,
346,11/07/21 04:45:00 AM,182.7,179.0,8.90,,,,,
347,11/07/21 05:00:00 AM,182.7,179.3,8.88,,,,,
348,11/07/21 05:15:00 AM,183.1,179.3,8.85,,,,,
349,11/07/21 05:30:00 AM,182.4,178.6,8.80,,,,,
350,11/07/21 05:45:00 AM,182.2,178.6,8.69,,,,,
351,11/07/21 06:00:00 AM,182.8,179.0,8.72,,,,,
352,11/07/21 06:15:00 AM,182.5,179.0,8.68,,,,,
353,11/07/21 06:30:00 AM,182.4,178.6,8.67,,,,,
354,11/07/21 06:45:00 AM,182.2,178.6,8.66,,,,,
355,11/07/21 07:00:00 AM,182.3,178.6,8.66,,,,,
356,11/07/21 07:15:00 AM,182.2,178.6,8.63,,,,,
357,11/07/21 07:30:00 AM,182.1,178.6,8.61,,,,,
358,11/07/21 07:45:00 AM,182.1,178.6,8.60,,,,,
359,11/07/21 08:00:00 AM,182.4,178.6,8.62,,,,,
360,11/07/21 08:15:00 AM,182.1,178.6,8.63,,,,,
361,11/07/21 08:30:00 AM,182.2,178.6,8.57,,,,,
362,11/07/21 08:45:00 AM,182.2,178.6,8.58,,,,,
363,11/07/21 09:00:00 AM,182.5,179.0,8.60,,,,,
364,11/07/21 09:15:00 AM,182.7,179.0,8.61,,,,,
365,11/07/21 09:30:00 AM,182.8,179.4,8.60,,,,,
366,11/07/21 09:45:00 AM,182.7,179.0,8.61,,,,,
367,11/07/21 10:00:00 AM,182.6,179.0,8.55,,,,,
368,11/07/21 10:15:00 AM,182.1,178.7,8.51,,,,,
369,11/07/21 10:30:00 AM,182.6,179.0,8.46,,,,,
370,11/07/21 10:45:00 AM,182.7,179.0,8.54,,,,,
371,11/07/21 11:00:00 AM,183.6,180.1,8.61,,,,,
372,11/07/21 11:15:00 AM,184.5,180.5,8.66,,,,,
373,11/07/21 11:30:00 AM,184.4,180.5,8.68,,,,,
374,11/07/21 11:45:00 AM,185.1,181.6,8.72,,,,,
375,11/07/21 12:00:00 PM,184.1,180.5,8.73,,,,,
376,11/07/21 12:15:00 PM,184.7,181.2,8.93,,,,,
377,11/07/21 12:30:00 PM,186.8,183.4,9.07,,,,,
378,11/07/21 12:45:00 PM,187.0,183.4,9.11,,,,,
379,11/07/21 01:00:00 PM,190.1,186.7,9.35,,,,,
380,11/07/21 01:15:00 PM,190.5,186.7,9.58,,,,,
381,11/07/21 01:30:00 PM,190.5,186.7,9.74,,,,,
382,11/07/21 01:45:00 PM,189.8,186.6,9.81,,,,,
383,11/07/21 02:00:00 PM,190.9,187.0,10.08,,,,,
384,11/07/21 02:15:00 PM,191.5,188.1,9.94,,,,,
385,11/07/21 02:30:00 PM,191.8,188.4,10.14,,,,,
386,11/07/21 02:45:00 PM,192.3,189.2,10.20,,,,,
387,11/07/21 03:00:00 PM,192.8,189.2,10.29,,,,,
388,11/07/21 03:15:00 PM,191.5,188.1,10.19,,,,,
389,11/07/21 03:30:00 PM,191.8,188.4,10.20,,,,,
390,11/07/21 03:45:00 PM,191.5,188.1,10.18,,,,,
391,11/07/21 04:00:00 PM,192.4,188.8,10.20,,,,,
392,11/07/21 04:15:00 PM,192.6,189.2,10.24,,,,,
393,11/07/21 04:30:00 PM,194.3,190.6,10.40,,,,,
394,11/07/21 04:45:00 PM,194.7,191.4,10.45,,,,,
395,11/07/21 05:00:00 PM,194.4,191.0,10.42,,,,,
396,11/07/21 05:15:00 PM,194.2,190.6,10.41,,,,,
397,11/07/21 05:30:00 PM,193.9,190.3,10.37,,,,,
398,11/07/21 05:45:00 PM,193.5,189.9,10.34,,,,,
399,11/07/21 06:00:00 PM,193.2,189.9,10.30,,,,,
400,11/07/21 06:15:00 PM,192.6,189.2,10.28,,,,,
401,11/07/21 06:30:00 PM,192.9,189.2,10.26,,,,,
402,11/07/21 06:45:00 PM,192.7,189.2,10.20,,,,,
403,11/07/21 07:00:00 PM,192.6,189.2,10.19,,,,,
404,11/07/21 07:15:00 PM,192.6,188.8,10.14,,,,,
405,11/07/21 07:30:00 PM,192.6,188.8,10.11,,,,,
406,11/07/21 07:45:00 PM,192.4,188.8,10.04,,,,,
407,11/07/21 08:00:00 PM,191.9,188.5,10.00,,,,,
408,11/07/21 08:15:00 PM,191.7,188.1,9.96,,,,,
409,11/07/21 08:30:00 PM,191.4,187.7,9.90,,,,,
410,11/07/21 08:45:00 PM,190.9,187.8,9.85,,,,,
411,11/07/21 09:00:00 PM,191.2,187.8,9.81,,,,,
412,11/07/21 09:15:00 PM,191.0,187.4,9.78,,,,,
413,11/07/21 09:30:00 PM,190.9,187.4,9.73,,,,,
414,11/07/21 09:45:00 PM,190.8,187.0,9.67,,,,,
415,11/07/21 10:00:00 PM,190.7,187.1,9.62,,,,,
416,11/07/21 10:15:00 PM,190.6,187.1,9.57,,,,,
417,11/07/21 10:30:00 PM,190.4,186.7,9.51,,,,,
418,11/07/21 10:45:00 PM,190.1,186.7,9.46,,,,,
419,11/07/21 11:00:00 PM,190.0,186.3,9.42,,,,,
420,11/07/21 11:15:00 PM,189.8,186.4,9.36,,,,,
421,11/07/21 11:30:00 PM,189.9,186.7,9.36,,,,,
422,11/07/21 11:45:00 PM,190.5,186.7,9.35,,,,,
423,11/08/21 12:00:00 AM,189.2,185.7,9.13,,,,,
424,11/08/21 12:15:00 AM,188.8,185.7,9.10,,,,,
425,11/08/21 12:30:00 AM,188.5,185.3,9.10,,,,,
426,11/08/21 12:45:00 AM,188.7,185.3,9.05,,,,,
427,11/08/21 01:00:00 AM,188.7,185.3,9.04,,,,,
428,11/08/21 01:15:00 AM,188.6,185.3,9.00,,,,,
429,11/08/21 01:30:00 AM,188.4,184.9,8.96,,,,,
430,11/08/21 01:45:00 AM,188.3,184.9,8.94,,,,,
431,11/08/21 02:00:00 AM,188.0,184.6,8.88,,,,,
432,11/08/21 02:15:00 AM,187.7,184.2,8.84,,,,,
433,11/08/21 02:30:00 AM,187.7,184.2,8.80,,,,,
434,11/08/21 02:45:00 AM,187.4,183.9,8.76,,,,,
435,11/08/21 03:00:00 AM,187.5,183.9,8.74,,,,,
436,11/08/21 03:15:00 AM,187.3,183.5,8.67,,,,,
437,11/08/21 03:30:00 AM,187.3,183.9,8.66,,,,,
438,11/08/21 03:45:00 AM,186.5,182.8,8.49,,,,,
439,11/08/21 04:00:00 AM,186.4,182.8,8.46,,,,,
440,11/08/21 04:15:00 AM,186.7,183.5,8.41,,,,,
441,11/08/21 04:30:00 AM,187.0,183.2,8.40,,,,,
442,11/08/21 04:45:00 AM,186.7,183.2,8.37,,,,,
443,11/08/21 05:00:00 AM,186.7,183.2,8.34,,,,,
444,11/08/21 05:15:00 AM,186.6,183.2,8.32,,,,,
445,11/08/21 05:30:00 AM,186.5,182.8,8.24,,,,,
446,11/08/21 05:45:00 AM,186.2,182.8,8.21,,,,,
447,11/08/21 06:00:00 AM,186.3,182.8,8.20,,,,,
448,11/08/21 06:15:00 AM,185.9,182.5,8.12,,,,,
449,11/08/21 06:30:00 AM,185.9,182.5,8.10,,,,,
450,11/08/21 06:45:00 AM,185.7,182.1,8.04,,,,,
451,11/08/21 07:00:00 AM,185.6,182.1,8.03,,,,,
452,11/08/21 07:15:00 AM,185.9,182.5,8.00,,,,,
453,11/08/21 07:30:00 AM,185.6,182.1,7.94,,,,,
454,11/08/21 07:45:00 AM,185.6,182.1,7.90,,,,,
455,11/08/21 08:00:00 AM,185.3,181.8,7.84,,,,,
456,11/08/21 08:15:00 AM,185.6,182.2,7.87,,,,,
457,11/08/21 08:30:00 AM,185.0,181.4,7.77,,,,,
458,11/08/21 08:45:00 AM,183.9,180.7,7.73,,,,,
459,11/08/21 09:00:00 AM,186.2,182.9,7.89,,,,,
460,11/08/21 09:15:00 AM,185.4,181.8,7.77,,,,,
461,11/08/21 09:30:00 AM,186.3,182.9,7.85,,,,,
462,11/08/21 09:45:00 AM,185.7,182.2,7.83,,,,,
463,11/08/21 10:00:00 AM,185.5,182.2,7.77,,,,,
464,11/08/21 10:15:00 AM,185.4,181.8,7.81,,,,,
465,11/08/21 10:30:00 AM,185.5,182.2,7.87,,,,,
466,11/08/21 10:45:00 AM,186.0,182.5,7.93,,,,,
467,11/08/21 11:00:00 AM,186.3,182.9,7.98,,,,,
468,11/08/21 11:15:00 AM,186.2,182.9,7.96,,,,,
469,11/08/21 11:30:00 AM,187.3,183.6,8.05,,,,,
470,11/08/21 11:45:00 AM,188.6,185.1,8.20,,,,,
471,11/08/21 12:00:00 PM,189.0,185.8,8.26,,,,,
472,11/08/21 12:15:00 PM,189.8,186.6,8.37,,,,,
473,11/08/21 12:30:00 PM,191.2,187.6,8.56,,,,,
474,11/08/21 12:45:00 PM,194.7,191.3,8.80,,,,,
475,11/08/21 01:00:00 PM,194.5,191.0,8.80,,,,,
476,11/08/21 01:15:00 PM,195.7,192.0,9.10,,,,,
477,11/08/21 01:30:00 PM,193.9,190.6,8.94,,,,,
478,11/08/21 01:45:00 PM,194.0,190.5,9.07,,,,,
479,11/08/21 02:00:00 PM,195.6,192.0,9.19,,,,,
480,11/08/21 02:15:00 PM,196.0,192.6,9.83,,,,,
481,11/08/21 02:30:00 PM,194.6,191.2,9.45,,,,,
482,11/08/21 02:45:00 PM,197.4,193.8,9.74,,,,,
483,11/08/21 03:00:00 PM,199.2,196.0,9.87,,,,,
484,11/08/21 03:15:00 PM,200.1,196.4,9.94,,,,,
485,11/08/21 03:30:00 PM,200.0,196.7,10.00,,,,,
486,11/08/21 03:45:00 PM,198.7,195.5,10.31,,,,,
487,11/08/21 04:00:00 PM,198.3,195.1,10.41,,,,,
488,11/08/21 04:15:00 PM,198.8,195.5,10.28,,,,,
489,11/08/21 04:30:00 PM,199.3,195.9,10.32,,,,,
490,11/08/21 04:45:00 PM,200.1,196.6,10.56,,,,,
491,11/08/21 05:00:00 PM,200.1,196.6,10.54,,,,,
492,11/08/21 05:15:00 PM,201.3,198.1,10.45,,,,,
493,11/08/21 05:30:00 PM,200.6,197.7,10.50,,,,,
494,11/08/21 05:45:00 PM,201.0,197.7,10.53,,,,,
495,11/08/21 06:00:00 PM,200.9,197.7,10.53,,,,,
496,11/08/21 06:15:00 PM,201.9,198.9,10.47,,,,,
497,11/08/21 06:30:00 PM,202.1,198.9,10.41,,,,,
498,11/08/21 06:45:00 PM,201.7,198.4,10.67,,,,,
499,11/08/21 07:00:00 PM,201.9,198.9,10.45,,,,,
500,11/08/21 07:15:00 PM,202.7,199.6,10.47,,,,,
501,11/08/21 07:30:00 PM,203.2,200.0,10.43,,,,,
502,11/08/21 07:45:00 PM,203.3,199.6,10.42,,,,,
503,11/08/21 08:00:00 PM,203.4,200.0,10.39,,,,,
504,11/08/21 08:15:00 PM,204.0,200.8,10.36,,,,,
505,11/08/21 08:30:00 PM,204.3,201.1,10.31,,,,,
506,11/08/21 08:45:00 PM,203.2,199.7,10.23,,,,,
507,11/08/21 09:00:00 PM,201.0,197.8,10.19,,,,,
508,11/08/21 09:15:00 PM,202.4,199.3,10.15,,,,,
509,11/08/21 09:30:00 PM,198.4,195.2,10.08,,,,,
510,11/08/21 09:45:00 PM,199.7,196.3,10.03,,,,,
511,11/08/21 10:00:00 PM,199.7,196.4,9.96,,,,,
512,11/08/21 10:15:00 PM,198.7,195.2,9.89,,,,,
513,11/08/21 10:30:00 PM,198.0,194.9,9.83,,,,,
514,11/08/21 10:45:00 PM,201.0,198.3,9.79,,,,,
515,11/08/21 11:00:00 PM,197.8,194.5,9.75,,,,,
516,11/08/21 11:15:00 PM,197.3,193.8,9.72,,,,,
517,11/08/21 11:30:00 PM,197.0,193.8,9.68,,,,,
518,11/08/21 11:45:00 PM,196.8,193.4,9.62,,,,,
519,11/09/21 12:00:00 AM,195.3,192.3,9.59,,,,,
520,11/09/21 12:15:00 AM,196.4,193.1,9.55,,,,,
521,11/09/21 12:30:00 AM,196.2,192.7,9.51,,,,,
522,11/09/21 12:45:00 AM,196.2,192.7,9.47,,,,,
523,11/09/21 01:00:00 AM,196.3,192.7,9.44,,,,,
524,11/09/21 01:15:00 AM,196.3,192.7,9.40,,,,,
525,11/09/21 01:30:00 AM,196.0,192.7,9.36,,,,,
526,11/09/21 01:45:00 AM,196.0,192.7,9.33,,,,,
527,11/09/21 02:00:00 AM,196.4,193.5,9.29,,,,,
528,11/09/21 02:15:00 AM,196.0,192.7,9.25,,,,,
529,11/09/21 02:30:00 AM,196.7,193.5,9.22,,,,,
530,11/09/21 02:45:00 AM,195.8,192.4,9.10,,,,,
531,11/09/21 03:00:00 AM,195.3,191.7,9.06,,,,,
532,11/09/21 03:15:00 AM,195.0,191.7,9.00,,,,,
533,11/09/21 03:30:00 AM,195.0,191.7,8.99,,,,,
534,11/09/21 03:45:00 AM,195.2,191.7,8.99,,,,,
535,11/09/21 04:00:00 AM,195.1,191.7,8.95,,,,,
536,11/09/21 04:15:00 AM,194.9,191.3,8.93,,,,,
537,11/09/21 04:30:00 AM,194.9,191.7,8.90,,,,,
538,11/09/21 04:45:00 AM,194.6,191.3,8.86,,,,,
539,11/09/21 05:00:00 AM,194.4,191.0,8.84,,,,,
540,11/09/21 05:15:00 AM,194.0,191.0,8.79,,,,,
541,11/09/21 05:30:00 AM,193.9,190.2,8.76,,,,,
542,11/09/21 05:45:00 AM,193.8,190.2,8.72,,,,,
543,11/09/21 06:00:00 AM,193.7,190.2,8.69,,,,,
544,11/09/21 06:15:00 AM,193.5,190.2,8.65,,,,,
545,11/09/21 06:30:00 AM,193.5,190.3,8.61,,,,,
546,11/09/21 06:45:00 AM,193.0,189.5,8.55,,,,,
547,11/09/21 07:00:00 AM,193.1,189.5,8.52,,,,,
548,11/09/21 07:15:00 AM,192.8,189.2,8.49,,,,,
549,11/09/21 07:30:00 AM,192.5,188.8,8.43,,,,,
550,11/09/21 07:45:00 AM,192.9,189.9,8.41,,,,,
551,11/09/21 08:00:00 AM,192.3,188.8,8.40,,,,,
552,11/09/21 08:15:00 AM,192.8,189.5,8.44,,,,,
553,11/09/21 08:30:00 AM,193.4,190.3,8.43,,,,,
554,11/09/21 08:45:00 AM,192.9,189.2,8.34,,,,,
555,11/09/21 09:00:00 AM,193.0,189.6,8.38,,,,,
556,11/09/21 09:15:00 AM,192.8,189.2,8.37,,,,,
557,11/09/21 09:30:00 AM,192.5,189.2,8.32,,,,,
558,11/09/21 09:45:00 AM,193.3,190.3,8.40,,,,,
559,11/09/21 10:00:00 AM,193.7,190.3,8.44,,,,,
560,11/09/21 10:15:00 AM,193.1,189.5,8.43,,,,,
561,11/09/21 10:30:00 AM,193.3,189.5,8.43,,,,,
562,11/09/21 10:45:00 AM,193.4,190.3,8.45,,,,,
563,11/09/21 11:00:00 AM,193.3,189.5,8.45,,,,,
564,11/09/21 11:15:00 AM,193.0,189.5,8.45,,,,,
565,11/09/21 11:30:00 AM,193.3,190.3,8.49,,,,,
566,11/09/21 11:45:00 AM,193.3,190.3,8.55,,,,,
567,11/09/21 12:00:00 PM,194.3,191.0,8.67,,,,,
568,11/09/21 12:15:00 PM,194.5,191.0,8.72,,,,,
569,11/09/21 12:30:00 PM,195.9,192.4,9.05,,,,,
570,11/09/21 12:45:00 PM,196.0,192.4,9.10,,,,,
571,11/09/21 01:00:00 PM,198.1,195.0,9.31,,,,,
572,11/09/21 01:15:00 PM,198.4,195.0,9.40,,,,,
573,11/09/21 01:30:00 PM,199.7,196.4,9.69,,,,,
574,11/09/21 01:45:00 PM,199.5,196.4,9.67,,,,,
575,11/09/21 02:00:00 PM,199.2,195.7,9.56,,,,,
576,11/09/21 02:15:00 PM,199.7,196.0,9.66,,,,,
577,11/09/21 02:30:00 PM,200.9,197.9,9.75,,,,,
578,11/09/21 02:45:00 PM,202.3,199.0,9.90,,,,,
579,11/09/21 03:00:00 PM,203.3,200.5,10.02,,,,,
580,11/09/21 03:15:00 PM,204.3,201.2,10.14,,,,,
581,11/09/21 03:30:00 PM,205.1,201.9,10.37,,,,,
582,11/09/21 03:45:00 PM,205.6,202.2,10.51,,,,,
583,11/09/21 04:00:00 PM,205.9,202.5,10.77,,,,,
584,11/09/21 04:15:00 PM,204.7,201.5,10.56,,,,,
585,11/09/21 04:30:00 PM,206.6,203.3,10.85,,,,,
586,11/09/21 04:45:00 PM,206.0,202.5,10.79,,,,,
587,11/09/21 05:00:00 PM,206.2,202.9,10.86,,,,,
588,11/09/21 05:15:00 PM,207.2,203.6,11.12,,,,,
589,11/09/21 05:30:00 PM,208.0,205.1,11.09,,,,,
590,11/09/21 05:45:00 PM,208.9,205.8,11.20,,,,,
591,11/09/21 06:00:00 PM,207.6,204.4,10.92,,,,,
592,11/09/21 06:15:00 PM,208.0,204.7,11.08,,,,,
593,11/09/21 06:30:00 PM,207.0,203.6,11.04,,,,,
594,11/09/21 06:45:00 PM,207.4,204.4,11.08,,,,,
595,11/09/21 07:00:00 PM,207.1,204.0,11.02,,,,,
596,11/09/21 07:15:00 PM,207.5,204.4,11.05,,,,,
597,11/09/21 07:30:00 PM,207.5,204.4,11.04,,,,,
598,11/09/21 07:45:00 PM,207.9,204.7,11.01,,,,,
599,11/09/21 08:00:00 PM,207.7,204.4,10.95,,,,,
600,11/09/21 08:15:00 PM,207.5,204.4,10.88,,,,,
601,11/09/21 08:30:00 PM,207.3,204.4,10.85,,,,,
602,11/09/21 08:45:00 PM,206.9,204.0,10.80,,,,,
603,11/09/21 09:00:00 PM,206.8,203.7,10.75,,,,,
604,11/09/21 09:15:00 PM,207.9,207.1,10.70,,,,,
605,11/09/21 09:30:00 PM,206.7,203.3,10.65,,,,,
606,11/09/21 09:45:00 PM,205.7,202.6,10.62,,,,,
607,11/09/21 10:00:00 PM,205.5,202.2,10.58,,,,,
608,11/09/21 10:15:00 PM,205.5,202.2,10.53,,,,,
609,11/09/21 10:30:00 PM,204.5,201.1,10.50,,,,,
610,11/09/21 10:45:00 PM,204.5,201.1,10.46,,,,,
611,11/09/21 11:00:00 PM,204.2,201.1,10.43,,,,,
612,11/09/21 11:15:00 PM,204.0,200.8,10.36,,,,,
613,11/09/21 11:30:00 PM,203.8,200.4,10.30,,,,,
614,11/09/21 11:45:00 PM,203.3,200.0,10.26,,,,,
615,11/10/21 12:00:00 AM,203.0,199.7,10.23,,,,,
616,11/10/21 12:15:00 AM,202.9,199.7,10.20,,,,,
617,11/10/21 12:30:00 AM,203.2,200.1,10.17,,,,,
618,11/10/21 12:45:00 AM,202.8,199.7,10.09,,,,,
619,11/10/21 01:00:00 AM,202.7,199.3,10.08,,,,,
620,11/10/21 01:15:00 AM,202.6,199.3,10.07,,,,,
621,11/10/21 01:30:00 AM,202.5,199.3,10.06,,,,,
622,11/10/21 01:45:00 AM,202.9,199.7,10.02,,,,,
623,11/10/21 02:00:00 AM,202.9,199.7,10.00,,,,,
624,11/10/21 02:15:00 AM,202.5,199.3,9.97,,,,,
625,11/10/21 02:30:00 AM,202.3,199.0,9.92,,,,,
626,11/10/21 02:45:00 AM,202.2,199.0,9.91,,,,,
627,11/10/21 03:00:00 AM,202.1,199.0,9.89,,,,,
628,11/10/21 03:15:00 AM,201.9,198.6,9.86,,,,,
629,11/10/21 03:30:00 AM,201.8,198.6,9.84,,,,,
630,11/10/21 03:45:00 AM,201.9,198.6,9.83,,,,,
631,11/10/21 04:00:00 AM,202.0,198.6,9.81,,,,,
632,11/10/21 04:15:00 AM,201.9,198.6,9.80,,,,,
633,11/10/21 04:30:00 AM,202.2,199.0,9.78,,,,,
634,11/10/21 04:45:00 AM,202.1,198.6,9.75,,,,,
635,11/10/21 05:00:00 AM,202.1,199.0,9.73,,,,,
636,11/10/21 05:15:00 AM,202.2,199.0,9.73,,,,,
637,11/10/21 05:30:00 AM,202.8,199.8,9.70,,,,,
638,11/10/21 05:45:00 AM,202.2,199.0,9.69,,,,,
639,11/10/21 06:00:00 AM,202.0,199.0,9.67,,,,,
640,11/10/21 06:15:00 AM,201.8,198.7,9.67,,,,,
641,11/10/21 06:30:00 AM,202.1,198.7,9.66,,,,,
642,11/10/21 06:45:00 AM,202.0,199.0,9.66,,,,,
643,11/10/21 07:00:00 AM,202.0,198.7,9.63,,,,,
644,11/10/21 07:15:00 AM,202.3,199.0,9.64,,,,,
645,11/10/21 07:30:00 AM,201.6,198.3,9.57,,,,,
646,11/10/21 07:45:00 AM,200.4,197.2,9.53,,,,,
647,11/10/21 08:00:00 AM,201.3,197.9,9.49,,,,,
648,11/10/21 08:15:00 AM,201.8,198.7,9.55,,,,,
649,11/10/21 08:30:00 AM,202.7,199.4,9.58,,,,,
650,11/10/21 08:45:00 AM,202.6,199.4,9.58,,,,,
651,11/10/21 09:00:00 AM,202.9,199.8,9.68,,,,,
652,11/10/21 09:15:00 AM,207.5,204.7,9.63,,,,,
653,11/10/21 09:30:00 AM,202.7,199.4,9.66,,,,,
654,11/10/21 09:45:00 AM,202.8,199.4,9.69,,,,,
655,11/10/21 10:00:00 AM,203.0,202.0,9.74,,,,,
656,11/10/21 10:15:00 AM,203.1,199.8,9.79,,,,,
657,11/10/21 10:30:00 AM,203.0,199.8,9.78,,,,,
658,11/10/21 10:45:00 AM,203.9,200.9,9.83,,,,,
659,11/10/21 11:00:00 AM,203.2,199.7,9.85,,,,,
660,11/10/21 11:15:00 AM,204.2,201.2,9.91,,,,,
661,11/10/21 11:30:00 AM,204.8,201.2,10.00,,,,,
662,11/10/21 11:45:00 AM,204.9,201.6,10.11,,,,,
663,11/10/21 12:00:00 PM,206.3,203.0,10.34,,,,,
664,11/10/21 12:15:00 PM,206.9,204.1,10.52,,,,,
665,11/10/21 12:30:00 PM,206.7,203.4,10.48,,,,,
666,11/10/21 12:45:00 PM,208.6,205.6,10.63,,,,,
667,11/10/21 01:00:00 PM,208.5,205.2,10.68,,,,,
668,11/10/21 01:15:00 PM,209.3,206.3,10.71,,,,,
669,11/10/21 01:30:00 PM,209.4,206.7,10.84,,,,,
670,11/10/21 01:45:00 PM,211.4,208.5,11.08,,,,,
671,11/10/21 02:00:00 PM,212.2,209.2,11.37,,,,,
672,11/10/21 02:15:00 PM,211.9,208.8,11.29,,,,,
673,11/10/21 02:30:00 PM,211.4,208.8,11.32,,,,,
674,11/10/21 02:45:00 PM,213.3,210.7,11.37,,,,,
675,11/10/21 03:00:00 PM,214.7,211.8,11.46,,,,,
676,11/10/21 03:15:00 PM,215.0,212.1,11.69,,,,,
677,11/10/21 03:30:00 PM,213.8,211.0,11.54,,,,,
678,11/10/21 03:45:00 PM,215.7,212.8,11.78,,,,,
679,11/10/21 04:00:00 PM,215.2,212.8,11.71,,,,,
680,11/10/21 04:15:00 PM,215.1,212.1,11.81,,,,,
681,11/10/21 04:30:00 PM,215.5,212.8,11.93,,,,,
682,11/10/21 04:45:00 PM,215.4,212.8,11.93,,,,,
683,11/10/21 05:00:00 PM,216.3,213.5,12.08,,,,,
684,11/10/21 05:15:00 PM,216.5,213.9,12.10,,,,,
685,11/10/21 05:30:00 PM,217.2,214.2,12.14,,,,,
686,11/10/21 05:45:00 PM,217.1,214.2,12.13,,,,,
687,11/10/21 06:00:00 PM,217.0,214.2,12.21,,,,,
688,11/10/21 06:15:00 PM,217.6,214.6,12.15,,,,,
689,11/10/21 06:30:00 PM,217.9,215.0,12.14,,,,,
690,11/10/21 06:45:00 PM,217.8,215.0,12.20,,,,,
691,11/10/21 07:00:00 PM,217.6,215.0,12.22,,,,,
692,11/10/21 07:15:00 PM,217.6,215.0,12.21,,,,,
693,11/10/21 07:30:00 PM,217.6,214.6,12.15,,,,,
694,11/10/21 07:45:00 PM,217.8,215.0,12.11,,,,,
695,11/10/21 08:00:00 PM,215.6,213.5,12.08,,,,,
696,11/10/21 08:15:00 PM,217.4,214.6,12.03,,,,,
697,11/10/21 08:30:00 PM,217.7,215.0,11.98,,,,,
698,11/10/21 08:45:00 PM,218.0,215.0,11.94,,,,,
699,11/10/21 09:00:00 PM,218.3,215.4,11.89,,,,,
700,11/10/21 09:15:00 PM,217.3,214.3,11.85,,,,,
701,11/10/21 09:30:00 PM,217.9,215.0,11.80,,,,,
702,11/10/21 09:45:00 PM,216.7,213.9,11.75,,,,,
703,11/10/21 10:00:00 PM,216.1,212.8,11.69,,,,,
704,11/10/21 10:15:00 PM,215.0,212.1,11.63,,,,,
705,11/10/21 10:30:00 PM,215.1,212.1,11.57,,,,,
706,11/10/21 10:45:00 PM,214.8,211.7,11.53,,,,,
707,11/10/21 11:00:00 PM,213.3,211.4,11.48,,,,,
708,11/10/21 11:15:00 PM,214.1,211.4,11.44,,,,,
709,11/10/21 11:30:00 PM,213.5,211.0,11.41,,,,,
710,11/10/21 11:45:00 PM,213.2,210.3,11.35,,,,,
711,11/11/21 12:00:00 AM,212.7,209.9,11.31,,,,,
712,11/11/21 12:15:00 AM,212.8,209.6,11.25,,,,,
713,11/11/21 12:30:00 AM,212.5,209.6,11.23,,,,,
714,11/11/21 12:45:00 AM,212.7,209.6,11.19,,,,,
715,11/11/21 01:00:00 AM,212.5,209.6,11.15,,,,,
716,11/11/21 01:15:00 AM,212.2,209.2,11.09,,,,,
717,11/11/21 01:30:00 AM,214.6,212.2,11.03,,,,,
718,11/11/21 01:45:00 AM,211.8,208.9,11.01,,,,,
719,11/11/21 02:00:00 AM,212.1,209.2,10.99,,,,,
720,11/11/21 02:15:00 AM,212.2,209.6,10.95,,,,,
721,11/11/21 02:30:00 AM,212.2,209.6,10.90,,,,,
722,11/11/21 02:45:00 AM,211.4,208.5,10.84,,,,,
723,11/11/21 03:00:00 AM,211.2,208.5,10.79,,,,,
724,11/11/21 03:15:00 AM,211.0,208.2,10.75,,,,,
725,11/11/21 03:30:00 AM,211.1,207.8,10.71,,,,,
726,11/11/21 03:45:00 AM,210.7,207.8,10.65,,,,,
727,11/11/21 04:00:00 AM,210.6,207.8,10.62,,,,,
728,11/11/21 04:15:00 AM,210.5,207.5,10.58,,,,,
729,11/11/21 04:30:00 AM,210.3,207.5,10.54,,,,,
730,11/11/21 04:45:00 AM,210.1,207.1,10.52,,,,,
731,11/11/21 05:00:00 AM,210.2,207.1,10.50,,,,,
732,11/11/21 05:15:00 AM,209.9,206.7,10.42,,,,,
733,11/11/21 05:30:00 AM,208.9,205.6,10.29,,,,,
734,11/11/21 05:45:00 AM,208.9,205.6,10.29,,,,,
735,11/11/21 06:00:00 AM,208.7,205.7,10.24,,,,,
736,11/11/21 06:15:00 AM,211.2,208.7,10.24,,,,,
737,11/11/21 06:30:00 AM,208.5,205.3,10.18,,,,,
738,11/11/21 06:45:00 AM,208.0,204.9,10.18,,,,,
739,11/11/21 07:00:00 AM,208.3,205.3,10.14,,,,,
740,11/11/21 07:15:00 AM,208.3,204.9,10.13,,,,,
741,11/11/21 07:30:00 AM,208.3,204.9,10.11,,,,,
742,11/11/21 07:45:00 AM,208.1,204.9,10.07,,,,,
743,11/11/21 08:00:00 AM,208.7,205.7,10.09,,,,,
744,11/11/21 08:15:00 AM,208.5,205.3,10.06,,,,,
745,11/11/21 08:30:00 AM,208.7,205.3,10.02,,,,,
746,11/11/21 08:45:00 AM,208.0,205.0,10.01,,,,,
747,11/11/21 09:00:00 AM,208.0,205.0,9.98,,,,,
748,11/11/21 09:15:00 AM,207.3,204.6,9.92,,,,,
749,11/11/21 09:30:00 AM,207.6,204.6,9.98,,,,,
750,11/11/21 09:45:00 AM,207.8,204.6,10.00,,,,,
751,11/11/21 10:00:00 AM,208.4,205.3,10.08,,,,,
752,11/11/21 10:15:00 AM,208.7,205.7,10.14,,,,,
753,11/11/21 10:30:00 AM,209.3,206.4,10.19,,,,,
754,11/11/21 10:45:00 AM,211.6,208.6,10.26,,,,,
755,11/11/21 11:00:00 AM,209.8,206.8,10.30,,,,,
756,11/11/21 11:15:00 AM,210.1,206.8,10.34,,,,,
757,11/11/21 11:30:00 AM,210.6,207.5,10.45,,,,,
758,11/11/21 11:45:00 AM,211.2,208.2,10.46,,,,,
759,11/11/21 12:00:00 PM,211.9,209.0,10.58,,,,,
760,11/11/21 12:15:00 PM,212.5,209.3,10.67,,,,,
761,11/11/21 12:30:00 PM,213.5,210.8,10.81,,,,,
762,11/11/21 12:45:00 PM,213.8,211.1,10.84,,,,,
763,11/11/21 01:00:00 PM,217.9,215.2,11.23,,,,,
764,11/11/21 01:15:00 PM,216.5,213.3,11.35,,,,,
765,11/11/21 01:30:00 PM,217.6,214.7,11.54,,,,,
766,11/11/21 01:45:00 PM,218.1,215.1,11.58,,,,,
767,11/11/21 02:00:00 PM,217.2,214.4,11.40,,,,,
768,11/11/21 02:15:00 PM,218.4,215.4,11.74,,,,,
769,11/11/21 02:30:00 PM,218.6,215.4,11.77,,,,,
770,11/11/21 02:45:00 PM,218.0,215.0,11.81,,,,,
771,11/11/21 03:00:00 PM,218.1,215.5,11.68,,,,,
772,11/11/21 03:15:00 PM,219.4,216.5,11.94,,,,,
773,11/11/21 03:30:00 PM,219.5,216.9,11.93,,,,,
774,11/11/21 03:45:00 PM,219.3,216.9,11.99,,,,,
775,11/11/21 04:00:00 PM,220.4,217.6,12.26,,,,,
776,11/11/21 04:15:00 PM,221.6,218.7,12.15,,,,,
777,11/11/21 04:30:00 PM,222.8,220.2,12.33,,,,,
778,11/11/21 04:45:00 PM,223.4,220.6,12.28,,,,,
779,11/11/21 05:00:00 PM,224.3,221.3,12.25,,,,,
780,11/11/21 05:15:00 PM,224.9,222.4,12.28,,,,,
781,11/11/21 05:30:00 PM,224.7,222.4,12.39,,,,,
782,11/11/21 05:45:00 PM,224.3,221.6,12.42,,,,,
783,11/11/21 06:00:00 PM,224.8,222.4,12.37,,,,,
784,11/11/21 06:15:00 PM,225.5,223.1,12.50,,,,,
785,11/11/21 06:30:00 PM,225.2,222.4,12.45,,,,,
786,11/11/21 06:45:00 PM,225.2,222.4,12.53,,,,,
787,11/11/21 07:00:00 PM,224.8,222.0,12.51,,,,,
788,11/11/21 07:15:00 PM,224.3,221.6,12.53,,,,,
789,11/11/21 07:30:00 PM,224.5,222.0,12.54,,,,,
790,11/11/21 07:45:00 PM,225.2,222.4,12.54,,,,,
791,11/11/21 08:00:00 PM,223.1,220.9,12.55,,,,,
792,11/11/21 08:15:00 PM,225.1,222.4,12.56,,,,,
793,11/11/21 08:30:00 PM,226.1,223.9,12.56,,,,,
794,11/11/21 08:45:00 PM,225.4,222.7,12.56,,,,,
795,11/11/21 09:00:00 PM,226.0,223.5,12.58,,,,,
796,11/11/21 09:15:00 PM,226.3,223.9,12.56,,,,,
797,11/11/21 09:30:00 PM,226.8,224.2,12.60,,,,,
798,11/11/21 09:45:00 PM,228.8,226.5,12.61,,,,,
799,11/11/21 10:00:00 PM,229.9,227.2,12.61,,,,,
800,11/11/21 10:15:00 PM,229.6,227.2,12.64,,,,,
801,11/11/21 10:30:00 PM,229.3,226.8,12.62,,,,,
802,11/11/21 10:45:00 PM,228.8,226.5,12.60,,,,,
803,11/11/21 11:00:00 PM,228.7,226.1,12.60,,,,,
804,11/11/21 11:15:00 PM,229.8,227.6,12.58,,,,,
805,11/11/21 11:30:00 PM,227.1,224.6,12.60,,,,,
806,11/11/21 11:45:00 PM,228.8,226.5,12.59,,,,,
807,11/12/21 12:00:00 AM,227.1,225.0,12.59,,,,,
808,11/12/21 12:15:00 AM,226.0,223.5,12.59,,,,,
809,11/12/21 12:30:00 AM,227.0,224.2,12.59,,,,,
810,11/12/21 12:45:00 AM,226.8,224.2,12.62,,,,,
811,11/12/21 01:00:00 AM,228.5,225.7,12.61,,,,,
812,11/12/21 01:15:00 AM,227.1,224.6,12.70,,,,,
813,11/12/21 01:30:00 AM,229.3,226.8,12.75,,,,,
814,11/12/21 01:45:00 AM,230.9,229.4,12.73,,,,,
815,11/12/21 02:00:00 AM,235.4,233.2,12.82,,,,,
816,11/12/21 02:15:00 AM,232.6,230.1,12.86,,,,,
817,11/12/21 02:30:00 AM,234.0,231.6,12.87,,,,,
818,11/12/21 02:45:00 AM,238.0,235.4,12.87,,,,,
819,11/12/21 03:00:00 AM,232.1,230.1,12.99,,,,,
820,11/12/21 03:15:00 AM,238.1,235.4,12.90,,,,,
821,11/12/21 03:30:00 AM,238.2,235.7,12.94,,,,,
822,11/12/21 03:45:00 AM,238.8,236.5,12.92,,,,,
823,11/12/21 04:00:00 AM,238.1,235.4,12.96,,,,,
824,11/12/21 04:15:00 AM,240.0,237.6,12.95,,,,,
825,11/12/21 04:30:00 AM,236.9,234.2,13.04,,,,,
826,11/12/21 04:45:00 AM,235.4,233.1,13.07,,,,,
827,11/12/21 05:00:00 AM,240.6,238.4,12.87,,,,,
828,11/12/21 05:15:00 AM,243.8,241.7,12.94,,,,,
829,11/12/21 05:30:00 AM,237.7,235.3,13.24,,,,,
830,11/12/21 05:45:00 AM,240.9,238.8,12.69,,,,,
831,11/12/21 06:00:00 AM,235.0,233.1,13.21,,,,,
832,11/12/21 06:15:00 AM,232.8,230.4,13.24,,,,,
833,11/12/21 06:30:00 AM,229.4,227.0,13.35,,,,,
834,11/12/21 06:45:00 AM,229.8,227.4,13.18,,,,,
835,11/12/21 07:00:00 AM,227.3,225.2,13.35,,,,,
836,11/12/21 07:15:00 AM,225.2,222.5,13.40,,,,,
837,11/12/21 07:30:00 AM,228.5,225.9,13.32,,,,,
838,11/12/21 07:45:00 AM,230.1,227.8,13.27,,,,,
839,11/12/21 08:00:00 AM,227.9,225.6,13.28,,,,,
840,11/12/21 08:15:00 AM,225.9,223.7,13.23,,,,,
841,11/12/21 08:30:00 AM,224.3,221.8,13.24,,,,,
842,11/12/21 08:45:00 AM,224.5,221.8,13.22,,,,,
843,11/12/21 09:00:00 AM,224.3,221.8,13.23,,,,,
844,11/12/21 09:15:00 AM,226.1,223.3,13.27,,,,,
845,11/12/21 09:30:00 AM,227.6,225.2,13.32,,,,,
846,11/12/21 09:45:00 AM,227.2,224.8,13.35,,,,,
847,11/12/21 10:00:00 AM,227.5,225.2,13.39,,,,,
848,11/12/21 10:15:00 AM,228.9,226.3,13.35,,,,,
849,11/12/21 10:30:00 AM,222.6,219.9,13.51,,,,,
850,11/12/21 10:45:00 AM,224.3,222.2,13.43,,,,,
851,11/12/21 11:00:00 AM,225.4,222.9,13.50,,,,,
852,11/12/21 11:15:00 AM,225.6,222.9,13.46,,,,,
853,11/12/21 11:30:00 AM,222.9,220.2,13.68,,,,,
854,11/12/21 11:45:00 AM,231.5,228.9,13.49,,,,,
855,11/12/21 12:00:00 PM,225.2,222.8,13.67,,,,,
856,11/12/21 12:15:00 PM,228.3,226.2,13.57,,,,,
857,11/12/21 12:30:00 PM,222.8,220.2,13.67,,,,,
858,11/12/21 12:45:00 PM,217.2,215.0,13.69,,,,,
859,11/12/21 01:00:00 PM,218.7,215.7,13.73,,,,,
860,11/12/21 01:15:00 PM,221.9,219.5,13.78,,,,,
861,11/12/21 01:30:00 PM,220.4,217.9,13.89,,,,,
862,11/12/21 01:45:00 PM,223.2,220.9,13.82,,,,,
863,11/12/21 02:00:00 PM,223.0,220.5,14.00,,,,,
864,11/12/21 02:15:00 PM,224.2,225.0,13.88,,,,,
865,11/12/21 02:30:00 PM,226.0,223.5,14.11,,,,,
866,11/12/21 02:45:00 PM,225.9,223.5,14.11,,,,,
867,11/12/21 03:00:00 PM,224.0,221.2,14.28,,,,,
868,11/12/21 03:15:00 PM,226.1,223.5,14.11,,,,,
869,11/12/21 03:30:00 PM,226.2,223.8,14.21,,,,,
870,11/12/21 03:45:00 PM,225.2,222.3,14.24,,,,,
871,11/12/21 04:00:00 PM,227.7,225.3,14.18,,,,,
872,11/12/21 04:15:00 PM,225.2,223.1,14.24,,,,,
873,11/12/21 04:30:00 PM,224.7,222.0,14.24,,,,,
874,11/12/21 04:45:00 PM,228.1,225.4,14.13,,,,,
875,11/12/21 05:00:00 PM,226.6,224.2,14.23,,,,,
876,11/12/21 05:15:00 PM,224.2,221.2,14.24,,,,,
877,11/12/21 05:30:00 PM,224.4,221.6,14.19,,,,,
878,11/12/21 05:45:00 PM,226.0,223.5,14.15,,,,,
879,11/12/21 06:00:00 PM,225.1,222.4,14.07,,,,,
880,11/12/21 06:15:00 PM,225.0,222.4,14.01,,,,,
881,11/12/21 06:30:00 PM,224.1,221.3,13.99,,,,,
882,11/12/21 06:45:00 PM,222.8,220.2,13.94,,,,,
883,11/12/21 07:00:00 PM,222.5,219.8,13.89,,,,,
884,11/12/21 07:15:00 PM,222.6,220.2,13.84,,,,,
885,11/12/21 07:30:00 PM,221.5,218.7,13.78,,,,,
886,11/12/21 07:45:00 PM,221.4,218.7,13.71,,,,,
887,11/12/21 08:00:00 PM,220.9,218.4,13.65,,,,,
888,11/12/21 08:15:00 PM,220.6,218.0,13.57,,,,,
889,11/12/21 08:30:00 PM,220.9,218.4,13.54,,,,,
890,11/12/21 08:45:00 PM,221.1,218.4,13.48,,,,,
891,11/12/21 09:00:00 PM,221.3,218.8,13.40,,,,,
892,11/12/21 09:15:00 PM,221.2,218.4,13.37,,,,,
893,11/12/21 09:30:00 PM,221.4,218.4,13.28,,,,,
894,11/12/21 09:45:00 PM,221.3,218.8,13.21,,,,,
895,11/12/21 10:00:00 PM,221.2,218.5,13.11,,,,,
896,11/12/21 10:15:00 PM,220.9,218.1,13.05,,,,,
897,11/12/21 10:30:00 PM,220.5,217.8,13.00,,,,,
898,11/12/21 10:45:00 PM,220.3,217.4,12.92,,,,,
899,11/12/21 11:00:00 PM,220.3,217.4,12.87,,,,,
900,11/12/21 11:15:00 PM,220.0,217.4,12.81,,,,,
901,11/12/21 11:30:00 PM,219.9,217.1,12.77,,,,,
902,11/12/21 11:45:00 PM,219.5,217.1,12.69,,,,,
903,11/13/21 12:00:00 AM,219.4,216.7,12.62,,,,,
904,11/13/21 12:15:00 AM,218.9,216.0,12.56,,,,,
905,11/13/21 12:30:00 AM,218.9,215.6,12.51,,,,,
906,11/13/21 12:45:00 AM,218.6,215.6,12.44,,,,,
907,11/13/21 01:00:00 AM,218.4,215.3,12.39,,,,,
908,11/13/21 01:15:00 AM,218.0,215.3,12.33,,,,,
909,11/13/21 01:30:00 AM,217.8,214.9,12.27,,,,,
910,11/13/21 01:45:00 AM,217.5,214.6,12.22,,,,,
911,11/13/21 02:00:00 AM,216.9,214.2,12.14,,,,,
912,11/13/21 02:15:00 AM,216.5,213.9,12.10,,,,,
913,11/13/21 02:30:00 AM,216.2,213.1,12.04,,,,,
914,11/13/21 02:45:00 AM,215.8,212.8,11.99,,,,,
915,11/13/21 03:00:00 AM,215.4,212.8,11.93,,,,,
916,11/13/21 03:15:00 AM,215.4,212.4,11.94,,,,,
917,11/13/21 03:30:00 AM,214.8,212.0,11.87,,,,,
918,11/13/21 03:45:00 AM,214.0,211.3,11.75,,,,,
919,11/13/21 04:00:00 AM,213.8,211.0,11.70,,,,,
920,11/13/21 04:15:00 AM,213.8,211.3,11.70,,,,,
921,11/13/21 04:30:00 AM,213.4,211.0,11.64,,,,,
922,11/13/21 04:45:00 AM,213.3,211.0,11.60,,,,,
923,11/13/21 05:00:00 AM,213.1,210.2,11.55,,,,,
924,11/13/21 05:15:00 AM,212.5,209.5,11.44,,,,,
925,11/13/21 05:30:00 AM,211.9,208.8,11.36,,,,,
926,11/13/21 05:45:00 AM,211.8,208.8,11.32,,,,,
927,11/13/21 06:00:00 AM,211.8,208.8,11.33,,,,,
928,11/13/21 06:15:00 AM,211.8,208.8,11.32,,,,,
929,11/13/21 06:30:00 AM,211.1,208.4,11.23,,,,,
930,11/13/21 06:45:00 AM,210.8,208.1,11.20,,,,,
931,11/13/21 07:00:00 AM,210.6,207.7,11.18,,,,,
932,11/13/21 07:15:00 AM,210.3,207.7,11.13,,,,,
933,11/13/21 07:30:00 AM,210.0,207.3,11.07,,,,,
934,11/13/21 07:45:00 AM,210.6,207.7,11.13,,,,,
935,11/13/21 08:00:00 AM,210.1,207.3,11.07,,,,,
936,11/13/21 08:15:00 AM,210.1,207.0,11.07,,,,,
937,11/13/21 08:30:00 AM,209.6,206.2,11.02,,,,,
938,11/13/21 08:45:00 AM,209.5,206.2,11.01,,,,,
939,11/13/21 09:00:00 AM,209.4,206.2,10.99,,,,,
940,11/13/21 09:15:00 AM,209.3,206.2,10.99,,,,,
941,11/13/21 09:30:00 AM,209.3,206.2,10.98,,,,,
942,11/13/21 09:45:00 AM,209.2,205.9,10.97,,,,,
943,11/13/21 10:00:00 AM,209.3,206.2,10.97,,,,,
944,11/13/21 10:15:00 AM,209.4,206.2,10.97,,,,,
945,11/13/21 10:30:00 AM,209.1,206.3,10.95,,,,,
946,11/13/21 10:45:00 AM,209.3,206.2,10.97,,,,,
947,11/13/21 11:00:00 AM,209.1,206.2,10.97,,,,,
948,11/13/21 11:15:00 AM,209.1,205.9,10.96,,,,,
949,11/13/21 11:30:00 AM,208.9,205.9,10.95,,,,,
950,11/13/21 11:45:00 AM,208.6,205.5,10.93,,,,,
951,11/13/21 12:00:00 PM,208.1,205.5,11.05,,,,,
952,11/13/21 12:15:00 PM,210.5,207.7,11.18,,,,,
953,11/13/21 12:30:00 PM,210.9,208.1,11.25,,,,,
954,11/13/21 12:45:00 PM,211.0,208.0,11.32,,,,,
955,11/13/21 01:00:00 PM,211.5,208.8,11.42,,,,,
956,11/13/21 01:15:00 PM,211.9,209.1,11.54,,,,,
957,11/13/21 01:30:00 PM,212.3,209.5,11.58,,,,,
958,11/13/21 01:45:00 PM,212.6,210.2,11.63,,,,,
959,11/13/21 02:00:00 PM,213.6,210.9,11.76,,,,,
960,11/13/21 02:15:00 PM,212.9,210.9,11.80,,,,,
961,11/13/21 02:30:00 PM,214.1,211.3,11.89,,,,,
962,11/13/21 02:45:00 PM,215.2,212.4,12.02,,,,,
963,11/13/21 03:00:00 PM,214.6,211.6,12.00,,,,,
964,11/13/21 03:15:00 PM,214.6,212.0,12.02,,,,,
965,11/13/21 03:30:00 PM,215.0,212.7,12.05,,,,,
966,11/13/21 03:45:00 PM,214.1,211.3,11.98,,,,,
967,11/13/21 04:00:00 PM,213.7,210.9,11.87,,,,,
968,11/13/21 04:15:00 PM,213.7,210.9,11.83,,,,,
969,11/13/21 04:30:00 PM,213.9,210.9,11.82,,,,,
970,11/13/21 04:45:00 PM,213.1,210.6,11.72,,,,,
971,11/13/21 05:00:00 PM,212.7,209.5,11.70,,,,,
972,11/13/21 05:15:00 PM,212.5,209.8,11.65,,,,,
973,11/13/21 05:30:00 PM,211.6,208.7,11.58,,,,,
974,11/13/21 05:45:00 PM,211.2,208.4,11.50,,,,,
975,11/13/21 06:00:00 PM,210.9,208.0,11.42,,,,,
976,11/13/21 06:15:00 PM,210.8,207.7,11.38,,,,,
977,11/13/21 06:30:00 PM,210.3,207.3,11.31,,,,,
978,11/13/21 06:45:00 PM,210.2,207.3,11.27,,,,,
979,11/13/21 07:00:00 PM,210.1,207.3,11.21,,,,,
980,11/13/21 07:15:00 PM,209.7,206.6,11.15,,,,,
981,11/13/21 07:30:00 PM,209.6,206.6,11.12,,,,,
982,11/13/21 07:45:00 PM,209.5,206.6,11.07,,,,,
983,11/13/21 08:00:00 PM,209.4,206.6,11.03,,,,,
984,11/13/21 08:15:00 PM,209.1,206.2,10.98,,,,,
985,11/13/21 08:30:00 PM,208.6,205.5,10.88,,,,,
986,11/13/21 08:45:00 PM,205.6,202.9,10.82,,,,,
987,11/13/21 09:00:00 PM,208.3,205.2,10.81,,,,,
988,11/13/21 09:15:00 PM,207.9,204.8,10.70,,,,,
989,11/13/21 09:30:00 PM,207.4,204.8,10.62,,,,,
990,11/13/21 09:45:00 PM,207.2,204.1,10.56,,,,,
991,11/13/21 10:00:00 PM,205.3,202.6,10.50,,,,,
992,11/13/21 10:15:00 PM,206.7,203.7,10.45,,,,,
993,11/13/21 10:30:00 PM,206.4,203.0,10.37,,,,,
994,11/13/21 10:45:00 PM,206.3,203.0,10.37,,,,,
995,11/13/21 11:00:00 PM,205.7,203.0,10.28,,,,,
996,11/13/21 11:15:00 PM,205.3,202.3,10.19,,,,,
997,11/13/21 11:30:00 PM,205.2,202.3,10.17,,,,,
998,11/13/21 11:45:00 PM,205.2,202.3,10.14,,,,,
999,11/14/21 12:00:00 AM,204.7,202.0,10.04,,,,,
1000,11/14/21 12:15:00 AM,204.5,201.6,10.02,,,,,
1001,11/14/21 12:30:00 AM,204.1,201.2,9.98,,,,,
1002,11/14/21 12:45:00 AM,203.7,200.5,9.94,,,,,
1003,11/14/21 01:00:00 AM,203.3,200.5,9.87,,,,,
1004,11/14/21 01:15:00 AM,203.3,200.1,9.85,,,,,
1005,11/14/21 01:30:00 AM,203.3,200.5,9.80,,,,,
1006,11/14/21 01:45:00 AM,203.1,199.8,9.75,,,,,
1007,11/14/21 02:00:00 AM,202.8,199.8,9.68,,,,,
1008,11/14/21 02:15:00 AM,202.8,199.8,9.66,,,,,
1009,11/14/21 02:30:00 AM,202.5,199.8,9.61,,,,,
1010,11/14/21 02:45:00 AM,202.2,199.1,9.52,,,,,
1011,11/14/21 03:00:00 AM,201.5,198.3,9.44,,,,,
1012,11/14/21 03:15:00 AM,200.9,198.0,9.31,,,,,
1013,11/14/21 03:30:00 AM,200.4,197.6,9.27,,,,,
1014,11/14/21 03:45:00 AM,200.1,197.3,9.21,,,,,
1015,11/14/21 04:00:00 AM,200.2,197.3,9.17,,,,,
1016,11/14/21 04:15:00 AM,200.1,196.9,9.11,,,,,
1017,11/14/21 04:30:00 AM,199.0,195.8,9.02,,,,,
1018,11/14/21 04:45:00 AM,199.4,196.6,8.96,,,,,
1019,11/14/21 05:00:00 AM,199.2,195.8,8.93,,,,,
1020,11/14/21 05:15:00 AM,198.8,195.5,8.86,,,,,
1021,11/14/21 05:30:00 AM,198.5,195.5,8.80,,,,,
1022,11/14/21 05:45:00 AM,198.3,195.1,8.77,,,,,
1023,11/14/21 06:00:00 AM,198.2,195.5,8.73,,,,,
1024,11/14/21 06:15:00 AM,197.9,194.7,8.66,,,,,
1025,11/14/21 06:30:00 AM,197.5,194.4,8.61,,,,,
1026,11/14/21 06:45:00 AM,197.3,194.4,8.55,,,,,
1027,11/14/21 07:00:00 AM,197.0,194.0,8.50,,,,,
1028,11/14/21 07:15:00 AM,196.7,193.7,8.49,,,,,
1029,11/14/21 07:30:00 AM,196.5,193.7,8.38,,,,,
1030,11/14/21 07:45:00 AM,196.5,193.7,8.34,,,,,
1031,11/14/21 08:00:00 AM,196.3,193.3,8.29,,,,,
1032,11/14/21 08:15:00 AM,196.3,193.3,8.28,,,,,
1033,11/14/21 08:30:00 AM,196.0,193.0,8.21,,,,,
1034,11/14/21 08:45:00 AM,196.6,193.7,8.23,,,,,
1035,11/14/21 09:00:00 AM,193.9,191.1,8.12,,,,,
1036,11/14/21 09:15:00 AM,195.5,192.2,8.10,,,,,
1037,11/14/21 09:30:00 AM,195.1,191.9,8.06,,,,,
1038,11/14/21 09:45:00 AM,193.2,190.4,8.04,,,,,
1039,11/14/21 10:00:00 AM,195.2,191.9,8.07,,,,,
1040,11/14/21 10:15:00 AM,195.9,192.6,8.18,,,,,
1041,11/14/21 10:30:00 AM,196.0,192.6,8.21,,,,,
1042,11/14/21 10:45:00 AM,196.1,192.6,8.26,,,,,
1043,11/14/21 11:00:00 AM,194.0,191.1,8.22,,,,,
1044,11/14/21 11:15:00 AM,196.1,192.6,8.27,,,,,
1045,11/14/21 11:30:00 AM,196.1,192.6,8.29,,,,,
1046,11/14/21 11:45:00 AM,196.5,193.3,8.34,,,,,
1047,11/14/21 12:00:00 PM,196.5,193.3,8.37,,,,,
1048,11/14/21 12:15:00 PM,196.4,193.3,8.41,,,,,
1049,11/14/21 12:30:00 PM,196.7,193.6,8.54,,,,,
1050,11/14/21 12:45:00 PM,196.9,194.0,8.62,,,,,
1051,11/14/21 01:00:00 PM,197.4,194.4,8.72,,,,,
1052,11/14/21 01:15:00 PM,198.5,195.5,8.84,,,,,
1053,11/14/21 01:30:00 PM,200.7,197.7,9.05,,,,,
1054,11/14/21 01:45:00 PM,200.0,196.9,9.10,,,,,
1055,11/14/21 02:00:00 PM,200.0,196.9,9.23,,,,,
1056,11/14/21 02:15:00 PM,199.8,196.9,9.28,,,,,
1057,11/14/21 02:30:00 PM,200.0,196.9,9.29,,,,,
1058,11/14/21 02:45:00 PM,200.3,197.2,9.31,,,,,
1059,11/14/21 03:00:00 PM,200.6,197.6,9.35,,,,,
1060,11/14/21 03:15:00 PM,200.4,197.6,9.39,,,,,
1061,11/14/21 03:30:00 PM,201.2,198.3,9.46,,,,,
1062,11/14/21 03:45:00 PM,201.3,198.3,9.51,,,,,
1063,11/14/21 04:00:00 PM,201.2,198.3,9.55,,,,,
1064,11/14/21 04:15:00 PM,201.2,198.3,9.56,,,,,
1065,11/14/21 04:30:00 PM,201.4,198.3,9.58,,,,,
1066,11/14/21 04:45:00 PM,201.4,198.3,9.62,,,,,
1067,11/14/21 05:00:00 PM,201.8,198.7,9.62,,,,,
1068,11/14/21 05:15:00 PM,202.4,199.4,9.62,,,,,
1069,11/14/21 05:30:00 PM,201.9,198.7,9.57,,,,,
1070,11/14/21 05:45:00 PM,201.8,198.7,9.56,,,,,
1071,11/14/21 06:00:00 PM,201.7,198.7,9.57,,,,,
1072,11/14/21 06:15:00 PM,202.0,198.7,9.58,,,,,
1073,11/14/21 06:30:00 PM,202.0,199.1,9.58,,,,,
1074,11/14/21 06:45:00 PM,200.1,197.6,9.53,,,,,
1075,11/14/21 07:00:00 PM,201.6,198.7,9.53,,,,,
1076,11/14/21 07:15:00 PM,201.6,198.3,9.49,,,,,
1077,11/14/21 07:30:00 PM,201.5,198.7,9.49,,,,,
1078,11/14/21 07:45:00 PM,201.3,198.3,9.47,,,,,
1079,11/14/21 08:00:00 PM,201.3,198.0,9.44,,,,,
1080,11/14/21 08:15:00 PM,201.0,198.0,9.42,,,,,
1081,11/14/21 08:30:00 PM,201.0,198.0,9.41,,,,,
1082,11/14/21 08:45:00 PM,200.9,198.0,9.41,,,,,
1083,11/14/21 09:00:00 PM,200.9,198.0,9.40,,,,,
1084,11/14/21 09:15:00 PM,201.0,198.0,9.39,,,,,
1085,11/14/21 09:30:00 PM,201.0,198.0,9.36,,,,,
1086,11/14/21 09:45:00 PM,201.0,198.0,9.35,,,,,
1087,11/14/21 10:00:00 PM,201.0,198.0,9.31,,,,,
1088,11/14/21 10:15:00 PM,201.0,198.0,9.30,,,,,
1089,11/14/21 10:30:00 PM,201.2,198.0,9.28,,,,,
1090,11/14/21 10:45:00 PM,201.0,198.0,9.27,,,,,
1091,11/14/21 11:00:00 PM,201.2,198.0,9.27,,,,,
1092,11/14/21 11:15:00 PM,201.1,198.0,9.24,,,,,
1093,11/14/21 11:30:00 PM,204.0,202.1,9.22,,,,,
1094,11/14/21 11:45:00 PM,200.9,197.6,9.22,,,,,
1095,11/15/21 12:00:00 AM,200.7,197.6,9.19,,,,,
1096,11/15/21 12:15:00 AM,200.7,197.6,9.18,,,,,
1097,11/15/21 12:30:00 AM,200.6,197.6,9.14,,,,,
1098,11/15/21 12:45:00 AM,200.4,197.3,9.14,,,,,
1099,11/15/21 01:00:00 AM,200.4,197.3,9.14,,,,,
1100,11/15/21 01:15:00 AM,200.3,197.3,9.11,,,,,
1101,11/15/21 01:30:00 AM,199.7,196.9,9.02,,,,,
1102,11/15/21 01:45:00 AM,199.8,196.9,8.97,,,,,
1103,11/15/21 02:00:00 AM,199.3,196.6,8.91,,,,,
1104,11/15/21 02:15:00 AM,199.2,196.2,8.86,,,,,
1105,11/15/21 02:30:00 AM,199.0,195.8,8.80,,,,,
1106,11/15/21 02:45:00 AM,198.5,195.5,8.74,,,,,
1107,11/15/21 03:00:00 AM,198.3,195.1,8.71,,,,,
1108,11/15/21 03:15:00 AM,198.0,194.7,8.66,,,,,
1109,11/15/21 03:30:00 AM,197.9,194.8,8.62,,,,,
1110,11/15/21 03:45:00 AM,197.6,194.8,8.58,,,,,
1111,11/15/21 04:00:00 AM,197.4,194.4,8.54,,,,,
1112,11/15/21 04:15:00 AM,197.5,194.4,8.52,,,,,
1113,11/15/21 04:30:00 AM,197.0,194.0,8.44,,,,,
1114,11/15/21 04:45:00 AM,197.0,194.0,8.45,,,,,
1115,11/15/21 05:00:00 AM,196.8,194.1,8.37,,,,,
1116,11/15/21 05:15:00 AM,196.6,193.7,8.33,,,,,
1117,11/15/21 05:30:00 AM,196.3,193.3,8.28,,,,,
1118,11/15/21 05:45:00 AM,196.0,193.0,8.24,,,,,
1119,11/15/21 06:00:00 AM,195.7,192.2,8.18,,,,,
1120,11/15/21 06:15:00 AM,195.4,192.2,8.16,,,,,
1121,11/15/21 06:30:00 AM,195.4,192.2,8.16,,,,,
1122,11/15/21 06:45:00 AM,192.7,189.2,8.13,,,,,
1123,11/15/21 07:00:00 AM,195.0,191.9,8.07,,,,,
1124,11/15/21 07:15:00 AM,195.0,191.9,8.05,,,,,
1125,11/15/21 07:30:00 AM,194.7,191.5,8.00,,,,,
1126,11/15/21 07:45:00 AM,194.3,191.1,7.93,,,,,
1127,11/15/21 08:00:00 AM,194.2,191.5,7.84,,,,,
1128,11/15/21 08:15:00 AM,193.9,190.8,7.82,,,,,
1129,11/15/21 08:30:00 AM,193.6,190.4,7.77,,,,,
1130,11/15/21 08:45:00 AM,193.4,190.4,7.73,,,,,
1131,11/15/21 09:00:00 AM,194.1,190.8,7.83,,,,,
1132,11/15/21 09:15:00 AM,194.2,190.8,7.78,,,,,
1133,11/15/21 09:30:00 AM,193.4,190.1,7.68,,,,,
1134,11/15/21 09:45:00 AM,193.2,190.1,7.65,,,,,
1135,11/15/21 10:00:00 AM,193.0,189.7,7.67,,,,,
1136,11/15/21 10:15:00 AM,192.6,189.7,7.65,,,,,
1137,11/15/21 10:30:00 AM,192.1,189.0,7.61,,,,,
1138,11/15/21 10:45:00 AM,192.0,189.0,7.62,,,,,
1139,11/15/21 11:00:00 AM,191.9,188.6,7.62,,,,,
1140,11/15/21 11:15:00 AM,192.0,188.6,7.61,,,,,
1141,11/15/21 11:30:00 AM,192.2,188.9,7.65,,,,,
1142,11/15/21 11:45:00 AM,192.8,189.7,7.73,,,,,
1143,11/15/21 12:00:00 PM,193.1,190.1,7.76,,,,,
1144,11/15/21 12:15:00 PM,193.2,190.0,7.78,,,,,
1145,11/15/21 12:30:00 PM,193.3,190.0,7.78,,,,,
1146,11/15/21 12:45:00 PM,193.2,190.0,7.78,,,,,
1147,11/15/21 01:00:00 PM,193.9,190.8,7.92,,,,,
1148,11/15/21 01:15:00 PM,194.3,191.1,7.99,,,,,
1149,11/15/21 01:30:00 PM,195.2,192.2,8.15,,,,,
1150,11/15/21 01:45:00 PM,195.0,192.2,8.13,,,,,
1151,11/15/21 02:00:00 PM,195.6,192.2,8.27,,,,,
1152,11/15/21 02:15:00 PM,196.0,192.9,8.29,,,,,
1153,11/15/21 02:30:00 PM,196.7,193.7,8.44,,,,,
1154,11/15/21 02:45:00 PM,197.8,194.4,8.61,,,,,
1155,11/15/21 03:00:00 PM,199.6,196.6,8.94,,,,,
1156,11/15/21 03:15:00 PM,198.9,195.8,8.78,,,,,
1157,11/15/21 03:30:00 PM,198.3,195.1,8.67,,,,,
1158,11/15/21 03:45:00 PM,198.6,195.5,8.66,,,,,
1159,11/15/21 04:00:00 PM,199.5,196.6,8.73,,,,,
1160,11/15/21 04:15:00 PM,199.2,196.2,8.73,,,,,
1161,11/15/21 04:30:00 PM,200.1,197.0,8.88,,,,,
1162,11/15/21 04:45:00 PM,199.7,196.6,8.86,,,,,
1163,11/15/21 05:00:00 PM,199.6,197.0,8.86,,,,,
1164,11/15/21 05:15:00 PM,199.1,195.8,8.78,,,,,
1165,11/15/21 05:30:00 PM,199.1,196.2,8.78,,,,,
1166,11/15/21 05:45:00 PM,199.0,196.2,8.79,,,,,
1167,11/15/21 06:00:00 PM,199.0,195.8,8.77,,,,,
1168,11/15/21 06:15:00 PM,198.8,195.5,8.74,,,,,
1169,11/15/21 06:30:00 PM,198.6,195.5,8.72,,,,,
1170,11/15/21 06:45:00 PM,198.5,195.5,8.71,,,,,
1171,11/15/21 07:00:00 PM,198.3,195.1,8.65,,,,,
1172,11/15/21 07:15:00 PM,197.8,195.1,8.58,,,,,
1173,11/15/21 07:30:00 PM,197.5,194.4,8.55,,,,,
1174,11/15/21 07:45:00 PM,197.5,194.4,8.56,,,,,
1175,11/15/21 08:00:00 PM,197.1,194.0,8.49,,,,,
1176,11/15/21 08:15:00 PM,196.8,193.7,8.41,,,,,
1177,11/15/21 08:30:00 PM,196.7,193.7,8.38,,,,,
1178,11/15/21 08:45:00 PM,196.6,193.3,8.34,,,,,
1179,11/15/21 09:00:00 PM,196.3,193.3,8.31,,,,,
1180,11/15/21 09:15:00 PM,196.1,192.9,8.27,,,,,
1181,11/15/21 09:30:00 PM,196.0,193.0,8.22,,,,,
1182,11/15/21 09:45:00 PM,195.6,192.6,8.16,,,,,
1183,11/15/21 10:00:00 PM,195.6,192.2,8.12,,,,,
1184,11/15/21 10:15:00 PM,195.4,192.2,8.10,,,,,
1185,11/15/21 10:30:00 PM,195.3,192.2,8.05,,,,,
1186,11/15/21 10:45:00 PM,195.0,191.9,8.01,,,,,
1187,11/15/21 11:00:00 PM,194.8,191.1,7.98,,,,,
1188,11/15/21 11:15:00 PM,194.6,191.1,7.94,,,,,
1189,11/15/21 11:30:00 PM,194.4,191.1,7.90,,,,,
1190,11/15/21 11:45:00 PM,194.4,191.2,7.89,,,,,
1191,11/16/21 12:00:00 AM,194.4,191.2,7.88,,,,,
1192,11/16/21 12:15:00 AM,194.2,191.2,7.85,,,,,
1193,11/16/21 12:30:00 AM,194.2,190.8,7.85,,,,,
1194,11/16/21 12:45:00 AM,194.2,190.8,7.83,,,,,
1195,11/16/21 01:00:00 AM,194.2,190.8,7.82,,,,,
1196,11/16/21 01:15:00 AM,194.0,190.8,7.81,,,,,
1197,11/16/21 01:30:00 AM,193.9,190.8,7.78,,,,,
1198,11/16/21 01:45:00 AM,193.9,190.8,7.77,,,,,
1199,11/16/21 02:00:00 AM,193.9,190.8,7.76,,,,,
1200,11/16/21 02:15:00 AM,193.8,190.8,7.73,,,,,
1201,11/16/21 02:30:00 AM,193.7,190.4,7.72,,,,,
1202,11/16/21 02:45:00 AM,193.7,190.4,7.71,,,,,
1203,11/16/21 03:00:00 AM,193.7,190.4,7.70,,,,,
1204,11/16/21 03:15:00 AM,193.7,190.4,7.70,,,,,
1205,11/16/21 03:30:00 AM,193.6,190.4,7.67,,,,,
1206,11/16/21 03:45:00 AM,193.6,190.4,7.67,,,,,
1207,11/16/21 04:00:00 AM,193.5,190.4,7.66,,,,,
1208,11/16/21 04:15:00 AM,193.4,190.4,7.65,,,,,
1209,11/16/21 04:30:00 AM,193.5,190.5,7.64,,,,,
1210,11/16/21 04:45:00 AM,193.4,190.5,7.62,,,,,
1211,11/16/21 05:00:00 AM,193.4,190.1,7.61,,,,,
1212,11/16/21 05:15:00 AM,193.5,190.5,7.60,,,,,
1213,11/16/21 05:30:00 AM,193.5,190.1,7.59,,,,,
1214,11/16/21 05:45:00 AM,193.6,190.5,7.61,,,,,
1215,11/16/21 06:00:00 AM,193.5,190.5,7.60,,,,,
1216,11/16/21 06:15:00 AM,193.6,190.5,7.61,,,,,
1217,11/16/21 06:30:00 AM,193.6,190.5,7.60,,,,,
1218,11/16/21 06:45:00 AM,193.6,190.5,7.60,,,,,
1219,11/16/21 07:00:00 AM,193.6,190.5,7.60,,,,,
1220,11/16/21 07:15:00 AM,193.6,190.5,7.60,,,,,
1221,11/16/21 07:30:00 AM,193.6,190.5,7.60,,,,,
1222,11/16/21 07:45:00 AM,193.5,190.5,7.59,,,,,
1223,11/16/21 08:00:00 AM,193.5,190.5,7.58,,,,,
1224,11/16/21 08:15:00 AM,193.4,190.5,7.58,,,,,
1225,11/16/21 08:30:00 AM,193.9,190.8,7.58,,,,,
1226,11/16/21 08:45:00 AM,193.5,190.5,7.56,,,,,
1227,11/16/21 09:00:00 AM,194.9,192.0,7.56,,,,,
1228,11/16/21 09:15:00 AM,193.5,190.5,7.59,,,,,
1229,11/16/21 09:30:00 AM,193.6,190.5,7.61,,,,,
1230,11/16/21 09:45:00 AM,193.7,190.5,7.64,,,,,
1231,11/16/21 10:00:00 AM,194.0,190.8,7.65,,,,,
1232,11/16/21 10:15:00 AM,193.9,190.8,7.66,,,,,
1233,11/16/21 10:30:00 AM,193.9,190.8,7.68,,,,,
1234,11/16/21 10:45:00 AM,194.2,190.8,7.71,,,,,
1235,11/16/21 11:00:00 AM,194.4,191.2,7.73,,,,,
1236,11/16/21 11:15:00 AM,194.5,191.2,7.76,,,,,
1237,11/16/21 11:30:00 AM,195.1,192.3,7.84,,,,,
1238,11/16/21 11:45:00 AM,195.2,192.3,7.88,,,,,
1239,11/16/21 12:00:00 PM,195.8,193.0,7.90,,,,,
1240,11/16/21 12:15:00 PM,196.3,193.0,7.96,,,,,
1241,11/16/21 12:30:00 PM,197.1,194.1,8.06,,,,,
1242,11/16/21 12:45:00 PM,196.8,193.7,8.09,,,,,
1243,11/16/21 01:00:00 PM,197.4,194.5,8.15,,,,,
1244,11/16/21 01:15:00 PM,197.6,194.5,8.18,,,,,
1245,11/16/21 01:30:00 PM,197.9,194.8,8.27,,,,,
1246,11/16/21 01:45:00 PM,198.0,194.8,8.32,,,,,
1247,11/16/21 02:00:00 PM,198.3,195.6,8.33,,,,,
1248,11/16/21 02:15:00 PM,198.6,195.6,8.37,,,,,
1249,11/16/21 02:30:00 PM,198.8,195.9,8.41,,,,,
1250,11/16/21 02:45:00 PM,199.5,196.3,8.56,,,,,
1251,11/16/21 03:00:00 PM,199.7,196.6,8.62,,,,,
1252,11/16/21 03:15:00 PM,200.6,197.7,8.76,,,,,
1253,11/16/21 03:30:00 PM,200.7,197.7,8.83,,,,,
1254,11/16/21 03:45:00 PM,200.6,197.7,8.80,,,,,
1255,11/16/21 04:00:00 PM,200.8,197.7,8.84,,,,,
1256,11/16/21 04:15:00 PM,201.4,198.4,8.90,,,,,
1257,11/16/21 04:30:00 PM,201.9,198.8,9.01,,,,,
1258,11/16/21 04:45:00 PM,201.9,198.8,9.07,,,,,
1259,11/16/21 05:00:00 PM,201.6,198.4,9.05,,,,,
1260,11/16/21 05:15:00 PM,202.0,199.2,9.01,,,,,
1261,11/16/21 05:30:00 PM,202.5,199.5,9.06,,,,,
1262,11/16/21 05:45:00 PM,202.3,199.2,9.02,,,,,
1263,11/16/21 06:00:00 PM,202.2,198.8,9.06,,,,,
1264,11/16/21 06:15:00 PM,202.2,199.2,9.10,,,,,
1265,11/16/21 06:30:00 PM,202.5,199.5,9.12,,,,,
1266,11/16/21 06:45:00 PM,202.6,199.9,9.12,,,,,
1267,11/16/21 07:00:00 PM,202.4,199.5,9.10,,,,,
1268,11/16/21 07:15:00 PM,202.1,199.2,9.08,,,,,
1269,11/16/21 07:30:00 PM,202.0,198.8,9.06,,,,,
1270,11/16/21 07:45:00 PM,201.8,198.4,9.04,,,,,
1271,11/16/21 08:00:00 PM,201.6,198.8,9.04,,,,,
1272,11/16/21 08:15:00 PM,201.4,198.4,9.00,,,,,
1273,11/16/21 08:30:00 PM,201.2,198.4,8.97,,,,,
1274,11/16/21 08:45:00 PM,200.9,197.7,8.91,,,,,
1275,11/16/21 09:00:00 PM,200.6,197.7,8.91,,,,,
1276,11/16/21 09:15:00 PM,200.4,197.3,8.88,,,,,
1277,11/16/21 09:30:00 PM,200.1,197.0,8.83,,,,,
1278,11/16/21 09:45:00 PM,199.8,197.0,8.80,,,,,
1279,11/16/21 10:00:00 PM,199.4,196.6,8.77,,,,,
1280,11/16/21 10:15:00 PM,199.3,196.6,8.74,,,,,
1281,11/16/21 10:30:00 PM,199.4,196.6,8.69,,,,,
1282,11/16/21 10:45:00 PM,199.3,196.2,8.68,,,,,
1283,11/16/21 11:00:00 PM,199.3,196.6,8.67,,,,,
1284,11/16/21 11:15:00 PM,199.3,196.3,8.63,,,,,
1285,11/16/21 11:30:00 PM,199.2,196.3,8.62,,,,,
1286,11/16/21 11:45:00 PM,199.2,196.3,8.61,,,,,
1287,11/17/21 12:00:00 AM,199.2,196.3,8.58,,,,,
1288,11/17/21 12:15:00 AM,199.1,196.3,8.54,,,,,
1289,11/17/21 12:30:00 AM,199.0,195.5,8.50,,,,,
1290,11/17/21 12:45:00 AM,198.9,195.9,8.49,,,,,
1291,11/17/21 01:00:00 AM,198.7,195.5,8.46,,,,,
1292,11/17/21 01:15:00 AM,198.7,195.5,8.43,,,,,
1293,11/17/21 01:30:00 AM,198.4,195.5,8.40,,,,,
1294,11/17/21 01:45:00 AM,198.3,195.6,8.35,,,,,
1295,11/17/21 02:00:00 AM,198.3,195.6,8.34,,,,,
1296,11/17/21 02:15:00 AM,198.3,195.6,8.33,,,,,
1297,11/17/21 02:30:00 AM,198.4,195.6,8.31,,,,,
1298,11/17/21 02:45:00 AM,198.0,195.2,8.27,,,,,
1299,11/17/21 03:00:00 AM,197.8,194.8,8.23,,,,,
1300,11/17/21 03:15:00 AM,197.8,194.8,8.23,,,,,
1301,11/17/21 03:30:00 AM,197.8,194.8,8.20,,,,,
1302,11/17/21 03:45:00 AM,197.5,194.5,8.17,,,,,
1303,11/17/21 04:00:00 AM,197.4,194.5,8.13,,,,,
1304,11/17/21 04:15:00 AM,197.4,194.5,8.11,,,,,
1305,11/17/21 04:30:00 AM,197.3,194.1,8.10,,,,,
1306,11/17/21 04:45:00 AM,197.2,194.1,8.07,,,,,
1307,11/17/21 05:00:00 AM,197.1,194.1,8.05,,,,,
1308,11/17/21 05:15:00 AM,196.9,193.7,8.04,,,,,
1309,11/17/21 05:30:00 AM,196.8,193.8,8.00,,,,,
1310,11/17/21 05:45:00 AM,196.6,193.4,7.99,,,,,
1311,11/17/21 06:00:00 AM,196.5,193.4,7.96,,,,,
1312,11/17/21 06:15:00 AM,196.3,193.4,7.94,,,,,
1313,11/17/21 06:30:00 AM,196.1,193.0,7.92,,,,,
1314,11/17/21 06:45:00 AM,196.1,193.0,7.92,,,,,
1315,11/17/21 07:00:00 AM,195.8,192.7,7.88,,,,,
1316,11/17/21 07:15:00 AM,195.8,192.7,7.87,,,,,
1317,11/17/21 07:30:00 AM,195.8,192.3,7.84,,,,,
1318,11/17/21 07:45:00 AM,195.6,192.3,7.82,,,,,
1319,11/17/21 08:00:00 AM,195.4,192.3,7.78,,,,,
1320,11/17/21 08:15:00 AM,195.3,192.3,7.76,,,,,
1321,11/17/21 08:30:00 AM,195.2,192.3,7.75,,,,,
1322,11/17/21 08:45:00 AM,195.1,192.3,7.73,,,,,
1323,11/17/21 09:00:00 AM,195.3,192.3,7.75,,,,,
1324,11/17/21 09:15:00 AM,195.6,192.3,7.76,,,,,
1325,11/17/21 09:30:00 AM,195.4,192.7,7.75,,,,,
1326,11/17/21 09:45:00 AM,195.7,192.7,7.76,,,,,
1327,11/17/21 10:00:00 AM,195.1,191.9,7.72,,,,,
1328,11/17/21 10:15:00 AM,195.1,191.9,7.72,,,,,
1329,11/17/21 10:30:00 AM,195.2,192.3,7.75,,,,,
1330,11/17/21 10:45:00 AM,195.3,192.3,7.78,,,,,
1331,11/17/21 11:00:00 AM,195.8,192.7,7.82,,,,,
1332,11/17/21 11:15:00 AM,196.1,193.0,7.85,,,,,
1333,11/17/21 11:30:00 AM,196.5,193.4,7.90,,,,,
1334,11/17/21 11:45:00 AM,196.6,193.4,7.94,,,,,
1335,11/17/21 12:00:00 PM,196.6,193.8,7.95,,,,,
1336,11/17/21 12:15:00 PM,196.8,193.8,8.01,,,,,
1337,11/17/21 12:30:00 PM,197.3,194.5,8.09,,,,,
1338,11/17/21 12:45:00 PM,197.6,194.5,8.13,,,,,
1339,11/17/21 01:00:00 PM,198.3,195.6,8.22,,,,,
1340,11/17/21 01:15:00 PM,199.1,196.3,8.32,,,,,
1341,11/17/21 01:30:00 PM,199.3,196.3,8.37,,,,,
1342,11/17/21 01:45:00 PM,199.9,196.7,8.45,,,,,
1343,11/17/21 02:00:00 PM,200.1,197.4,8.52,,,,,
1344,11/17/21 02:15:00 PM,200.7,197.8,8.57,,,,,
1345,11/17/21 02:30:00 PM,201.2,198.5,8.63,,,,,
1346,11/17/21 02:45:00 PM,201.2,198.1,8.65,,,,,
1347,11/17/21 03:00:00 PM,200.9,197.7,8.67,,,,,
1348,11/17/21 03:15:00 PM,203.0,199.9,8.93,,,,,
1349,11/17/21 03:30:00 PM,204.3,201.0,9.16,,,,,
1350,11/17/21 03:45:00 PM,203.6,200.7,9.05,,,,,
1351,11/17/21 04:00:00 PM,203.2,200.3,8.97,,,,,
1352,11/17/21 04:15:00 PM,207.0,204.0,9.34,,,,,
1353,11/17/21 04:30:00 PM,206.5,203.5,9.58,,,,,
1354,11/17/21 04:45:00 PM,205.6,202.9,9.23,,,,,
1355,11/17/21 05:00:00 PM,207.4,204.7,9.64,,,,,
1356,11/17/21 05:15:00 PM,207.4,204.6,9.70,,,,,
1357,11/17/21 05:30:00 PM,208.8,206.2,9.59,,,,,
1358,11/17/21 05:45:00 PM,210.9,208.3,10.07,,,,,
1359,11/17/21 06:00:00 PM,209.0,206.4,10.04,,,,,
1360,11/17/21 06:15:00 PM,209.1,206.5,9.90,,,,,
1361,11/17/21 06:30:00 PM,209.3,206.5,9.98,,,,,
1362,11/17/21 06:45:00 PM,209.1,206.5,9.92,,,,,
1363,11/17/21 07:00:00 PM,209.6,206.8,9.97,,,,,
1364,11/17/21 07:15:00 PM,209.8,207.2,10.09,,,,,
1365,11/17/21 07:30:00 PM,210.2,207.6,10.12,,,,,
1366,11/17/21 07:45:00 PM,210.3,207.6,10.07,,,,,
1367,11/17/21 08:00:00 PM,210.2,207.6,10.06,,,,,
1368,11/17/21 08:15:00 PM,210.0,207.2,10.04,,,,,
1369,11/17/21 08:30:00 PM,209.8,207.2,10.03,,,,,
1370,11/17/21 08:45:00 PM,210.0,207.2,10.04,,,,,
1371,11/17/21 09:00:00 PM,210.1,207.6,10.04,,,,,
1372,11/17/21 09:15:00 PM,211.6,209.1,10.07,,,,,
1373,11/17/21 09:30:00 PM,211.0,208.3,9.98,,,,,
1374,11/17/21 09:45:00 PM,210.5,208.0,9.98,,,,,
1375,11/17/21 10:00:00 PM,210.4,207.6,9.98,,,,,
1376,11/17/21 10:15:00 PM,211.1,208.4,9.91,,,,,
1377,11/17/21 10:30:00 PM,211.9,209.5,9.92,,,,,
1378,11/17/21 10:45:00 PM,211.8,209.5,9.81,,,,,
1379,11/17/21 11:00:00 PM,211.8,209.1,9.78,,,,,
1380,11/17/21 11:15:00 PM,205.8,203.1,9.77,,,,,
1381,11/17/21 11:30:00 PM,205.6,202.8,9.77,,,,,
1382,11/17/21 11:45:00 PM,205.4,202.8,9.75,,,,,
1383,11/18/21 12:00:00 AM,206.1,203.1,9.77,,,,,
1384,11/18/21 12:15:00 AM,206.9,203.9,9.77,,,,,
1385,11/18/21 12:30:00 AM,208.7,206.1,9.74,,,,,
1386,11/18/21 12:45:00 AM,210.1,207.3,9.73,,,,,
1387,11/18/21 01:00:00 AM,209.6,206.9,9.70,,,,,
1388,11/18/21 01:15:00 AM,209.0,206.2,9.69,,,,,
1389,11/18/21 01:30:00 AM,207.7,204.7,9.68,,,,,
1390,11/18/21 01:45:00 AM,206.1,203.2,9.64,,,,,
1391,11/18/21 02:00:00 AM,205.9,203.2,9.63,,,,,
1392,11/18/21 02:15:00 AM,206.2,203.5,9.61,,,,,
1393,11/18/21 02:30:00 AM,205.6,202.8,9.58,,,,,
1394,11/18/21 02:45:00 AM,205.5,202.8,9.57,,,,,
1395,11/18/21 03:00:00 AM,205.4,202.4,9.56,,,,,
1396,11/18/21 03:15:00 AM,205.5,202.4,9.53,,,,,
1397,11/18/21 03:30:00 AM,205.3,202.4,9.52,,,,,
1398,11/18/21 03:45:00 AM,205.0,202.1,9.49,,,,,
1399,11/18/21 04:00:00 AM,204.9,201.7,9.47,,,,,
1400,11/18/21 04:15:00 AM,204.9,201.7,9.46,,,,,
1401,11/18/21 04:30:00 AM,204.7,201.7,9.45,,,,,
1402,11/18/21 04:45:00 AM,204.7,201.7,9.42,,,,,
1403,11/18/21 05:00:00 AM,204.6,201.7,9.39,,,,,
1404,11/18/21 05:15:00 AM,204.5,201.3,9.36,,,,,
1405,11/18/21 05:30:00 AM,204.2,201.4,9.34,,,,,
1406,11/18/21 05:45:00 AM,204.1,201.0,9.31,,,,,
1407,11/18/21 06:00:00 AM,204.0,201.0,9.30,,,,,
1408,11/18/21 06:15:00 AM,204.0,201.0,9.28,,,,,
1409,11/18/21 06:30:00 AM,204.0,201.0,9.28,,,,,
1410,11/18/21 06:45:00 AM,204.2,201.0,9.27,,,,,
1411,11/18/21 07:00:00 AM,204.3,201.4,9.28,,,,,
1412,11/18/21 07:15:00 AM,204.6,201.7,9.28,,,,,
1413,11/18/21 07:30:00 AM,204.4,201.7,9.25,,,,,
1414,11/18/21 07:45:00 AM,204.5,201.7,9.25,,,,,
1415,11/18/21 08:00:00 AM,204.9,201.7,9.28,,,,,
1416,11/18/21 08:15:00 AM,204.8,201.7,9.25,,,,,
1417,11/18/21 08:30:00 AM,204.9,201.8,9.23,,,,,
1418,11/18/21 08:45:00 AM,205.1,202.1,9.24,,,,,
1419,11/18/21 09:00:00 AM,205.1,201.7,9.24,,,,,
1420,11/18/21 09:15:00 AM,205.0,202.1,9.25,,,,,
1421,11/18/21 09:30:00 AM,205.0,202.1,9.25,,,,,
1422,11/18/21 09:45:00 AM,204.6,201.7,9.24,,,,,
1423,11/18/21 10:00:00 AM,204.3,201.4,9.19,,,,,
1424,11/18/21 10:15:00 AM,204.1,201.4,9.21,,,,,
1425,11/18/21 10:30:00 AM,203.9,201.0,9.22,,,,,
1426,11/18/21 10:45:00 AM,204.0,201.0,9.28,,,,,
1427,11/18/21 11:00:00 AM,204.6,201.7,9.38,,,,,
1428,11/18/21 11:15:00 AM,201.9,199.8,9.47,,,,,
1429,11/18/21 11:30:00 AM,206.1,203.2,9.56,,,,,
1430,11/18/21 11:45:00 AM,206.3,203.2,9.58,,,,,
1431,11/18/21 12:00:00 PM,205.4,202.8,9.57,,,,,
1432,11/18/21 12:15:00 PM,206.3,203.5,9.70,,,,,
1433,11/18/21 12:30:00 PM,208.4,205.7,9.97,,,,,
1434,11/18/21 12:45:00 PM,208.6,206.1,10.12,,,,,
1435,11/18/21 01:00:00 PM,210.1,207.5,10.28,,,,,
1436,11/18/21 01:15:00 PM,211.2,208.6,10.45,,,,,
1437,11/18/21 01:30:00 PM,212.2,209.7,10.71,,,,,
1438,11/18/21 01:45:00 PM,212.7,210.4,10.85,,,,,
1439,11/18/21 02:00:00 PM,212.2,209.7,10.69,,,,,
1440,11/18/21 02:15:00 PM,214.0,211.5,11.14,,,,,
1441,11/18/21 02:30:00 PM,213.3,210.8,10.92,,,,,
1442,11/18/21 02:45:00 PM,214.7,212.2,11.08,,,,,
1443,11/18/21 03:00:00 PM,216.4,214.0,11.59,,,,,
1444,11/18/21 03:15:00 PM,218.3,215.8,11.71,,,,,
1445,11/18/21 03:30:00 PM,219.3,216.6,11.75,,,,,
1446,11/18/21 03:45:00 PM,218.6,216.2,11.71,,,,,
1447,11/18/21 04:00:00 PM,218.9,216.2,11.48,,,,,
1448,11/18/21 04:15:00 PM,217.6,215.1,11.68,,,,,
1449,11/18/21 04:30:00 PM,218.4,215.8,11.89,,,,,
1450,11/18/21 04:45:00 PM,219.5,216.9,11.89,,,,,
1451,11/18/21 05:00:00 PM,219.4,216.9,12.05,,,,,
1452,11/18/21 05:15:00 PM,219.5,216.9,11.86,,,,,
1453,11/18/21 05:30:00 PM,221.3,219.1,12.09,,,,,
1454,11/18/21 05:45:00 PM,221.1,218.8,11.85,,,,,
1455,11/18/21 06:00:00 PM,222.3,219.9,11.93,,,,,
1456,11/18/21 06:15:00 PM,221.9,219.5,11.87,,,,,
1457,11/18/21 06:30:00 PM,221.7,219.5,11.89,,,,,
1458,11/18/21 06:45:00 PM,220.5,218.0,12.15,,,,,
1459,11/18/21 07:00:00 PM,220.5,217.6,12.10,,,,,
1460,11/18/21 07:15:00 PM,220.2,217.6,12.04,,,,,
1461,11/18/21 07:30:00 PM,220.0,217.2,12.00,,,,,
1462,11/18/21 07:45:00 PM,220.2,217.6,11.96,,,,,
1463,11/18/21 08:00:00 PM,221.2,218.8,11.94,,,,,
1464,11/18/21 08:15:00 PM,220.0,217.6,12.02,,,,,
1465,11/18/21 08:30:00 PM,219.6,217.2,12.10,,,,,
1466,11/18/21 08:45:00 PM,219.6,216.9,12.09,,,,,
1467,11/18/21 09:00:00 PM,221.0,218.8,11.93,,,,,
1468,11/18/21 09:15:00 PM,222.6,219.9,11.87,,,,,
1469,11/18/21 09:30:00 PM,224.3,222.1,11.96,,,,,
1470,11/18/21 09:45:00 PM,223.6,221.0,12.08,,,,,
1471,11/18/21 10:00:00 PM,221.7,219.5,12.08,,,,,
1472,11/18/21 10:15:00 PM,221.9,219.5,12.03,,,,,
1473,11/18/21 10:30:00 PM,220.6,218.4,12.05,,,,,
1474,11/18/21 10:45:00 PM,220.9,218.7,11.98,,,,,
1475,11/18/21 11:00:00 PM,221.1,218.7,12.10,,,,,
1476,11/18/21 11:15:00 PM,219.9,217.6,12.11,,,,,
1477,11/18/21 11:30:00 PM,220.3,218.0,12.11,,,,,
1478,11/18/21 11:45:00 PM,220.1,217.6,12.16,,,,,
1479,11/19/21 12:00:00 AM,220.1,217.6,12.17,,,,,
1480,11/19/21 12:15:00 AM,219.9,217.2,12.04,,,,,
1481,11/19/21 12:30:00 AM,221.0,219.2,11.86,,,,,
1482,11/19/21 12:45:00 AM,222.5,219.9,11.92,,,,,
1483,11/19/21 01:00:00 AM,222.4,219.9,11.88,,,,,
1484,11/19/21 01:15:00 AM,224.2,222.2,11.82,,,,,
1485,11/19/21 01:30:00 AM,223.1,221.1,11.72,,,,,
1486,11/19/21 01:45:00 AM,219.8,217.3,11.63,,,,,
1487,11/19/21 02:00:00 AM,217.8,215.5,11.53,,,,,
1488,11/19/21 02:15:00 AM,217.1,214.4,11.42,,,,,
1489,11/19/21 02:30:00 AM,216.7,214.4,11.32,,,,,
1490,11/19/21 02:45:00 AM,216.7,214.4,11.26,,,,,
1491,11/19/21 03:00:00 AM,215.9,213.3,11.16,,,,,
1492,11/19/21 03:15:00 AM,215.3,212.6,11.07,,,,,
1493,11/19/21 03:30:00 AM,214.7,212.2,10.98,,,,,
1494,11/19/21 03:45:00 AM,213.7,211.5,10.88,,,,,
1495,11/19/21 04:00:00 AM,213.2,210.8,10.80,,,,,
1496,11/19/21 04:15:00 AM,212.6,210.0,10.71,,,,,
1497,11/19/21 04:30:00 AM,212.4,210.1,10.68,,,,,
1498,11/19/21 04:45:00 AM,212.0,209.7,10.57,,,,,
1499,11/19/21 05:00:00 AM,211.8,209.3,10.53,,,,,
1500,11/19/21 05:15:00 AM,211.5,209.0,10.47,,,,,
1501,11/19/21 05:30:00 AM,211.2,208.2,10.39,,,,,
1502,11/19/21 05:45:00 AM,210.5,208.3,10.30,,,,,
1503,11/19/21 06:00:00 AM,210.2,207.5,10.24,,,,,
1504,11/19/21 06:15:00 AM,210.0,207.5,10.18,,,,,
1505,11/19/21 06:30:00 AM,209.8,207.2,10.14,,,,,
1506,11/19/21 06:45:00 AM,209.5,206.8,10.08,,,,,
1507,11/19/21 07:00:00 AM,208.8,206.1,9.95,,,,,
1508,11/19/21 07:15:00 AM,208.4,205.7,9.87,,,,,
1509,11/19/21 07:30:00 AM,208.5,205.7,9.86,,,,,
1510,11/19/21 07:45:00 AM,208.1,205.0,9.78,,,,,
1511,11/19/21 08:00:00 AM,207.9,205.0,9.73,,,,,
1512,11/19/21 08:15:00 AM,207.7,205.0,9.69,,,,,
1513,11/19/21 08:30:00 AM,207.7,205.0,9.66,,,,,
1514,11/19/21 08:45:00 AM,207.6,205.0,9.62,,,,,
1515,11/19/21 09:00:00 AM,207.3,204.7,9.58,,,,,
1516,11/19/21 09:15:00 AM,207.1,204.3,9.55,,,,,
1517,11/19/21 09:30:00 AM,207.0,204.3,9.53,,,,,
1518,11/19/21 09:45:00 AM,206.9,203.9,9.52,,,,,
1519,11/19/21 10:00:00 AM,206.9,203.9,9.52,,,,,
1520,11/19/21 10:15:00 AM,206.8,203.9,9.51,,,,,
1521,11/19/21 10:30:00 AM,206.9,204.3,9.51,,,,,
1522,11/19/21 10:45:00 AM,207.3,205.1,9.55,,,,,
1523,11/19/21 11:00:00 AM,207.4,205.1,9.53,,,,,
1524,11/19/21 11:15:00 AM,206.8,204.0,9.45,,,,,
1525,11/19/21 11:30:00 AM,206.9,204.0,9.46,,,,,
1526,11/19/21 11:45:00 AM,206.9,203.9,9.49,,,,,
1527,11/19/21 12:00:00 PM,206.6,203.6,9.46,,,,,
1528,11/19/21 12:15:00 PM,205.9,202.8,9.40,,,,,
1529,11/19/21 12:30:00 PM,205.6,202.8,9.35,,,,,
1530,11/19/21 12:45:00 PM,205.9,202.9,9.34,,,,,
1531,11/19/21 01:00:00 PM,205.8,202.8,9.41,,,,,
1532,11/19/21 01:15:00 PM,207.2,204.3,9.66,,,,,
1533,11/19/21 01:30:00 PM,207.8,205.0,9.78,,,,,
1534,11/19/21 01:45:00 PM,208.1,205.4,9.79,,,,,
1535,11/19/21 02:00:00 PM,208.4,205.7,9.81,,,,,
1536,11/19/21 02:15:00 PM,208.6,205.7,9.86,,,,,
1537,11/19/21 02:30:00 PM,208.5,205.7,9.84,,,,,
1538,11/19/21 02:45:00 PM,208.3,205.7,9.84,,,,,
1539,11/19/21 03:00:00 PM,208.3,205.4,9.83,,,,,
1540,11/19/21 03:15:00 PM,208.4,205.7,9.83,,,,,
1541,11/19/21 03:30:00 PM,208.0,205.0,9.75,,,,,
1542,11/19/21 03:45:00 PM,208.1,205.0,9.80,,,,,
1543,11/19/21 04:00:00 PM,208.1,205.4,9.80,,,,,
1544,11/19/21 04:15:00 PM,207.9,205.0,9.75,,,,,
1545,11/19/21 04:30:00 PM,207.8,205.0,9.73,,,,,
1546,11/19/21 04:45:00 PM,207.6,204.6,9.70,,,,,
1547,11/19/21 05:00:00 PM,208.0,205.0,9.80,,,,,
1548,11/19/21 05:15:00 PM,208.0,205.0,9.84,,,,,
1549,11/19/21 05:30:00 PM,208.0,205.0,9.81,,,,,
1550,11/19/21 05:45:00 PM,207.9,205.0,9.77,,,,,
1551,11/19/21 06:00:00 PM,208.3,205.7,9.84,,,,,
1552,11/19/21 06:15:00 PM,208.1,205.0,9.78,,,,,
1553,11/19/21 06:30:00 PM,207.5,204.7,9.69,,,,,
1554,11/19/21 06:45:00 PM,207.4,205.0,9.66,,,,,
1555,11/19/21 07:00:00 PM,207.1,204.7,9.62,,,,,
1556,11/19/21 07:15:00 PM,207.0,203.9,9.58,,,,,
1557,11/19/21 07:30:00 PM,206.6,203.6,9.52,,,,,
1558,11/19/21 07:45:00 PM,206.3,203.2,9.44,,,,,
1559,11/19/21 08:00:00 PM,206.2,203.6,9.42,,,,,
1560,11/19/21 08:15:00 PM,206.1,203.2,9.39,,,,,
1561,11/19/21 08:30:00 PM,205.7,202.9,9.34,,,,,
1562,11/19/21 08:45:00 PM,205.8,202.9,9.30,,,,,
1563,11/19/21 09:00:00 PM,205.8,202.9,9.27,,,,,
1564,11/19/21 09:15:00 PM,205.7,202.9,9.24,,,,,
1565,11/19/21 09:30:00 PM,205.2,202.1,9.17,,,,,
1566,11/19/21 09:45:00 PM,205.0,201.8,9.12,,,,,
1567,11/19/21 10:00:00 PM,204.4,201.8,9.07,,,,,
1568,11/19/21 10:15:00 PM,204.1,201.0,9.00,,,,,
1569,11/19/21 10:30:00 PM,205.6,203.3,8.93,,,,,
1570,11/19/21 10:45:00 PM,203.3,200.3,8.86,,,,,
1571,11/19/21 11:00:00 PM,203.0,200.0,8.79,,,,,
1572,11/19/21 11:15:00 PM,202.9,200.0,8.76,,,,,
1573,11/19/21 11:30:00 PM,202.5,199.6,8.72,,,,,
1574,11/19/21 11:45:00 PM,202.2,199.2,8.67,,,,,
1575,11/20/21 12:00:00 AM,201.7,198.9,8.60,,,,,
1576,11/20/21 12:15:00 AM,201.7,199.3,8.56,,,,,
1577,11/20/21 12:30:00 AM,201.4,198.5,8.51,,,,,
1578,11/20/21 12:45:00 AM,201.3,198.5,8.46,,,,,
1579,11/20/21 01:00:00 AM,201.0,198.2,8.41,,,,,
1580,11/20/21 01:15:00 AM,201.0,198.2,8.37,,,,,
1581,11/20/21 01:30:00 AM,200.5,197.8,8.32,,,,,
1582,11/20/21 01:45:00 AM,200.3,197.5,8.26,,,,,
1583,11/20/21 02:00:00 AM,200.3,197.5,8.23,,,,,
1584,11/20/21 02:15:00 AM,200.1,197.1,8.17,,,,,
1585,11/20/21 02:30:00 AM,199.7,196.7,8.09,,,,,
1586,11/20/21 02:45:00 AM,199.4,196.4,8.04,,,,,
1587,11/20/21 03:00:00 AM,199.3,196.4,8.01,,,,,
1588,11/20/21 03:15:00 AM,199.0,196.0,7.95,,,,,
1589,11/20/21 03:30:00 AM,198.8,196.0,7.90,,,,,
1590,11/20/21 03:45:00 AM,198.5,195.7,7.83,,,,,
1591,11/20/21 04:00:00 AM,198.5,195.7,7.82,,,,,
1592,11/20/21 04:15:00 AM,198.0,195.3,7.73,,,,,
1593,11/20/21 04:30:00 AM,197.7,194.9,7.67,,,,,
1594,11/20/21 04:45:00 AM,197.3,194.2,7.62,,,,,
1595,11/20/21 05:00:00 AM,197.2,194.2,7.56,,,,,
1596,11/20/21 05:15:00 AM,196.9,194.2,7.54,,,,,
1597,11/20/21 05:30:00 AM,196.7,193.9,7.49,,,,,
1598,11/20/21 05:45:00 AM,196.4,193.5,7.43,,,,,
1599,11/20/21 06:00:00 AM,196.2,193.1,7.38,,,,,
1600,11/20/21 06:15:00 AM,195.9,192.8,7.33,,,,,
1601,11/20/21 06:30:00 AM,195.5,192.4,7.26,,,,,
1602,11/20/21 06:45:00 AM,195.3,192.0,7.21,,,,,
1603,11/20/21 07:00:00 AM,195.1,192.1,7.15,,,,,
1604,11/20/21 07:15:00 AM,195.2,192.1,7.14,,,,,
1605,11/20/21 07:30:00 AM,194.6,191.3,7.04,,,,,
1606,11/20/21 07:45:00 AM,194.2,191.0,6.99,,,,,
1607,11/20/21 08:00:00 AM,193.9,191.0,6.89,,,,,
1608,11/20/21 08:15:00 AM,193.7,191.0,6.83,,,,,
1609,11/20/21 08:30:00 AM,193.5,190.6,6.82,,,,,
1610,11/20/21 08:45:00 AM,193.3,190.3,6.74,,,,,
1611,11/20/21 09:00:00 AM,193.2,190.3,6.76,,,,,
1612,11/20/21 09:15:00 AM,193.1,189.9,6.72,,,,,
1613,11/20/21 09:30:00 AM,192.8,189.9,6.67,,,,,
1614,11/20/21 09:45:00 AM,193.2,190.3,6.72,,,,,
1615,11/20/21 10:00:00 AM,193.3,190.3,6.74,,,,,
1616,11/20/21 10:15:00 AM,193.3,190.3,6.75,,,,,
1617,11/20/21 10:30:00 AM,193.5,191.0,6.78,,,,,
1618,11/20/21 10:45:00 AM,193.7,191.0,6.80,,,,,
1619,11/20/21 11:00:00 AM,193.8,191.0,6.83,,,,,
1620,11/20/21 11:15:00 AM,193.9,191.0,6.83,,,,,
1621,11/20/21 11:30:00 AM,194.0,191.0,6.87,,,,,
1622,11/20/21 11:45:00 AM,194.4,191.0,6.91,,,,,
1623,11/20/21 12:00:00 PM,194.5,191.7,6.91,,,,,
1624,11/20/21 12:15:00 PM,194.8,191.7,6.95,,,,,
1625,11/20/21 12:30:00 PM,194.9,192.1,6.98,,,,,
1626,11/20/21 12:45:00 PM,195.3,192.5,7.02,,,,,
1627,11/20/21 01:00:00 PM,195.4,192.4,7.08,,,,,
1628,11/20/21 01:15:00 PM,195.9,193.2,7.16,,,,,
1629,11/20/21 01:30:00 PM,196.4,193.2,7.26,,,,,
1630,11/20/21 01:45:00 PM,197.0,193.5,7.34,,,,,
1631,11/20/21 02:00:00 PM,197.3,194.3,7.40,,,,,
1632,11/20/21 02:15:00 PM,197.8,195.4,7.49,,,,,
1633,11/20/21 02:30:00 PM,198.4,195.3,7.56,,,,,
1634,11/20/21 02:45:00 PM,198.3,195.7,7.61,,,,,
1635,11/20/21 03:00:00 PM,198.3,195.7,7.61,,,,,
1636,11/20/21 03:15:00 PM,198.6,195.7,7.64,,,,,
1637,11/20/21 03:30:00 PM,198.8,196.1,7.64,,,,,
1638,11/20/21 03:45:00 PM,199.1,196.1,7.66,,,,,
1639,11/20/21 04:00:00 PM,199.2,196.4,7.70,,,,,
1640,11/20/21 04:15:00 PM,199.4,196.4,7.70,,,,,
1641,11/20/21 04:30:00 PM,199.6,196.4,7.75,,,,,
1642,11/20/21 04:45:00 PM,199.8,196.8,7.79,,,,,
1643,11/20/21 05:00:00 PM,200.1,197.2,7.83,,,,,
1644,11/20/21 05:15:00 PM,200.2,197.2,7.84,,,,,
1645,11/20/21 05:30:00 PM,200.2,197.2,7.84,,,,,
1646,11/20/21 05:45:00 PM,200.1,197.2,7.84,,,,,
1647,11/20/21 06:00:00 PM,199.8,197.2,7.83,,,,,
1648,11/20/21 06:15:00 PM,200.0,197.2,7.83,,,,,
1649,11/20/21 06:30:00 PM,200.1,197.2,7.83,,,,,
1650,11/20/21 06:45:00 PM,200.1,197.2,7.81,,,,,
1651,11/20/21 07:00:00 PM,199.8,196.8,7.77,,,,,
1652,11/20/21 07:15:00 PM,199.6,196.8,7.72,,,,,
1653,11/20/21 07:30:00 PM,199.4,196.4,7.67,,,,,
1654,11/20/21 07:45:00 PM,199.4,196.5,7.65,,,,,
1655,11/20/21 08:00:00 PM,199.0,196.1,7.61,,,,,
1656,11/20/21 08:15:00 PM,198.6,195.7,7.55,,,,,
1657,11/20/21 08:30:00 PM,198.6,195.7,7.53,,,,,
1658,11/20/21 08:45:00 PM,198.5,195.7,7.50,,,,,
1659,11/20/21 09:00:00 PM,198.2,195.4,7.47,,,,,
1660,11/20/21 09:15:00 PM,197.9,195.0,7.40,,,,,
1661,11/20/21 09:30:00 PM,197.8,194.6,7.38,,,,,
1662,11/20/21 09:45:00 PM,197.5,194.3,7.33,,,,,
1663,11/20/21 10:00:00 PM,197.2,194.3,7.30,,,,,
1664,11/20/21 10:15:00 PM,197.0,194.3,7.26,,,,,
1665,11/20/21 10:30:00 PM,196.9,194.3,7.23,,,,,
1666,11/20/21 10:45:00 PM,196.6,193.9,7.20,,,,,
1667,11/20/21 11:00:00 PM,196.4,193.6,7.15,,,,,
1668,11/20/21 11:15:00 PM,196.0,193.2,7.11,,,,,
1669,11/20/21 11:30:00 PM,195.8,192.8,7.06,,,,,
1670,11/20/21 11:45:00 PM,195.6,192.8,7.03,,,,,
1671,11/21/21 12:00:00 AM,195.4,192.5,6.99,,,,,
1672,11/21/21 12:15:00 AM,195.2,192.1,6.94,,,,,
1673,11/21/21 12:30:00 AM,194.9,191.7,6.91,,,,,
1674,11/21/21 12:45:00 AM,194.7,191.7,6.87,,,,,
1675,11/21/21 01:00:00 AM,194.6,191.4,6.85,,,,,
1676,11/21/21 01:15:00 AM,194.4,191.7,6.81,,,,,
1677,11/21/21 01:30:00 AM,194.2,191.0,6.78,,,,,
1678,11/21/21 01:45:00 AM,194.1,191.0,6.75,,,,,
1679,11/21/21 02:00:00 AM,193.9,191.0,6.74,,,,,
1680,11/21/21 02:15:00 AM,193.7,191.0,6.70,,,,,
1681,11/21/21 02:30:00 AM,193.7,191.0,6.69,,,,,
1682,11/21/21 02:45:00 AM,193.4,190.7,6.64,,,,,
1683,11/21/21 03:00:00 AM,193.3,190.3,6.61,,,,,
1684,11/21/21 03:15:00 AM,193.1,190.3,6.58,,,,,
1685,11/21/21 03:30:00 AM,193.1,189.9,6.55,,,,,
1686,11/21/21 03:45:00 AM,193.0,189.9,6.53,,,,,
1687,11/21/21 04:00:00 AM,192.7,189.6,6.48,,,,,
1688,11/21/21 04:15:00 AM,192.4,189.6,6.42,,,,,
1689,11/21/21 04:30:00 AM,192.3,189.2,6.39,,,,,
1690,11/21/21 04:45:00 AM,192.1,189.2,6.36,,,,,
1691,11/21/21 05:00:00 AM,191.9,188.8,6.33,,,,,
1692,11/21/21 05:15:00 AM,191.7,188.8,6.27,,,,,
1693,11/21/21 05:30:00 AM,191.4,188.5,6.24,,,,,
1694,11/21/21 05:45:00 AM,191.2,188.5,6.20,,,,,
1695,11/21/21 06:00:00 AM,191.0,187.7,6.14,,,,,
1696,11/21/21 06:15:00 AM,190.8,187.7,6.13,,,,,
1697,11/21/21 06:30:00 AM,190.7,187.8,6.10,,,,,
1698,11/21/21 06:45:00 AM,190.5,187.8,6.07,,,,,
1699,11/21/21 07:00:00 AM,190.4,187.4,6.05,,,,,
1700,11/21/21 07:15:00 AM,190.3,187.8,6.02,,,,,
1701,11/21/21 07:30:00 AM,190.2,187.4,6.01,,,,,
1702,11/21/21 07:45:00 AM,190.2,187.0,6.01,,,,,
1703,11/21/21 08:00:00 AM,190.2,187.0,5.99,,,,,
1704,11/21/21 08:15:00 AM,190.1,187.0,5.98,,,,,
1705,11/21/21 08:30:00 AM,190.2,187.0,5.98,,,,,
1706,11/21/21 08:45:00 AM,190.2,187.4,6.01,,,,,
1707,11/21/21 09:00:00 AM,190.2,187.4,5.98,,,,,
1708,11/21/21 09:15:00 AM,190.3,187.8,5.99,,,,,
1709,11/21/21 09:30:00 AM,190.5,187.8,6.02,,,,,
1710,11/21/21 09:45:00 AM,190.6,187.8,6.03,,,,,
1711,11/21/21 10:00:00 AM,195.0,192.7,6.03,,,,,
1712,11/21/21 10:15:00 AM,195.1,192.7,6.04,,,,,
1713,11/21/21 10:30:00 AM,191.0,188.1,6.09,,,,,
1714,11/21/21 10:45:00 AM,191.3,188.5,6.13,,,,,
1715,11/21/21 11:00:00 AM,191.5,188.5,6.18,,,,,
1716,11/21/21 11:15:00 AM,191.9,188.9,6.22,,,,,
1717,11/21/21 11:30:00 AM,192.2,189.2,6.27,,,,,
1718,11/21/21 11:45:00 AM,192.3,189.2,6.33,,,,,
1719,11/21/21 12:00:00 PM,192.7,189.9,6.39,,,,,
1720,11/21/21 12:15:00 PM,192.9,189.9,6.44,,,,,
1721,11/21/21 12:30:00 PM,193.3,190.7,6.48,,,,,
1722,11/21/21 12:45:00 PM,193.7,191.0,6.57,,,,,
1723,11/21/21 01:00:00 PM,194.1,191.0,6.63,,,,,
1724,11/21/21 01:15:00 PM,194.5,191.8,6.70,,,,,
1725,11/21/21 01:30:00 PM,195.0,192.1,6.77,,,,,
1726,11/21/21 01:45:00 PM,195.5,192.5,6.85,,,,,
1727,11/21/21 02:00:00 PM,195.7,192.9,6.89,,,,,
1728,11/21/21 02:15:00 PM,195.9,192.8,6.94,,,,,
1729,11/21/21 02:30:00 PM,196.2,193.2,6.98,,,,,
1730,11/21/21 02:45:00 PM,196.5,193.6,7.03,,,,,
1731,11/21/21 03:00:00 PM,196.7,193.9,7.08,,,,,
1732,11/21/21 03:15:00 PM,196.9,194.3,7.10,,,,,
1733,11/21/21 03:30:00 PM,196.9,194.3,7.14,,,,,
1734,11/21/21 03:45:00 PM,196.9,194.3,7.17,,,,,
1735,11/21/21 04:00:00 PM,197.2,194.3,7.19,,,,,
1736,11/21/21 04:15:00 PM,197.5,194.7,7.23,,,,,
1737,11/21/21 04:30:00 PM,197.6,195.0,7.26,,,,,
1738,11/21/21 04:45:00 PM,197.9,195.4,7.30,,,,,
1739,11/21/21 05:00:00 PM,198.3,195.4,7.42,,,,,
1740,11/21/21 05:15:00 PM,198.3,195.7,7.44,,,,,
1741,11/21/21 05:30:00 PM,198.2,195.4,7.43,,,,,
1742,11/21/21 05:45:00 PM,198.4,195.7,7.44,,,,,
1743,11/21/21 06:00:00 PM,198.6,195.7,7.45,,,,,
1744,11/21/21 06:15:00 PM,198.7,195.7,7.48,,,,,
1745,11/21/21 06:30:00 PM,198.7,195.7,7.48,,,,,
1746,11/21/21 06:45:00 PM,198.7,196.1,7.50,,,,,
1747,11/21/21 07:00:00 PM,198.9,196.1,7.50,,,,,
1748,11/21/21 07:15:00 PM,198.8,195.7,7.50,,,,,
1749,11/21/21 07:30:00 PM,198.7,196.1,7.49,,,,,
1750,11/21/21 07:45:00 PM,198.6,195.7,7.48,,,,,
1751,11/21/21 08:00:00 PM,198.2,195.4,7.47,,,,,
1752,11/21/21 08:15:00 PM,198.3,195.4,7.45,,,,,
1753,11/21/21 08:30:00 PM,198.4,195.7,7.45,,,,,
1754,11/21/21 08:45:00 PM,198.4,195.7,7.45,,,,,
1755,11/21/21 09:00:00 PM,198.2,195.4,7.45,,,,,
1756,11/21/21 09:15:00 PM,198.1,195.4,7.44,,,,,
1757,11/21/21 09:30:00 PM,198.1,195.4,7.44,,,,,
1758,11/21/21 09:45:00 PM,198.1,195.4,7.44,,,,,
1759,11/21/21 10:00:00 PM,198.4,195.7,7.43,,,,,
1760,11/21/21 10:15:00 PM,198.0,195.4,7.43,,,,,
1761,11/21/21 10:30:00 PM,198.0,195.4,7.44,,,,,
1762,11/21/21 10:45:00 PM,197.9,195.4,7.43,,,,,
1763,11/21/21 11:00:00 PM,198.0,195.4,7.43,,,,,
1764,11/21/21 11:15:00 PM,199.2,197.2,7.44,,,,,
1765,11/21/21 11:30:00 PM,198.2,195.4,7.45,,,,,
1766,11/21/21 11:45:00 PM,198.3,195.7,7.44,,,,,
1767,11/22/21 12:00:00 AM,198.3,195.4,7.47,,,,,
1768,11/22/21 12:15:00 AM,198.3,195.4,7.47,,,,,
1769,11/22/21 12:30:00 AM,198.3,195.7,7.47,,,,,
1770,11/22/21 12:45:00 AM,198.3,195.4,7.47,,,,,
1771,11/22/21 01:00:00 AM,198.3,195.7,7.48,,,,,
1772,11/22/21 01:15:00 AM,198.4,195.7,7.49,,,,,
1773,11/22/21 01:30:00 AM,198.4,195.7,7.49,,,,,
1774,11/22/21 01:45:00 AM,198.6,195.7,7.51,,,,,
1775,11/22/21 02:00:00 AM,198.8,196.1,7.53,,,,,
1776,11/22/21 02:15:00 AM,198.9,196.1,7.54,,,,,
1777,11/22/21 02:30:00 AM,198.9,196.1,7.55,,,,,
1778,11/22/21 02:45:00 AM,199.2,196.1,7.56,,,,,
1779,11/22/21 03:00:00 AM,199.3,196.5,7.58,,,,,
1780,11/22/21 03:15:00 AM,199.4,196.5,7.59,,,,,
1781,11/22/21 03:30:00 AM,199.5,196.5,7.61,,,,,
1782,11/22/21 03:45:00 AM,199.8,196.8,7.60,,,,,
1783,11/22/21 04:00:00 AM,199.8,197.2,7.61,,,,,
1784,11/22/21 04:15:00 AM,200.0,197.2,7.61,,,,,
1785,11/22/21 04:30:00 AM,200.0,197.2,7.62,,,,,
1786,11/22/21 04:45:00 AM,201.9,199.8,7.62,,,,,
1787,11/22/21 05:00:00 AM,199.7,196.8,7.61,,,,,
1788,11/22/21 05:15:00 AM,199.4,196.5,7.62,,,,,
1789,11/22/21 05:30:00 AM,199.6,196.8,7.62,,,,,
1790,11/22/21 05:45:00 AM,199.7,196.8,7.64,,,,,
1791,11/22/21 06:00:00 AM,199.8,196.8,7.64,,,,,
1792,11/22/21 06:15:00 AM,200.0,197.2,7.65,,,,,
1793,11/22/21 06:30:00 AM,200.2,197.2,7.66,,,,,
1794,11/22/21 06:45:00 AM,200.2,197.2,7.67,,,,,
1795,11/22/21 07:00:00 AM,200.2,197.2,7.68,,,,,
1796,11/22/21 07:15:00 AM,200.3,197.6,7.70,,,,,
1797,11/22/21 07:30:00 AM,200.3,197.6,7.70,,,,,
1798,11/22/21 07:45:00 AM,200.4,197.6,7.70,,,,,
1799,11/22/21 08:00:00 AM,200.5,197.9,7.71,,,,,
1800,11/22/21 08:15:00 AM,200.4,197.6,7.71,,,,,
1801,11/22/21 08:30:00 AM,200.6,198.3,7.72,,,,,
1802,11/22/21 08:45:00 AM,200.6,197.6,7.72,,,,,
1803,11/22/21 09:00:00 AM,200.6,197.6,7.73,,,,,
1804,11/22/21 09:15:00 AM,200.7,198.3,7.73,,,,,
1805,11/22/21 09:30:00 AM,200.8,197.9,7.76,,,,,
1806,11/22/21 09:45:00 AM,200.8,198.3,7.77,,,,,
1807,11/22/21 10:00:00 AM,200.9,198.3,7.78,,,,,
1808,11/22/21 10:15:00 AM,201.0,198.3,7.81,,,,,
1809,11/22/21 10:30:00 AM,201.3,198.7,7.83,,,,,
1810,11/22/21 10:45:00 AM,201.5,198.7,7.85,,,,,
1811,11/22/21 11:00:00 AM,201.7,199.0,7.88,,,,,
1812,11/22/21 11:15:00 AM,201.9,199.0,7.90,,,,,
1813,11/22/21 11:30:00 AM,202.0,199.4,7.93,,,,,
1814,11/22/21 11:45:00 AM,202.2,199.4,7.95,,,,,
1815,11/22/21 12:00:00 PM,202.4,199.8,7.98,,,,,
1816,11/22/21 12:15:00 PM,202.6,200.1,8.01,,,,,
1817,11/22/21 12:30:00 PM,203.0,200.1,8.04,,,,,
1818,11/22/21 12:45:00 PM,203.2,200.5,8.06,,,,,
1819,11/22/21 01:00:00 PM,203.6,200.9,8.10,,,,,
1820,11/22/21 01:15:00 PM,203.8,200.9,8.15,,,,,
1821,11/22/21 01:30:00 PM,204.1,201.6,8.18,,,,,
1822,11/22/21 01:45:00 PM,204.6,202.0,8.22,,,,,
1823,11/22/21 02:00:00 PM,204.8,202.0,8.26,,,,,
1824,11/22/21 02:15:00 PM,205.1,202.3,8.31,,,,,
1825,11/22/21 02:30:00 PM,205.1,202.3,8.34,,,,,
1826,11/22/21 02:45:00 PM,205.1,201.9,8.39,,,,,
1827,11/22/21 03:00:00 PM,205.2,202.7,8.44,,,,,
1828,11/22/21 03:15:00 PM,205.2,202.3,8.49,,,,,
1829,11/22/21 03:30:00 PM,205.7,203.0,8.55,,,,,
1830,11/22/21 03:45:00 PM,206.1,203.4,8.62,,,,,
1831,11/22/21 04:00:00 PM,205.9,203.0,8.65,,,,,
1832,11/22/21 04:15:00 PM,206.4,203.7,8.73,,,,,
1833,11/22/21 04:30:00 PM,206.5,203.7,8.86,,,,,
1834,11/22/21 04:45:00 PM,206.6,203.7,8.91,,,,,
1835,11/22/21 05:00:00 PM,207.0,204.1,8.95,,,,,
1836,11/22/21 05:15:00 PM,207.0,204.4,8.96,,,,,
1837,11/22/21 05:30:00 PM,207.0,204.1,8.97,,,,,
1838,11/22/21 05:45:00 PM,206.8,203.7,8.97,,,,,
1839,11/22/21 06:00:00 PM,207.1,204.4,8.96,,,,,
1840,11/22/21 06:15:00 PM,207.6,205.2,8.94,,,,,
1841,11/22/21 06:30:00 PM,208.0,205.6,8.93,,,,,
1842,11/22/21 06:45:00 PM,207.3,204.8,8.85,,,,,
1843,11/22/21 07:00:00 PM,206.4,203.7,8.83,,,,,
1844,11/22/21 07:15:00 PM,205.9,203.4,8.77,,,,,
1845,11/22/21 07:30:00 PM,205.8,203.0,8.73,,,,,
1846,11/22/21 07:45:00 PM,205.7,203.0,8.69,,,,,
1847,11/22/21 08:00:00 PM,205.6,203.0,8.68,,,,,
1848,11/22/21 08:15:00 PM,205.4,202.6,8.63,,,,,
1849,11/22/21 08:30:00 PM,205.4,202.6,8.61,,,,,
1850,11/22/21 08:45:00 PM,205.2,202.6,8.58,,,,,
1851,11/22/21 09:00:00 PM,205.1,202.3,8.56,,,,,
1852,11/22/21 09:15:00 PM,204.9,201.9,8.52,,,,,
1853,11/22/21 09:30:00 PM,204.6,201.9,8.44,,,,,
1854,11/22/21 09:45:00 PM,204.4,201.9,8.40,,,,,
1855,11/22/21 10:00:00 PM,204.1,201.6,8.37,,,,,
1856,11/22/21 10:15:00 PM,203.6,200.4,8.29,,,,,
1857,11/22/21 10:30:00 PM,203.2,200.5,8.26,,,,,
1858,11/22/21 10:45:00 PM,202.7,199.7,8.18,,,,,
1859,11/22/21 11:00:00 PM,202.5,199.7,8.13,,,,,
1860,11/22/21 11:15:00 PM,201.3,199.0,8.09,,,,,
1861,11/22/21 11:30:00 PM,202.1,199.4,8.04,,,,,
1862,11/22/21 11:45:00 PM,201.7,199.0,7.98,,,,,
1863,11/23/21 12:00:00 AM,201.6,198.6,7.95,,,,,
1864,11/23/21 12:15:00 AM,201.2,198.7,7.88,,,,,
1865,11/23/21 12:30:00 AM,201.2,198.7,7.87,,,,,
1866,11/23/21 12:45:00 AM,201.0,198.7,7.84,,,,,
1867,11/23/21 01:00:00 AM,200.7,198.3,7.77,,,,,
1868,11/23/21 01:15:00 AM,200.4,197.6,7.72,,,,,
1869,11/23/21 01:30:00 AM,200.4,197.6,7.71,,,,,
1870,11/23/21 01:45:00 AM,200.2,197.6,7.67,,,,,
1871,11/23/21 02:00:00 AM,200.1,197.2,7.64,,,,,
1872,11/23/21 02:15:00 AM,201.3,199.1,7.59,,,,,
1873,11/23/21 02:30:00 AM,201.1,199.1,7.55,,,,,
1874,11/23/21 02:45:00 AM,200.8,198.7,7.49,,,,,
1875,11/23/21 03:00:00 AM,199.2,196.1,7.45,,,,,
1876,11/23/21 03:15:00 AM,198.7,196.1,7.39,,,,,
1877,11/23/21 03:30:00 AM,198.4,195.8,7.32,,,,,
1878,11/23/21 03:45:00 AM,198.2,195.8,7.28,,,,,
1879,11/23/21 04:00:00 AM,198.0,195.4,7.22,,,,,
1880,11/23/21 04:15:00 AM,201.0,199.2,7.17,,,,,
1881,11/23/21 04:30:00 AM,197.5,194.7,7.14,,,,,
1882,11/23/21 04:45:00 AM,197.3,194.3,7.09,,,,,
1883,11/23/21 05:00:00 AM,196.8,194.3,7.02,,,,,
1884,11/23/21 05:15:00 AM,196.6,193.6,6.98,,,,,
1885,11/23/21 05:30:00 AM,196.3,193.6,6.94,,,,,
1886,11/23/21 05:45:00 AM,196.1,193.2,6.89,,,,,
1887,11/23/21 06:00:00 AM,196.0,192.9,6.87,,,,,
1888,11/23/21 06:15:00 AM,195.7,192.9,6.83,,,,,
1889,11/23/21 06:30:00 AM,195.4,192.5,6.78,,,,,
1890,11/23/21 06:45:00 AM,195.3,192.1,6.76,,,,,
1891,11/23/21 07:00:00 AM,195.0,192.1,6.70,,,,,
1892,11/23/21 07:15:00 AM,194.8,192.2,6.65,,,,,
1893,11/23/21 07:30:00 AM,194.6,191.8,6.60,,,,,
1894,11/23/21 07:45:00 AM,194.3,191.4,6.54,,,,,
1895,11/23/21 08:00:00 AM,194.0,191.1,6.50,,,,,
1896,11/23/21 08:15:00 AM,195.8,192.9,6.44,,,,,
1897,11/23/21 08:30:00 AM,195.8,193.0,6.39,,,,,
1898,11/23/21 08:45:00 AM,195.7,193.3,6.39,,,,,
1899,11/23/21 09:00:00 AM,193.5,190.7,6.35,,,,,
1900,11/23/21 09:15:00 AM,192.9,190.0,6.27,,,,,
1901,11/23/21 09:30:00 AM,192.7,189.6,6.25,,,,,
1902,11/23/21 09:45:00 AM,192.6,189.6,6.22,,,,,
1903,11/23/21 10:00:00 AM,192.6,189.6,6.22,,,,,
1904,11/23/21 10:15:00 AM,192.7,189.6,6.21,,,,,
1905,11/23/21 10:30:00 AM,192.5,189.2,6.16,,,,,
1906,11/23/21 10:45:00 AM,192.4,189.6,6.15,,,,,
1907,11/23/21 11:00:00 AM,192.6,189.6,6.16,,,,,
1908,11/23/21 11:15:00 AM,192.4,189.3,6.12,,,,,
1909,11/23/21 11:30:00 AM,192.2,189.3,6.08,,,,,
1910,11/23/21 11:45:00 AM,192.0,189.3,6.07,,,,,
1911,11/23/21 12:00:00 PM,192.2,189.3,6.12,,,,,
1912,11/23/21 12:15:00 PM,19.6,16.3,4.67,,,,,
1913,11/23/21 12:30:00 PM,6.8,2.9,16.02,,,,,
1914,11/23/21 12:41:52 PM,,,,,Logged,,,
1915,11/23/21 12:42:00 PM,,,,,,Logged,,
1916,11/23/21 12:42:10 PM,,,,,,,Logged,Logged
